REPORTING TO|AGENT NO|AGENT NAME|DESCRIPTION|POLICY NUMBER|POLICY HOLDER|POLICYHOLDER NRIC NUMBER|POLICY TYPE|COMPONENT CODE|POLICY TERM|CONTRACT CURRENCY|SUM INSURED|INCEPT DATE|INSTALLMENT FROM DATE|BILLING FREQUENCY|POLICY EXPIRY DATE|GROSS PREMIUM PAID|NETT PREMIUM PAID|GROSS PREMIUM INCLUDE GST AMT|NETT PREMIUM INCLUDE GST AMT|PREMIUM WITHOUT COMMISSION|PREMIUM COMVERSION RATE|PAYMENT CURRENCY|COMMISSION/OR|COMMISSION ADJUSTMENT AMT|COMMISSION RUN DATE|COMMISSION CONVERSION RATE|CERTIFICATE NUMBER|TRANSACTION CODE|TRANSACTION DESC|PREMIUM TERM|DATE OF ISSUE|
69000007 Alvin Nicholas Nathan                                                  |69000027|Marni bte Rahmat                                                      |RENEWAL YEAR                  |24172442|Mohamed Munzeer Mohamed Abdul Kader                                   |1001                              |MSP|MP1A|  .00|SGD|           0.00|20120501  |20150601  |12|20760501  | 00000000009.17| 00000000009.17| 00000000009.81| 00000000009.81| 00000000000.00|   1.0000|SGD| 00000000001.38| 00000000000.00|20150630  |   1.0000|2049627-S7723006H   |B522|Premium Collection            | 64.00|20120426  |
69000007 Alvin Nicholas Nathan                                                  |69000027|Marni bte Rahmat                                                      |RENEWAL YEAR                  |24172442|Mohamed Munzeer Mohamed Abdul Kader                                   |1002                              |MSP|MP1B|  .00|SGD|           0.00|20120501  |20150601  |12|20760501  | 00000000021.44| 00000000021.44| 00000000022.94| 00000000022.94| 00000000000.00|   1.0000|SGD| 00000000003.22| 00000000000.00|20150630  |   1.0000|2049627-S7723006H   |B522|Premium Collection            | 64.00|20120426  |
69000007 Alvin Nicholas Nathan                                                  |69000027|Marni bte Rahmat                                                      |RENEWAL YEAR                  |24172451|Naseema bte Sarwar Khan Surattee                                      |1003                              |MSP|MP1A|  .00|SGD|           0.00|20120501  |20150601  |12|20810501  | 00000000009.17| 00000000009.17| 00000000009.81| 00000000009.81| 00000000000.00|   1.0000|SGD| 00000000001.38| 00000000000.00|20150630  |   1.0000|2049627-S8239707H   |B522|Premium Collection            | 69.00|20120426  |
69000007 Alvin Nicholas Nathan                                                  |69000027|Marni bte Rahmat                                                      |RENEWAL YEAR                  |24172451|Naseema bte Sarwar Khan Surattee                                      |1004                              |MSP|MP1B|  .00|SGD|           0.00|20120501  |20150601  |12|20810501  | 00000000021.44| 00000000021.44| 00000000022.94| 00000000022.94| 00000000000.00|   1.0000|SGD| 00000000003.22| 00000000000.00|20150630  |   1.0000|2049627-S8239707H   |B522|Premium Collection            | 69.00|20120426  |
69000007 Alvin Nicholas Nathan                                                  |69000027|Marni bte Rahmat                                                      |RENEWAL YEAR                  |25071428|Koh Hock Leong                                                        |1005                              |MYS|MSI1|  .00|SGD|           0.00|20120601  |20150601  |01|20690601  | 00000000436.74| 00000000436.74| 00000000467.31| 00000000467.31| 00000000000.00|   1.0000|SGD| 00000000021.84| 00000000000.00|20150630  |   1.0000|                    |B522|Premium Collection            | 57.00|20120528  |
69000007 Alvin Nicholas Nathan                                                  |69000027|Marni bte Rahmat                                                      |RENEWAL YEAR                  |25071432|Koh Hock Leong                                                        |1006                              |MSP|MP1A|  .00|SGD|           0.00|20120601  |20150601  |01|20690601  | 00000000107.48| 00000000107.48| 00000000115.00| 00000000115.00| 00000000000.00|   1.0000|SGD| 00000000016.12| 00000000000.00|20150630  |   1.0000|                    |B522|Premium Collection            | 57.00|20120601  |
69000007 Alvin Nicholas Nathan                                                  |69000027|Marni bte Rahmat                                                      |RENEWAL YEAR                  |25071432|Koh Hock Leong                                                        |1007                              |MSP|MP1B|  .00|SGD|           0.00|20120601  |20150601  |01|20690601  | 00000000251.40| 00000000251.40| 00000000269.00| 00000000269.00| 00000000000.00|   1.0000|SGD| 00000000037.71| 00000000000.00|20150630  |   1.0000|                    |B522|Premium Collection            | 57.00|20120601  |
69000007 Alvin Nicholas Nathan                                                  |69000027|Marni bte Rahmat                                                      |RENEWAL YEAR                  |25095012|Mohd Zulkifli bin Hasan                                               |1008                              |MYS|MSI2|  .00|SGD|           0.00|20120601  |20150601  |01|20710601  | 00000000283.26| 00000000283.26| 00000000303.09| 00000000303.09| 00000000000.00|   1.0000|SGD| 00000000014.16| 00000000000.00|20150630  |   1.0000|                    |B522|Premium Collection            | 59.00|20120528  |
69000007 Alvin Nicholas Nathan                                                  |69000027|Marni bte Rahmat                                                      |RENEWAL YEAR                  |25095021|Mohd Zulkifli bin Hasan                                               |1009                              |MYS|MSI2|  .00|SGD|           0.00|20120601  |20150601  |01|20650601  | 00000000308.77| 00000000308.77| 00000000330.38| 00000000330.38| 00000000000.00|   1.0000|SGD| 00000000015.44| 00000000000.00|20150630  |   1.0000|                    |B522|Premium Collection            | 53.00|20120528  |
69000007 Alvin Nicholas Nathan                                                  |69000027|Marni bte Rahmat                                                      |RENEWAL YEAR                  |25104488|Tan Loo Ling                                                          |1010                              |MYS|MSI1|  .00|SGD|           0.00|20120601  |20150601  |01|20840601  | 00000000155.92| 00000000155.92| 00000000166.83| 00000000166.83| 00000000000.00|   1.0000|SGD| 00000000007.80| 00000000000.00|20150630  |   1.0000|                    |B522|Premium Collection            | 72.00|20120528  |
