STATEMENT FROM DATE|STATEMENT TO DATE|TRANSACTION DATE|AGENT CODE|AGENT NAME|REPORTING AGENT CODE|REPORTING AGENT NAME|CLIENT NAME|CLIENT SECURITY NUMBER|CONTRACT NUMBER|CONTRACT TYPE|CONTRACT CURRENCY|PAYMENT CURRENCY|TRANSACTION CODE|GROSS TRANSACTION AMOUNT|GROSS FEE AMOUNT|NET FEE AMOUNT|FEE DESCRIPTION|FEE AMOUNT|AMOUNT COMVERSION RATE|FEE AMOUNT CONVERSION RATE|BATCH FILE RUN DATE|ADJUSTMENT AMOUNT|ISSUE DATE   |INCEPTION DATE |
20150601|20150630|20150615|69000011|Madavvy d/o Ganesan                     |69000005|Team 1 (Chew Kiam Yong Darren)          |Kapil Jha                               |               |N2469943|NCA|SGD|SGD|B522| 00000000500.00| 00000000002.68| 00000000002.50|INITIAL/UPFRONT FEE           | 00000000002.41|         1.0000|         1.0000|20150630| 00000000000.00|20130923|20130923|
20150601|20150630|20150626|69000011|Madavvy d/o Ganesan                     |69000005|Team 1 (Chew Kiam Yong Darren)          |Lee Teng Teng                           |               |N2530611|NSR|SGD|SGD|T642| 00000001000.00| 00000000010.70| 00000000010.00|INITIAL/UPFRONT FEE           | 00000000004.98|         1.0000|         1.0000|20150630| 00000000000.00|20150626|20150625|
20150601|20150630|20150605|69000020|Yasmin Nadima Khan                      |69000047|Team 4 (Ang Wee Ping Thomas)            |Teo Kim Boon                            |               |N2506881|NOA|SGD|SGD|T512| 00000000000.00| 00000000108.72| 00000000101.61|ONGOING FEE                   | 00000000086.36|         1.0000|         1.0000|20150630| 00000000000.00|20141103|20141031|
20150601|20150630|20150615|69000022|Hoe Sioh Fong                           |69000007|Alvin Nicholas Nathan                   |Lee Hui Kim Mrs Karl-Lee Hui Kim        |               |N2390719|NOA|SGD|SGD|B522| 00000000550.00| 00000000016.48| 00000000015.40|INITIAL/UPFRONT FEE           | 00000000014.93|         1.0000|         1.0000|20150630| 00000000000.00|20110708|20110707|
20150601|20150630|20150615|69000027|Marni bte Rahmat                        |69000007|Alvin Nicholas Nathan                   |Ahmad bin Kamsah                        |               |N2405093|NCA|SGD|SGD|B522| 00000000300.00| 00000000009.63| 00000000009.00|INITIAL/UPFRONT FEE           | 00000000008.72|         1.0000|         1.0000|20150630| 00000000000.00|20111031|20111031|
20150601|20150630|20150609|69000027|Marni bte Rahmat                        |69000007|Alvin Nicholas Nathan                   |Norazman bin Mahmud                     |               |N2414320|NOA|SGD|SGD|T512| 00000000000.00| 00000000053.32| 00000000049.83|ONGOING FEE                   | 00000000042.36|         1.0000|         1.0000|20150630| 00000000000.00|20120206|20120203|
20150601|20150630|20150619|69000027|Marni bte Rahmat                        |69000007|Alvin Nicholas Nathan                   |Rahman bin Ahmad                        |               |N2415765|NOA|SGD|SGD|T512| 00000000000.00| 00000000072.89| 00000000068.12|ONGOING FEE                   | 00000000057.90|         1.0000|         1.0000|20150630| 00000000000.00|20120217|20120216|
20150601|20150630|20150603|69000034|Keisha Premah Kengatheran               |69000006|Team 2 (Gabriel Francis Joseph)         |Venugopal Balakrishnan                  |               |N2528392|NSR|SGD|SGD|T642| 00000025000.00| 00000000535.00| 00000000500.00|INITIAL/UPFRONT FEE           | 00000000485.00|         1.0000|         1.0000|20150630| 00000000000.00|20150603|20150602|
20150601|20150630|20150617|69000036|Faridah bte Hassan                      |69000070|Team 8 (Chee Kok Leong)                 |Noor Hidayu binte Tahir                 |               |N2476875|NOA|SGD|SGD|T512| 00000000000.00| 00000000007.13| 00000000006.66|ONGOING FEE                   | 00000000005.66|         1.0000|         1.0000|20150630| 00000000000.00|20140113|20140110|
20150601|20150630|20150617|69000036|Faridah bte Hassan                      |69000070|Team 8 (Chee Kok Leong)                 |Noor Hidayu binte Tahir                 |               |N2480079|NOA|SGD|SGD|T512| 00000000000.00| 00000000009.93| 00000000009.28|ONGOING FEE                   | 00000000007.90|         1.0000|         1.0000|20150630| 00000000000.00|20140213|20140212|
20150601|20150630|20150615|69000042|Ang Yung Hsien Sandia                   |69000040|Team 6 (Tang Ngeng Hui Mike)            |Yip Kok Sing                            |               |N2393853|NOA|SGD|SGD|B522| 00000002500.00| 00000000037.45| 00000000035.00|INITIAL/UPFRONT FEE           | 00000000033.94|         1.0000|         1.0000|20150630| 00000000000.00|20110802|20110728|
20150601|20150630|20150615|69000042|Ang Yung Hsien Sandia                   |69000040|Team 6 (Tang Ngeng Hui Mike)            |Daniel Nugroho                          |               |N2489719|NOA|SGD|SGD|B522| 00000002600.00| 00000000050.08| 00000000046.80|INITIAL/UPFRONT FEE           | 00000000045.38|         1.0000|         1.0000|20150630| 00000000000.00|20140521|20140520|
20150601|20150630|20150617|69000043|Chee Kok Leong                          |69000070|Team 8 (Chee Kok Leong)                 |Ong Kok Hong                            |               |N2474779|NOA|SGD|SGD|T512| 00000000000.00| 00000000012.12| 00000000011.32|ONGOING FEE                   | 00000000009.63|         1.0000|         1.0000|20150630| 00000000000.00|20131211|20131210|
20150601|20150630|20150615|69000046|Soh Ai Lay Shyan                        |69000044|Team 5 (Ong Sey Kwuan Nick)             |Toh Hong Leong                          |               |N2372632|NOA|SGD|SGD|B522| 00000000500.00| 00000000014.98| 00000000014.00|INITIAL/UPFRONT FEE           | 00000000013.58|         1.0000|         1.0000|20150630| 00000000000.00|20110323|20110322|
20150601|20150630|20150615|69000046|Soh Ai Lay Shyan                        |69000044|Team 5 (Ong Sey Kwuan Nick)             |Kaan Ling Yin Dave                      |               |N2382321|NSA|SGD|SGD|B522| 00000000450.00| 00000000004.82| 00000000004.50|INITIAL/UPFRONT FEE           | 00000000004.36|         1.0000|         1.0000|20150630| 00000000000.00|20110511|20110510|
20150601|20150630|20150615|69000046|Soh Ai Lay Shyan                        |69000044|Team 5 (Ong Sey Kwuan Nick)             |Kaan Ling Yin Dave                      |               |N2382330|NOA|SGD|SGD|B522| 00000000900.00| 00000000009.63| 00000000009.00|INITIAL/UPFRONT FEE           | 00000000008.72|         1.0000|         1.0000|20150630| 00000000000.00|20110511|20110510|
20150601|20150630|20150602|69000046|Soh Ai Lay Shyan                        |69000044|Team 5 (Ong Sey Kwuan Nick)             |Soh Ai Lay Shyan                        |               |N2503710|NCA|SGD|SGD|T679| 00000003000.00| 00000000003.21| 00000000003.00|INITIAL/UPFRONT FEE           | 00000000002.91|         1.0000|         1.0000|20150630| 00000000000.00|20140929|20140929|
20150601|20150630|20150626|69000046|Soh Ai Lay Shyan                        |69000044|Team 5 (Ong Sey Kwuan Nick)             |Khong Yew Wai                           |               |N2530666|NOA|SGD|SGD|T642| 00000010000.00| 00000000172.27| 00000000161.00|INITIAL/UPFRONT FEE           | 00000000156.00|         1.0000|         1.0000|20150630| 00000000000.00|20150626|20150625|
20150601|20150630|20150609|69000048|Luo Xueling                             |69000047|Team 4 (Ang Wee Ping Thomas)            |Lum Wai Chong                           |               |N2511676|NOA|SGD|SGD|T512| 00000000000.00| 00000000335.23| 00000000313.30|ONGOING FEE                   | 00000000275.81|         1.0000|         1.0000|20150630| 00000000000.00|20141218|20141217|
20150601|20150630|20150615|69000054|Wu Xiaoping Martin                      |69000201|Team 18 (Wu Xiaoping Martin)            |Son Tung Tran                           |               |N2435411|NCA|SGD|SGD|B522| 00000001000.00| 00000000032.10| 00000000030.00|INITIAL/UPFRONT FEE           | 00000000029.09|         1.0000|         1.0000|20150630| 00000000000.00|20120924|20120924|
20150601|20150630|20150630|69000057|Zhong BingCheng                         |69000044|Team 5 (Ong Sey Kwuan Nick)             |Ngin Wee Ming                           |               |N2410679|NCA|SGD|SGD|BL1O| 00000000000.00| 00000000021.23| 00000000019.84|ONGOING FEE                   | 00000000013.60|         1.0000|         1.0000|20150630| 00000000000.00|20111227|20111227|
20150601|20150630|20150630|69000057|Zhong BingCheng                         |69000044|Team 5 (Ong Sey Kwuan Nick)             |Ngin Gee Bah @Gern Jee Bah              |               |N2410688|NCA|SGD|SGD|BL1O| 00000000000.00| 00000000021.23| 00000000019.84|ONGOING FEE                   | 00000000013.60|         1.0000|         1.0000|20150630| 00000000000.00|20111227|20111227|
20150601|20150630|20150630|69000059|Tang Ngeng Hui                          |69000040|Team 6 (Tang Ngeng Hui Mike)            |Yeo Kiang Chye                          |               |N2388830|NCA|SGD|SGD|BL1O| 00000000000.00| 00000000120.43| 00000000112.55|ONGOING FEE                   | 00000000095.67|         1.0000|         1.0000|20150630| 00000000000.00|20110623|20110623|
20150601|20150630|20150619|69000077|Chelliah Leslie Anthony                 |69000070|Team 8 (Chee Kok Leong)                 |Chu Pet Chu                             |               |N2418872|NCA|SGD|SGD|T512| 00000000000.00| 00000000127.01| 00000000118.70|ONGOING FEE                   | 00000000100.89|         1.0000|         1.0000|20150630| 00000000000.00|20120309|20120309|
20150601|20150630|20150609|69000081|Chua Ser Chee                           |69000252|Team 27 (Chua Ser Chee)                 |Chan Yin Fong Eugene                    |               |N2436355|NCA|SGD|SGD|T512| 00000000000.00| 00000000061.11| 00000000057.12|ONGOING FEE                   | 00000000048.54|         1.0000|         1.0000|20150630| 00000000000.00|20121003|20121003|
20150601|20150630|20150624|69000088|Lim Chee Wei Clive                      |69000040|Team 6 (Tang Ngeng Hui Mike)            |Ho Gai Leng                             |               |N2475842|NOA|SGD|SGD|T679| 00000030000.00| 00000000802.50| 00000000750.00|INITIAL/UPFRONT FEE           | 00000000727.50|         1.0000|         1.0000|20150630| 00000000000.00|20131226|20131224|
20150601|20150630|20150617|69000088|Lim Chee Wei Clive                      |69000040|Team 6 (Tang Ngeng Hui Mike)            |Lim You Yong                            |               |N2491453|NCA|SGD|SGD|T679| 00000050000.00| 00000001070.00| 00000001000.00|INITIAL/UPFRONT FEE           | 00000000970.00|         1.0000|         1.0000|20150630| 00000000000.00|20140603|20140603|
20150601|20150630|20150615|69000091|Tay Siang Teck                          |69000090|Team 11 (Tay Siang Teck Patrick)        |Lim Mei Ling                            |               |N2529343|NSA|SGD|SGD|T642| 00000080000.00| 00000001284.00| 00000001200.00|INITIAL/UPFRONT FEE           | 00000001164.00|         1.0000|         1.0000|20150630| 00000000000.00|20150615|20150612|
20150601|20150630|20150615|69000093|Chow Siew Le                            |69000007|Alvin Nicholas Nathan                   |Chan Kok Keong Vince                    |               |N2400171|NOA|SGD|SGD|B522| 00000002000.00| 00000000059.92| 00000000056.00|INITIAL/UPFRONT FEE           | 00000000054.32|         1.0000|         1.0000|20150630| 00000000000.00|20110912|20110909|
20150601|20150630|20150615|69000096|Bachant Kaur d/o Basant Singh           |69000006|Team 2 (Gabriel Francis Joseph)         |Bachant Kaur d/o Basant Singh           |               |N2505400|NCA|SGD|SGD|B522| 00000001000.00| 00000000005.35| 00000000005.00|INITIAL/UPFRONT FEE           | 00000000004.84|         1.0000|         1.0000|20150630| 00000000000.00|20141015|20141015|
20150601|20150630|20150605|69000103|Koh Khai Leng                           |69000040|Team 6 (Tang Ngeng Hui Mike)            |Chen Huiping                            |               |N2451180|NOA|SGD|SGD|T679| 00000015000.00| 00000000160.50| 00000000150.00|INITIAL/UPFRONT FEE           | 00000000145.50|         1.0000|         1.0000|20150630| 00000000000.00|20130228|20130227|
20150601|20150630|20150616|69000105|Ng Yoong Chong                          |69000050|Team 7 (Seah Chin Kiat Desmond)         |Ong Tun Che                             |               |N2528422|NOA|SGD|SGD|T642| 00000008200.00| 00000000245.67| 00000000229.60|INITIAL/UPFRONT FEE           | 00000000222.70|         1.0000|         1.0000|20150630| 00000000000.00|20150616|20150602|
20150601|20150630|20150612|69000105|Ng Yoong Chong                          |69000050|Team 7 (Seah Chin Kiat Desmond)         |Ong Guan Guan                           |               |N2529128|NSR|SGD|SGD|T642| 00000040000.00| 00000001284.00| 00000001200.00|INITIAL/UPFRONT FEE           | 00000001164.00|         1.0000|         1.0000|20150630| 00000000000.00|20150612|20150611|
20150601|20150630|20150622|69000105|Ng Yoong Chong                          |69000050|Team 7 (Seah Chin Kiat Desmond)         |Chong Yiao Mhing Laurent                |               |N2530156|NCA|SGD|SGD|T642| 00000150000.00| 00000004815.00| 00000004500.00|INITIAL/UPFRONT FEE           | 00000004365.00|         1.0000|         1.0000|20150630| 00000000000.00|20150622|20150619|
20150601|20150630|20150615|69000110|Leong Foo Sheng                         |69000190|Team 17 (Leong Foo Sheng)               |Lau Kin Mang                            |               |N2300130|NOA|SGD|SGD|B522| 00000000500.00| 00000000008.01| 00000000007.49|INITIAL/UPFRONT FEE           | 00000000007.25|         1.0000|         1.0000|20150630| 00000000000.00|20100514|20100507|
20150601|20150630|20150615|69000110|Leong Foo Sheng                         |69000190|Team 17 (Leong Foo Sheng)               |Lau Kin Mang                            |               |N2312180|NCA|SGD|SGD|B522| 00000000500.00| 00000000008.03| 00000000007.50|INITIAL/UPFRONT FEE           | 00000000007.26|         1.0000|         1.0000|20150630| 00000000000.00|20100624|20100624|
20150601|20150630|20150605|69000110|Leong Foo Sheng                         |69000190|Team 17 (Leong Foo Sheng)               |Lau Kin Mang                            |               |N2312180|NCA|SGD|SGD|T510| 00000000000.00| 00000000084.76| 00000000079.21|ONGOING FEE                   | 00000000071.29|         1.0000|         1.0000|20150630| 00000000000.00|20100624|20100624|
20150601|20150630|20150615|69000112|Lim Leng Eng Christina Mrs Lam Choon Cha|69000201|Team 18 (Wu Xiaoping Martin)            |Lim Poh Eng Catherine                   |               |N2432860|NCA|SGD|SGD|B522| 00000000500.00| 00000000016.05| 00000000015.00|INITIAL/UPFRONT FEE           | 00000000014.54|         1.0000|         1.0000|20150630| 00000000000.00|20120824|20120824|
20150601|20150630|20150630|69000123|Lim Shi Min Jasmine                     |69000040|Team 6 (Tang Ngeng Hui Mike)            |Tan Kim Swee                            |               |N2448342|NCA|SGD|SGD|BL1O| 00000000000.00| 00000000044.13| 00000000041.24|ONGOING FEE                   | 00000000035.00|         1.0000|         1.0000|20150630| 00000000000.00|20130131|20130131|
20150601|20150630|20150615|69000123|Lim Shi Min Jasmine                     |69000040|Team 6 (Tang Ngeng Hui Mike)            |Lim Shi Min Jasmine                     |               |N2486962|NCA|SGD|SGD|B522| 00000001000.00| 00000000001.07| 00000000001.00|INITIAL/UPFRONT FEE           | 00000000000.94|         1.0000|         1.0000|20150630| 00000000000.00|20140423|20140423|
20150601|20150630|20150630|69000133|Ang Peck Yeow Chris                     |69000129|Team 12 (Tan Teck Neng)                 |Wong Kin Mun                            |               |N2478162|NCA|SGD|SGD|BL1O| 00000000000.00| 00000000130.24| 00000000121.72|ONGOING FEE                   | 00000000103.47|         1.0000|         1.0000|20150630| 00000000000.00|20140122|20140122|
20150601|20150630|20150630|69000133|Ang Peck Yeow Chris                     |69000129|Team 12 (Tan Teck Neng)                 |Cheong Yip Hing                         |               |N2478386|NCA|SGD|SGD|BL1O| 00000000000.00| 00000000128.32| 00000000119.93|ONGOING FEE                   | 00000000101.93|         1.0000|         1.0000|20150630| 00000000000.00|20140123|20140123|
20150601|20150630|20150630|69000133|Ang Peck Yeow Chris                     |69000129|Team 12 (Tan Teck Neng)                 |Chen Siying                             |               |N2479973|NCA|SGD|SGD|BL1O| 00000000000.00| 00000000051.43| 00000000048.07|ONGOING FEE                   | 00000000040.86|         1.0000|         1.0000|20150630| 00000000000.00|20140212|20140212|
20150601|20150630|20150615|69000141|Ng Xian Long Kelvin                     |69000179|Team 15 (Ng Xian Long Kelvin)           |Veena Chandrakant Basetti               |               |N2455855|NCA|SGD|SGD|B522| 00000002400.00| 00000000071.90| 00000000067.20|INITIAL/UPFRONT FEE           | 00000000065.18|         1.0000|         1.0000|20150630| 00000000000.00|20130410|20130410|
20150601|20150630|20150626|69000150|Lau Siow May                            |69000001|Aviva Ltd (Legacy)                      |Low Ee Leng                             |               |N2530652|NOA|SGD|SGD|T642| 00000100000.00| 00000002098.81| 00000001961.50|INITIAL/UPFRONT FEE           | 00000001902.65|         1.0000|         1.0000|20150630| 00000000000.00|20150626|20150625|
20150601|20150630|20150619|69000154|Chen Mingli                             |69000090|Team 11 (Tay Siang Teck Patrick)        |Chen Mingxiang                          |               |N2467542|NOA|SGD|SGD|T679| 00000005000.00| 00000000016.05| 00000000015.00|INITIAL/UPFRONT FEE           | 00000000014.55|         1.0000|         1.0000|20150630| 00000000000.00|20130815|20130814|
20150601|20150630|20150618|69000154|Chen Mingli                             |69000090|Team 11 (Tay Siang Teck Patrick)        |Chen Mingli                             |               |N2487092|NCA|SGD|SGD|T679| 00000005000.00| 00000000016.05| 00000000015.00|INITIAL/UPFRONT FEE           | 00000000014.55|         1.0000|         1.0000|20150630| 00000000000.00|20140424|20140424|
20150601|20150630|20150618|69000154|Chen Mingli                             |69000090|Team 11 (Tay Siang Teck Patrick)        |Chen Mingli                             |               |N2515841|NCA|SGD|SGD|T679| 00000005000.00| 00000000016.05| 00000000015.00|INITIAL/UPFRONT FEE           | 00000000014.55|         1.0000|         1.0000|20150630| 00000000000.00|20150202|20150202|
20150601|20150630|20150623|69000154|Chen Mingli                             |69000090|Team 11 (Tay Siang Teck Patrick)        |Tay E Yin                               |               |N2530302|NOA|SGD|SGD|T642| 00000015000.00| 00000000080.25| 00000000075.00|INITIAL/UPFRONT FEE           | 00000000070.00|         1.0000|         1.0000|20150630| 00000000000.00|20150623|20150622|
20150601|20150630|20150615|69000182|Ow Jia Yi                               |69000190|Team 17 (Leong Foo Sheng)               |Khoo Yong                               |               |N1291209|NOA|SGD|SGD|B522| 00000000500.00| 00000000014.98| 00000000014.00|INITIAL/UPFRONT FEE           | 00000000013.85|         1.0000|         1.0000|20150630| 00000000000.00|20070810|20070808|
20150601|20150630|20150610|69000191|Chan Shi Hui Cindy                      |69000050|Team 7 (Seah Chin Kiat Desmond)         |Wong Yuan Chern                         |               |N2486205|NCA|SGD|SGD|T510| 00000000000.00| 00000000030.84| 00000000028.82|ONGOING FEE                   | 00000000024.50|         1.0000|         1.0000|20150630| 00000000000.00|20140416|20140416|
20150601|20150630|20150610|69000191|Chan Shi Hui Cindy                      |69000050|Team 7 (Seah Chin Kiat Desmond)         |Yuen Wei Wun                            |               |N2489321|NCA|SGD|SGD|T510| 00000000000.00| 00000000112.69| 00000000105.32|ONGOING FEE                   | 00000000089.51|         1.0000|         1.0000|20150630| 00000000000.00|20140519|20140516|
20150601|20150630|20150615|69000191|Chan Shi Hui Cindy                      |69000050|Team 7 (Seah Chin Kiat Desmond)         |Lim Yee Siang (Lin Yuxiang)             |               |N2524252|NCA|SGD|SGD|B522| 00000000800.00| 00000000023.97| 00000000022.40|INITIAL/UPFRONT FEE           | 00000000021.71|         1.0000|         1.0000|20150630| 00000000000.00|20150420|20150420|
20150601|20150630|20150615|69000203|Chua Shu Mei                            |69000129|Team 12 (Tan Teck Neng)                 |Lee Yan Ting Cheryl                     |               |N2482452|NOA|SGD|SGD|B522| 00000001000.00| 00000000010.70| 00000000010.00|INITIAL/UPFRONT FEE           | 00000000009.70|         1.0000|         1.0000|20150630| 00000000000.00|20140311|20140310|
20150601|20150630|20150615|69000203|Chua Shu Mei                            |69000129|Team 12 (Tan Teck Neng)                 |Lin Ziru                                |               |N2485282|NOA|SGD|SGD|B522| 00000002000.00| 00000000021.40| 00000000020.00|INITIAL/UPFRONT FEE           | 00000000019.40|         1.0000|         1.0000|20150630| 00000000000.00|20140408|20140407|
20150601|20150630|20150630|69000203|Chua Shu Mei                            |69000129|Team 12 (Tan Teck Neng)                 |Lee Yan Ting Cheryl                     |               |N2491922|NCA|SGD|SGD|BL1O| 00000000000.00| 00000000022.53| 00000000021.06|ONGOING FEE                   | 00000000017.90|         1.0000|         1.0000|20150630| 00000000000.00|20140609|20140609|
20150601|20150630|20150615|69000203|Chua Shu Mei                            |69000129|Team 12 (Tan Teck Neng)                 |Tan Ying Xuan                           |               |N2509290|NOA|SGD|SGD|B522| 00000001000.00| 00000000010.70| 00000000010.00|INITIAL/UPFRONT FEE           | 00000000009.70|         1.0000|         1.0000|20150630| 00000000000.00|20141127|20141126|
20150601|20150630|20150630|69000203|Chua Shu Mei                            |69000129|Team 12 (Tan Teck Neng)                 |Dayang Istiaisyah binte Hussin          |               |N2514792|NCA|SGD|SGD|BL1O| 00000000000.00| 00000000026.65| 00000000024.91|ONGOING FEE                   | 00000000018.66|         1.0000|         1.0000|20150630| 00000000000.00|20150122|20150122|
20150601|20150630|20150630|69000203|Chua Shu Mei                            |69000129|Team 12 (Tan Teck Neng)                 |Lim Chiu Loo                            |               |N2519878|NCA|SGD|SGD|BL1O| 00000000000.00| 00000000015.41| 00000000014.40|ONGOING FEE                   | 00000000012.24|         1.0000|         1.0000|20150630| 00000000000.00|20150316|20150316|
20150601|20150630|20150630|69000203|Chua Shu Mei                            |69000129|Team 12 (Tan Teck Neng)                 |Chia Mingrong                           |               |N2527743|NCA|SGD|SGD|BL1O| 00000000000.00| 00000000034.91| 00000000032.63|ONGOING FEE                   | 00000000027.72|         1.0000|         1.0000|20150630| 00000000000.00|20150522|20150522|
20150601|20150630|20150630|69000203|Chua Shu Mei                            |69000129|Team 12 (Tan Teck Neng)                 |Chia Mingrong                           |               |N2527766|NCA|SGD|SGD|BL1O| 00000000000.00| 00000000023.17| 00000000021.65|ONGOING FEE                   | 00000000018.40|         1.0000|         1.0000|20150630| 00000000000.00|20150522|20150522|
20150601|20150630|20150602|69000208|Ker Jian Min Daniel                     |69000205|Team 19 (Chen Jianhong)                 |Pang Kwee Hua                           |               |N2490916|NCA|SGD|SGD|T510| 00000000000.00| 00000000003.20| 00000000002.99|ONGOING FEE                   | 00000000002.54|         1.0000|         1.0000|20150630| 00000000000.00|20140529|20140529|
20150601|20150630|20150615|69000208|Ker Jian Min Daniel                     |69000205|Team 19 (Chen Jianhong)                 |Yee Kar Seng Jackson                    |               |N2492539|NCA|SGD|SGD|B522| 00000000200.00| 00000000002.14| 00000000002.00|INITIAL/UPFRONT FEE           | 00000000001.94|         1.0000|         1.0000|20150630| 00000000000.00|20140613|20140613|
20150601|20150630|20150615|69000208|Ker Jian Min Daniel                     |69000205|Team 19 (Chen Jianhong)                 |Lam Huei Ling                           |               |N2494903|NCA|SGD|SGD|B522| 00000000360.00| 00000000001.81| 00000000001.69|INITIAL/UPFRONT FEE           | 00000000001.64|         1.0000|         1.0000|20150630| 00000000000.00|20140704|20140704|
20150601|20150630|20150615|69000208|Ker Jian Min Daniel                     |69000205|Team 19 (Chen Jianhong)                 |Chen Liling                             |               |N2508801|NCA|SGD|SGD|B522| 00000000500.00| 00000000008.03| 00000000007.50|INITIAL/UPFRONT FEE           | 00000000007.27|         1.0000|         1.0000|20150630| 00000000000.00|20141120|20141120|
20150601|20150630|20150615|69000208|Ker Jian Min Daniel                     |69000205|Team 19 (Chen Jianhong)                 |Yeo Song Ren                            |               |N2518442|NCA|SGD|SGD|B522| 00000000300.00| 00000000004.82| 00000000004.50|INITIAL/UPFRONT FEE           | 00000000004.36|         1.0000|         1.0000|20150630| 00000000000.00|20150303|20150303|
20150601|20150630|20150615|69000208|Ker Jian Min Daniel                     |69000205|Team 19 (Chen Jianhong)                 |Tan Wee Wu Gabriel                      |               |N2525688|NCA|SGD|SGD|B522| 00000000200.00| 00000000003.21| 00000000003.00|INITIAL/UPFRONT FEE           | 00000000002.91|         1.0000|         1.0000|20150630| 00000000000.00|20150504|20150504|
20150601|20150630|20150605|69000214|Lee Chia Ling Sammi                     |69000213|Team 21 (Sammi Lee Chia Ling)           |Mok Ping Shin                           |               |N2528600|NCA|SGD|SGD|T642| 00000170000.00| 00000005457.00| 00000005100.00|INITIAL/UPFRONT FEE           | 00000004947.00|         1.0000|         1.0000|20150630| 00000000000.00|20150605|20150604|
20150601|20150630|20150610|69000214|Lee Chia Ling Sammi                     |69000213|Team 21 (Sammi Lee Chia Ling)           |Mok Ping Shin                           |               |N2528600|NCA|SGD|SGD|T679| 00000030000.00| 00000000963.00| 00000000900.00|INITIAL/UPFRONT FEE           | 00000000873.00|         1.0000|         1.0000|20150630| 00000000000.00|20150605|20150604|
20150601|20150630|20150615|69000225|Ang Ruwei Candice                       |69000213|Team 21 (Sammi Lee Chia Ling)           |Lim Meow Leng                           |               |N2516243|NOA|SGD|SGD|B522| 00000000300.00| 00000000008.99| 00000000008.40|INITIAL/UPFRONT FEE           | 00000000008.13|         1.0000|         1.0000|20150630| 00000000000.00|20150204|20150204|
20150601|20150630|20150605|69000231|Toh Shi Ming Darius                     |69000040|Team 6 (Tang Ngeng Hui Mike)            |Khoo Siew Lian Dorothy                  |               |N2493531|NCA|SGD|SGD|B633| 00000000000.00| 00000000049.92| 00000000046.65|SWITCH FEE                    | 00000000039.65|         1.0000|         1.0000|20150630| 00000000000.00|20140624|20140623|
20150601|20150630|20150616|69000231|Toh Shi Ming Darius                     |69000040|Team 6 (Tang Ngeng Hui Mike)            |Goh Boon Choo                           |               |N2529478|NOA|SGD|SGD|T642| 00000060000.00| 00000001669.20| 00000001560.00|INITIAL/UPFRONT FEE           | 00000001513.20|         1.0000|         1.0000|20150630| 00000000000.00|20150616|20150615|
20150601|20150630|20150615|69000234|Tan Kevin                               |69000120|Team 10 (Chop Kit Fai)                  |Lin Xiaoping                            |               |N2506783|NCA|SGD|SGD|B522| 00000000200.00| 00000000008.56| 00000000008.00|INITIAL/UPFRONT FEE           | 00000000007.76|         1.0000|         1.0000|20150630| 00000000000.00|20141030|20141030|
20150601|20150630|20150615|69000234|Tan Kevin                               |69000120|Team 10 (Chop Kit Fai)                  |Tan Chin Chin                           |               |N2519672|NCA|SGD|SGD|B522| 00000000200.00| 00000000008.56| 00000000008.00|INITIAL/UPFRONT FEE           | 00000000007.76|         1.0000|         1.0000|20150630| 00000000000.00|20150312|20150312|
