Agent Code|Policy Number|Policy Holder|Policy Type|Component Code|Premium Term|Cont Curr|Sum Insured|Inception Date|Premium Due Date|Paid To Date|Bil Freq|Nett Premium Paid| Extra Loading |Fee Type| Basic Comm | Basic Overrding Comm | Extra Overrding Comm | Trailer Fee Comm | PAS Comm | Other Comm |FX rate| Total Comm on Payment Curr 
60014817|6048038|Lee Gay Hwa                                                           |EC1|CID3|22|SGD|100000|3/2/16|3/2/16|3/2/17|Yearly                        |1533.6|0|First Year Policies           |843.48|253.04|0|0|0|0|1|1096.52
60014830|6032378|Jayshree Ramesh Khemlani                                              |EC1|CID3|45|SGD|100000|25/01/2016|25/02/2016|25/04/2016|Monthly                       |49|0|First Year Policies           |31.06|9.32|0|0|0|0|1|40.38
60014830|6032378|Jayshree Ramesh Khemlani                                              |EC1|CID3|45|SGD|100000|25/01/2016|25/03/2016|25/04/2016|Monthly                       |49|0|First Year Policies           |31.07|9.32|0|0|0|0|1|40.39
60014851|6052940|Sng Pei Ling Trixie                                                   |EC1|CID3|30|SGD|200000|28/03/2016|28/03/2016|28/04/2016|Monthly                       |51.6|0|First Year Policies           |32.71|9.81|0|0|0|0|1|42.52
60014864|6038415|Ng Yui Yun                                                            |EC1|CID3|25|SGD|100000|3/4/16|3/4/16|3/4/17|Yearly                        |1373.4|0|First Year Policies           |870.74|261.22|0|0|0|0|1|1131.96
60014880|6044909|Chuah Khor Chee                                                       |EC1|CID3|38|SGD|50000|31/03/2016|31/03/2016|30/04/2016|Monthly                       |34.45|0|First Year Policies           |21.84|6.55|0|0|0|0|1|28.39
60014821|E4983658|Heng Chay Hiang Helen                                                 |ES6|HPFU|46|SGD|2300|19/02/2016|19/02/2016|19/02/2017|Yearly                        |2291.6|0|First Year Policies           |1581.2|252.99|0|0|0|0|1|1834.19
60014824|E4987157|Hee Tze Long                                                          |ES6|HPFU|58|SGD|1500|24/03/2016|24/03/2016|24/03/2017|Yearly                        |642.5|0|First Year Policies           |443.33|70.93|0|0|0|0|1|514.26
60014843|E5027238|Lau Kok Seng                                                          |ES6|HPFU|56|SGD|1200|24/03/2016|24/03/2016|24/03/2017|Yearly                        |542.45|0|First Year Policies           |374.29|59.89|0|0|0|0|1|434.18
60014884|E4866132|Wan Wai Keong                                                         |ES6|HPFU|56|SGD|1200|25/02/2016|25/02/2016|25/02/2017|Yearly                        |542.45|0|First Year Policies           |374.29|59.89|0|0|0|0|1|434.18
60014884|E4870098|Chua Yun Tyng                                                         |ES6|HPFU|58|SGD|1000|24/03/2016|24/03/2016|24/03/2017|Yearly                        |524.25|0|First Year Policies           |361.73|57.88|0|0|0|0|1|419.61
60014884|E4965202|Teng Chai Heng                                                        |ES6|HPFU|58|SGD|1300|24/03/2016|24/03/2016|24/03/2017|Yearly                        |548.7|0|First Year Policies           |378.6|60.58|0|0|0|0|1|439.18
60014884|E4966002|Toh Hong Tat                                                          |ES6|HPFU|58|SGD|1300|24/03/2016|24/03/2016|24/03/2017|Yearly                        |548.7|0|First Year Policies           |378.6|60.58|0|0|0|0|1|439.18
60014884|E4987461|Chan Weng Loon                                                        |ES6|HPFU|58|SGD|1300|24/03/2016|24/03/2016|24/03/2017|Yearly                        |548.7|0|First Year Policies           |378.6|60.58|0|0|0|0|1|439.18
60014884|E4987484|Soh Wai Leng                                                          |ES6|HPFU|58|SGD|1000|24/03/2016|24/03/2016|24/03/2017|Yearly                        |524.25|0|First Year Policies           |361.73|57.88|0|0|0|0|1|419.61
60014884|E4987493|Kwek Swee Leong Adrian                                                |ES6|HPFU|58|SGD|1300|24/03/2016|24/03/2016|24/03/2017|Yearly                        |548.7|0|First Year Policies           |378.6|60.58|0|0|0|0|1|439.18
60014884|E4987509|Ow Kar Leong                                                          |ES6|HPFU|58|SGD|1300|24/03/2016|24/03/2016|24/03/2017|Yearly                        |548.7|0|First Year Policies           |378.6|60.58|0|0|0|0|1|439.18
60014884|E4987519|Ho Hwei Hsien Vanessa                                                 |ES6|HPFU|58|SGD|3000|24/03/2016|24/03/2016|24/03/2017|Yearly                        |1766.25|0|First Year Policies           |1218.71|194.99|0|0|0|0|1|1413.7
60014884|E4987532|Mok Chee Chuan                                                        |ES6|HPFU|58|SGD|1300|24/03/2016|24/03/2016|24/03/2017|Yearly                        |548.7|0|First Year Policies           |378.6|60.58|0|0|0|0|1|439.18
60014884|E4987550|Tan Beng Wah                                                          |ES6|HPFU|58|SGD|1300|24/03/2016|24/03/2016|24/03/2017|Yearly                        |548.7|0|First Year Policies           |378.6|60.58|0|0|0|0|1|439.18
60014884|E4988319|Lim William                                                           |ES6|HPFU|58|SGD|2000|24/03/2016|24/03/2016|24/03/2017|Yearly                        |877|0|First Year Policies           |605.13|96.82|0|0|0|0|1|701.95
60014884|E5022581|Ang Kok Wee Andy                                                      |ES6|HPFU|58|SGD|1300|24/03/2016|24/03/2016|24/03/2017|Yearly                        |548.7|0|First Year Policies           |378.6|60.58|0|0|0|0|1|439.18
60014884|E5022606|Ng Siew Ping                                                          |ES6|HPFU|58|SGD|1000|24/03/2016|24/03/2016|24/03/2017|Yearly                        |524.25|0|First Year Policies           |361.73|57.88|0|0|0|0|1|419.61
60014884|E5023095|Chuang Keng Kaan                                                      |ES6|HPFU|58|SGD|1300|24/03/2016|24/03/2016|24/03/2017|Yearly                        |548.7|0|First Year Policies           |378.6|60.58|0|0|0|0|1|439.18
60014884|E5023111|Ho Chin Leong Patrick                                                 |ES6|HPFU|58|SGD|1300|24/03/2016|24/03/2016|24/03/2017|Yearly                        |548.7|0|First Year Policies           |378.6|60.58|0|0|0|0|1|439.18
60014884|E5023120|Ong Thai Kang                                                         |ES6|HPFU|58|SGD|1300|24/03/2016|24/03/2016|24/03/2017|Yearly                        |548.7|0|First Year Policies           |378.6|60.58|0|0|0|0|1|439.18
60014884|E5023279|Neo Hui Peng                                                          |ES6|HPFU|58|SGD|1500|24/03/2016|24/03/2016|24/03/2017|Yearly                        |834.75|0|First Year Policies           |575.98|92.16|0|0|0|0|1|668.14
60014884|E5023288|Gan Kok Wee Andy                                                      |ES6|HPFU|58|SGD|1300|24/03/2016|24/03/2016|24/03/2017|Yearly                        |548.7|0|First Year Policies           |378.6|60.58|0|0|0|0|1|439.18
60014884|E5027283|Pong Cheow Pyng                                                       |ES6|HPFU|58|SGD|1200|24/03/2016|24/03/2016|24/03/2017|Yearly                        |648.45|0|First Year Policies           |447.43|71.59|0|0|0|0|1|519.02
60014884|E5027331|Zuziana binte Abdul Rahim                                             |ES6|HPFU|58|SGD|1000|24/03/2016|24/03/2016|24/03/2017|Yearly                        |524.25|0|First Year Policies           |361.73|57.88|0|0|0|0|1|419.61
60014884|E5027340|Tan Wee Lin                                                           |ES6|HPFU|58|SGD|1300|24/03/2016|24/03/2016|24/03/2017|Yearly                        |548.7|0|First Year Policies           |378.6|60.58|0|0|0|0|1|439.18
60014884|E5027363|Toh Tuan Lay                                                          |ES6|HPFU|58|SGD|1000|24/03/2016|24/03/2016|24/03/2017|Yearly                        |524.25|0|First Year Policies           |361.73|57.88|0|0|0|0|1|419.61
60014906|E4979573|Pek Been Choo                                                         |ES6|HPFU|40|SGD|600|24/03/2016|24/03/2016|24/03/2017|Yearly                        |557.25|0|First Year Policies           |384.5|61.52|0|0|0|0|1|446.02
60014828|E4866969|Alinah bte Mohamed Ali                                                |ES7|HNDW|41|SGD|600|19/02/2016|19/02/2016|19/02/2017|Yearly                        |532.2|0|First Year Policies           |367.22|58.76|0|0|0|0|1|425.98
60014831|E4972082|Ng Meng Yong                                                          |ES7|HNDW|42|SGD|700|24/03/2016|24/03/2016|24/03/2017|Yearly                        |478.75|0|First Year Policies           |330.34|52.85|0|0|0|0|1|383.19
60014831|E4972091|Ng Meng Fang                                                          |ES7|HNDW|47|SGD|700|24/03/2016|24/03/2016|24/03/2017|Yearly                        |489.15|0|First Year Policies           |337.51|54|0|0|0|0|1|391.51
60014831|E5023175|Saedah bte Suhaimi                                                    |ES7|HNDW|47|SGD|700|24/03/2016|24/03/2016|24/03/2017|Yearly                        |489.15|0|First Year Policies           |337.51|54|0|0|0|0|1|391.51
60014874|E4987528|Chong Mui Khim                                                        |ES7|HNDW|50|SGD|800|24/03/2016|24/03/2016|24/03/2017|Yearly                        |502.1|0|First Year Policies           |346.45|55.43|0|0|0|0|1|401.88
60014874|E4993159|Ekram bin Khamis                                                      |ES7|HNDW|46|SGD|900|24/03/2016|24/03/2016|24/03/2017|Yearly                        |531.6|0|First Year Policies           |366.8|58.69|0|0|0|0|1|425.49
60014891|E4987175|Lai Tong Gin                                                          |ES7|HNDW|41|SGD|700|24/03/2016|24/03/2016|24/03/2017|Yearly                        |502.85|0|First Year Policies           |346.97|55.52|0|0|0|0|1|402.49
60014803|E4988284|Koh Chiang Meng                                                       |ES8|HNFW|58|SGD|1600|24/03/2016|24/03/2016|24/03/2017|Yearly                        |551.3|0|First Year Policies           |380.4|60.86|0|0|0|0|1|441.26
60014810|E4987111|Dalvinder Singh Sidhu s/o Gurdip Singh                                |ES8|HNFW|58|SGD|1600|24/03/2016|24/03/2016|24/03/2017|Yearly                        |551.3|0|First Year Policies           |380.4|60.86|0|0|0|0|1|441.26
60014817|E4988309|Toh Soo                                                               |ES8|HNFW|44|SGD|800|24/03/2016|24/03/2016|24/03/2017|Yearly                        |567.25|0|First Year Policies           |391.4|62.62|0|0|0|0|1|454.02
60014828|E4615392|Tok Chee Chuan                                                        |ES8|HNFW|56|SGD|1200|18/11/2015|18/11/2015|18/11/2016|Yearly                        |433.75|108.44|First Year Policies           |299.29|47.89|0|0|0|0|1|347.18
60014843|E4960765|Khoo Chee Hin                                                         |ES8|HNFW|52|SGD|1300|24/03/2016|24/03/2016|24/03/2017|Yearly                        |560.25|0|First Year Policies           |386.57|61.85|0|0|0|0|1|448.42
60014843|E4981060|Myo Kyaw Khine                                                        |ES8|HNFW|57|SGD|1500|24/03/2016|24/03/2016|24/03/2017|Yearly                        |535|0|First Year Policies           |369.15|59.06|0|0|0|0|1|428.21
60014843|E4981266|Mohamad Kamal bin Khairi                                              |ES8|HNFW|51|SGD|1200|3/5/16|3/5/16|3/5/17|Yearly                        |533.1|0|First Year Policies           |367.84|58.85|0|0|0|0|1|426.69
60014843|E4985669|Tio Chee Yong                                                         |ES8|HNFW|58|SGD|1600|24/03/2016|24/03/2016|24/03/2017|Yearly                        |551.3|0|First Year Policies           |380.4|60.86|0|0|0|0|1|441.26
60014843|E4985679|Safinaz bte Abdullah                                                  |ES8|HNFW|52|SGD|1000|24/03/2016|24/03/2016|24/03/2017|Yearly                        |532.1|0|First Year Policies           |367.15|58.74|0|0|0|0|1|425.89
60014843|E4985688|Ang Choon Kwee                                                        |ES8|HNFW|57|SGD|1500|17/03/2016|17/03/2016|17/03/2017|Yearly                        |535|0|First Year Policies           |369.15|59.06|0|0|0|0|1|428.21
60014843|E4985703|Goh Suet Yen                                                          |ES8|HNFW|49|SGD|900|24/03/2016|24/03/2016|24/03/2017|Yearly                        |530.1|0|First Year Policies           |365.77|58.52|0|0|0|0|1|424.29
60014843|E5022728|Mazlan bin Samath                                                     |ES8|HNFW|51|SGD|1200|24/03/2016|24/03/2016|24/03/2017|Yearly                        |533.1|0|First Year Policies           |367.84|58.85|0|0|0|0|1|426.69
60014843|E5027260|Cheam Kok Koon Ronnie                                                 |ES8|HNFW|48|SGD|1100|24/03/2016|24/03/2016|24/03/2017|Yearly                        |548.85|0|First Year Policies           |378.71|60.59|0|0|0|0|1|439.3
60014843|E5027274|Tan Lena                                                              |ES8|HNFW|57|SGD|1200|24/03/2016|24/03/2016|24/03/2017|Yearly                        |539.45|0|First Year Policies           |372.22|59.56|0|0|0|0|1|431.78
60014843|E5032387|Ng Kwang Wee                                                          |ES8|HNFW|49|SGD|1100|24/03/2016|24/03/2016|24/03/2017|Yearly                        |524.8|0|First Year Policies           |362.11|57.94|0|0|0|0|1|420.05
60014843|E5032396|Mohamed Hussain s/o Ebrahim Sahib Abdul Hameed                        |ES8|HNFW|53|SGD|1300|24/03/2016|24/03/2016|24/03/2017|Yearly                        |537|0|First Year Policies           |370.53|59.28|0|0|0|0|1|429.81
60014845|E5027045|Wong Seat Yee                                                         |ES8|HNFW|58|SGD|1200|24/03/2016|24/03/2016|24/03/2017|Yearly                        |518.55|0|First Year Policies           |357.8|57.25|0|0|0|0|1|415.05
60014845|E5027078|Chua Choon Boon                                                       |ES8|HNFW|58|SGD|3000|24/03/2016|24/03/2016|24/03/2017|Yearly                        |1076.3|0|First Year Policies           |742.65|118.82|0|0|0|0|1|861.47
60014849|E4856223|Ng Annie                                                              |ES8|HNFW|43|SGD|700|24/03/2016|24/03/2016|24/03/2017|Yearly                        |491.85|0|First Year Policies           |339.38|54.3|0|0|0|0|1|393.68
60014849|E4976233|Ken Jamal bin Sidek                                                   |ES8|HNFW|42|SGD|800|24/03/2016|24/03/2016|24/03/2017|Yearly                        |482.05|0|First Year Policies           |332.61|53.22|0|0|0|0|1|385.83
60014849|E4976471|Tan Siak Phuan                                                        |ES8|HNFW|51|SGD|1200|24/03/2016|24/03/2016|24/03/2017|Yearly                        |533.1|0|First Year Policies           |367.84|58.85|0|0|0|0|1|426.69
60014849|E4981005|Masliah bte Hasim                                                     |ES8|HNFW|55|SGD|1100|24/03/2016|24/03/2016|24/03/2017|Yearly                        |527.7|0|First Year Policies           |364.11|58.26|0|0|0|0|1|422.37
60014849|E4991376|Mas Ayu bte Johar                                                     |ES8|HNFW|51|SGD|1000|24/03/2016|24/03/2016|24/03/2017|Yearly                        |555.2|0|First Year Policies           |383.09|61.29|0|0|0|0|1|444.38
60014849|E4991410|Ng Siew Chern                                                         |ES8|HNFW|51|SGD|1000|24/03/2016|24/03/2016|24/03/2017|Yearly                        |555.2|0|First Year Policies           |383.09|61.29|0|0|0|0|1|444.38
60014849|E4991479|Tay Kheng Hwa                                                         |ES8|HNFW|57|SGD|1500|18/03/2016|18/03/2016|18/03/2017|Yearly                        |535|0|First Year Policies           |369.15|59.06|0|0|0|0|1|428.21
60014849|E4991498|Khairul Rizal bin Jenni                                               |ES8|HNFW|56|SGD|1500|24/03/2016|24/03/2016|24/03/2017|Yearly                        |556.9|0|First Year Policies           |384.26|61.48|0|0|0|0|1|445.74
60014849|E4991504|Manangan Genelou Abelanes                                             |ES8|HNFW|54|SGD|1100|24/03/2016|24/03/2016|24/03/2017|Yearly                        |549.55|0|First Year Policies           |379.19|60.67|0|0|0|0|1|439.86
60014849|E4992981|Wee Kok Meng                                                          |ES8|HNFW|50|SGD|1200|24/03/2016|24/03/2016|24/03/2017|Yearly                        |557.05|0|First Year Policies           |384.36|61.5|0|0|0|0|1|445.86
60014849|E4993001|Yong Wai Chu                                                          |ES8|HNFW|52|SGD|1000|24/03/2016|24/03/2016|24/03/2017|Yearly                        |532.1|0|First Year Policies           |367.15|58.74|0|0|0|0|1|425.89
60014849|E5028641|Yong Khow Ling                                                        |ES8|HNFW|55|SGD|1100|24/03/2016|24/03/2016|24/03/2017|Yearly                        |527.7|0|First Year Policies           |364.11|58.26|0|0|0|0|1|422.37
60014849|E5028664|Arulselvi d/o Maimanathan                                             |ES8|HNFW|53|SGD|1000|24/03/2016|24/03/2016|24/03/2017|Yearly                        |510.65|0|First Year Policies           |352.35|56.38|0|0|0|0|1|408.73
60014849|E5028687|Rugbir Kaur d/o Gegindar Singh                                        |ES8|HNFW|47|SGD|800|24/03/2016|24/03/2016|24/03/2017|Yearly                        |495.6|0|First Year Policies           |341.96|54.71|0|0|0|0|1|396.67
60014879|E4967367|Khan Tarn Yuen                                                        |ES8|HNFW|40|SGD|800|24/03/2016|24/03/2016|24/03/2016|Yearly                        |532|0|First Year Policies           |367.08|58.73|0|0|0|0|1|425.81
60014879|E4967367|Khan Tarn Yuen                                                        |ES8|HNFW|40|SGD|800|24/03/2016|24/03/2016|24/03/2016|Yearly                        |-532|0|First Year Policies           |-367.08|-58.73|0|0|0|0|1|-425.81
60014879|E4977646|Koh Lay Hoon                                                          |ES8|HNFW|51|SGD|1000|24/03/2016|24/03/2016|24/03/2017|Yearly                        |555.2|0|First Year Policies           |383.09|61.29|0|0|0|0|1|444.38
60014879|E4992720|Thinakaran Sakthivel                                                  |ES8|HNFW|58|SGD|1600|24/03/2016|24/03/2016|24/03/2017|Yearly                        |551.3|0|First Year Policies           |380.4|60.86|0|0|0|0|1|441.26
60014879|E4992855|K Vijayan                                                             |ES8|HNFW|43|SGD|900|24/03/2016|24/03/2016|24/03/2017|Yearly                        |538.15|0|First Year Policies           |371.32|59.41|0|0|0|0|1|430.73
60014879|E4992879|Mas'od bin Haji Akib                                                  |ES8|HNFW|44|SGD|900|24/03/2016|24/03/2016|24/03/2017|Yearly                        |513.1|0|First Year Policies           |354.04|56.65|0|0|0|0|1|410.69
60014882|E4987120|Ng Yue Choon                                                          |ES8|HNFV|58|SGD|1800|24/03/2016|24/03/2016|24/03/2017|Yearly                        |999.35|0|First Year Policies           |469.69|79.85|0|0|0|0|1|549.54
60014882|E4990272|See Hoo Kien Poh                                                      |ES8|HNFW|58|SGD|2000|24/03/2016|24/03/2016|24/03/2017|Yearly                        |701.3|0|First Year Policies           |483.9|77.42|0|0|0|0|1|561.32
60014882|E4990281|Lee Ee Joo                                                            |ES8|HNFW|58|SGD|2000|24/03/2016|24/03/2016|24/03/2017|Yearly                        |915.75|0|First Year Policies           |631.87|101.1|0|0|0|0|1|732.97
60014885|E4983639|Lim Kang-Ling                                                         |ES8|HNFW|52|SGD|1300|3/9/16|3/9/16|3/9/17|Yearly                        |560.25|0|First Year Policies           |386.57|61.85|0|0|0|0|1|448.42
60014886|E4991321|Vinod Nishanth Pinto                                                  |ES8|HNFW|58|SGD|1600|24/03/2016|24/03/2016|24/03/2017|Yearly                        |551.3|0|First Year Policies           |380.4|60.86|0|0|0|0|1|441.26
60014886|E4991330|Tay Keng Hong                                                         |ES8|HNFW|56|SGD|1700|24/03/2016|24/03/2016|24/03/2017|Yearly                        |639|0|First Year Policies           |440.91|70.55|0|0|0|0|1|511.46
60014886|E4991344|Chua Swee Ying                                                        |ES8|HNFW|57|SGD|1400|24/03/2016|24/03/2016|24/03/2017|Yearly                        |643.25|0|First Year Policies           |443.84|71.01|0|0|0|0|1|514.85
60014886|E5022741|Yeam Shin Loong                                                       |ES8|HNFW|58|SGD|1600|24/03/2016|24/03/2016|24/03/2017|Yearly                        |551.3|0|First Year Policies           |380.4|60.86|0|0|0|0|1|441.26
60014886|E5022750|Lai Ai Fong                                                           |ES8|HNFW|55|SGD|1100|24/03/2016|24/03/2016|24/03/2016|Yearly                        |527.7|0|First Year Policies           |364.11|58.26|0|0|0|0|1|422.37
60014886|E5022750|Lai Ai Fong                                                           |ES8|HNFW|55|SGD|1100|24/03/2016|24/03/2016|24/03/2016|Yearly                        |-527.7|0|First Year Policies           |-364.11|-58.26|0|0|0|0|1|-422.37
60014887|E4981074|Ng Ah Keok                                                            |ES8|HNFW|34|SGD|600|28/03/2016|28/03/2016|28/03/2017|Yearly                        |607.65|212.68|First Year Policies           |419.28|67.08|0|0|0|0|1|486.36
60014888|E4979587|Sim Eric                                                              |ES8|HNFW|51|SGD|1200|24/03/2016|24/03/2016|24/03/2017|Yearly                        |533.1|0|First Year Policies           |367.84|58.85|0|0|0|0|1|426.69
60014891|E5023199|Choo Soong Chye                                                       |ES8|HNFW|57|SGD|1500|24/03/2016|24/03/2016|24/03/2017|Yearly                        |535|0|First Year Policies           |369.15|59.06|0|0|0|0|1|428.21
60014891|E5023214|Tran Thi Cam Binh                                                     |ES8|HNFW|53|SGD|1000|3/12/16|3/12/16|3/12/17|Yearly                        |510.65|0|First Year Policies           |352.35|56.38|0|0|0|0|1|408.73
60014891|E5023223|Tee Boon Kuang                                                        |ES8|HNFW|57|SGD|1500|24/03/2016|24/03/2016|24/03/2017|Yearly                        |535|0|First Year Policies           |369.15|59.06|0|0|0|0|1|428.21
60014896|E4983296|Wong Mei Wen                                                          |ES8|HNFW|58|SGD|2000|24/03/2016|24/03/2016|24/03/2017|Yearly                        |915.75|0|First Year Policies           |631.87|101.1|0|0|0|0|1|732.97
60014902|E4982099|Boo Hui Fang                                                          |ES8|HNFW|56|SGD|1100|24/03/2016|24/03/2016|24/03/2017|Yearly                        |507|0|First Year Policies           |349.83|55.97|0|0|0|0|1|405.8
60014903|E4979550|Yio Chee Kiang                                                        |ES8|HNFW|52|SGD|1200|18/02/2016|18/02/2016|18/02/2017|Yearly                        |510.75|0|First Year Policies           |352.42|56.39|0|0|0|0|1|408.81
60014903|E5027082|Ang Geok Pheng Jacqueline                                             |ES8|HNFW|58|SGD|1200|24/03/2016|24/03/2016|24/03/2017|Yearly                        |518.55|0|First Year Policies           |357.8|57.25|0|0|0|0|1|415.05
60014905|E4983649|Foo Yoke Lin                                                          |ES8|HNFW|49|SGD|900|24/03/2016|24/03/2016|24/03/2017|Yearly                        |530.1|0|First Year Policies           |365.77|58.52|0|0|0|0|1|424.29
60014906|E4976382|Yeo Hai Ser                                                           |ES8|HNFW|44|SGD|1000|24/03/2016|24/03/2016|24/03/2017|Yearly                        |517.75|0|First Year Policies           |357.25|57.16|0|0|0|0|1|414.41
60014909|E4808803|Tong Kwang Fui                                                        |ES8|HNFW|52|SGD|1300|24/03/2016|24/03/2016|24/03/2017|Yearly                        |560.25|0|First Year Policies           |386.57|61.85|0|0|0|0|1|448.42
60014909|E4839375|Ambat Sasi Nair @Ambat Sasi s/o Palissery Pankajakshan Nair           |ES8|HNFW|53|SGD|5000|15/09/2015|15/09/2015|15/09/2016|Yearly                        |2283.4|0|First Year Policies           |1575.55|252.09|0|0|0|0|1|1827.64
60014909|E4991353|Chong Mui Quee Rose                                                   |ES8|HNFW|51|SGD|700|24/03/2016|24/03/2016|24/03/2017|Yearly                        |350|175|First Year Policies           |241.5|38.64|0|0|0|0|1|280.14
60014909|E4992949|Bala Murugan s/o Supramaniam                                          |ES8|HNFW|58|SGD|1600|3/11/16|3/11/16|3/11/17|Yearly                        |551.3|0|First Year Policies           |380.4|60.86|0|0|0|0|1|441.26
60014913|E4972059|Jagdeesh Kaur d/o Balbir Singh                                        |ES8|HNFW|46|SGD|800|24/03/2016|24/03/2016|24/03/2017|Yearly                        |518|0|First Year Policies           |357.42|57.19|0|0|0|0|1|414.61
60014913|E4982281|Lim Kah Nai                                                           |ES8|HNFW|51|SGD|1000|24/03/2016|24/03/2016|24/03/2017|Yearly                        |555.2|0|First Year Policies           |383.09|61.29|0|0|0|0|1|444.38
60014913|E4983545|Poh Ee Beow                                                           |ES8|HNFW|47|SGD|1000|24/03/2016|24/03/2016|24/03/2017|Yearly                        |510.95|0|First Year Policies           |352.56|56.41|0|0|0|0|1|408.97
60014913|E4983569|Neo Chuan Hock                                                        |ES8|HNFW|58|SGD|1600|24/03/2016|24/03/2016|24/03/2017|Yearly                        |551.3|0|First Year Policies           |380.4|60.86|0|0|0|0|1|441.26
60014913|E4983582|Chan Wei Wei                                                          |ES8|HNFW|54|SGD|1100|24/03/2016|24/03/2016|24/03/2017|Yearly                        |549.55|0|First Year Policies           |379.19|60.67|0|0|0|0|1|439.86
60014913|E4983607|Rismalawati bte Affandi                                               |ES8|HNFW|54|SGD|1100|24/03/2016|24/03/2016|24/03/2017|Yearly                        |549.55|0|First Year Policies           |379.19|60.67|0|0|0|0|1|439.86
60014913|E4983625|Tan Ah Kuan                                                           |ES8|HNFW|51|SGD|1000|24/03/2016|24/03/2016|24/03/2016|Yearly                        |555.2|0|First Year Policies           |383.09|61.29|0|0|0|0|1|444.38
60014913|E4983625|Tan Ah Kuan                                                           |ES8|HNFW|51|SGD|1000|24/03/2016|24/03/2016|24/03/2016|Yearly                        |-555.2|0|First Year Policies           |-383.09|-61.29|0|0|0|0|1|-444.38
60014913|E4985637|Chen Guowei                                                           |ES8|HNFW|46|SGD|1000|24/03/2016|24/03/2016|24/03/2017|Yearly                        |534.6|0|First Year Policies           |368.87|59.02|0|0|0|0|1|427.89
60014913|E4987199|Hu Enyun                                                              |ES8|HNFW|57|SGD|1200|24/03/2016|24/03/2016|24/03/2017|Yearly                        |539.45|0|First Year Policies           |372.22|59.56|0|0|0|0|1|431.78
60014913|E4987214|Solkifli bin Hussain                                                  |ES8|HNFW|43|SGD|900|24/03/2016|24/03/2016|24/03/2017|Yearly                        |538.15|0|First Year Policies           |371.32|59.41|0|0|0|0|1|430.73
60014913|E4993024|Ho Ya Li                                                              |ES8|HNFW|58|SGD|1200|24/03/2016|24/03/2016|24/03/2017|Yearly                        |518.55|0|First Year Policies           |357.8|57.25|0|0|0|0|1|415.05
60014913|E4993047|Hoo Annie                                                             |ES8|HNFW|55|SGD|1100|3/9/16|3/9/16|3/9/17|Yearly                        |527.7|0|First Year Policies           |364.11|58.26|0|0|0|0|1|422.37
60014913|E4993065|Noraini bte Amin                                                      |ES8|HNFW|54|SGD|1100|24/03/2016|24/03/2016|24/03/2017|Yearly                        |549.55|0|First Year Policies           |379.19|60.67|0|0|0|0|1|439.86
60014913|E4993089|Raihan bin Ithnin                                                     |ES8|HNFW|54|SGD|1400|24/03/2016|24/03/2016|24/03/2017|Yearly                        |560.25|0|First Year Policies           |386.57|61.85|0|0|0|0|1|448.42
60014913|E4993127|Mariam bte Abdul                                                      |ES8|HNFW|48|SGD|900|24/03/2016|24/03/2016|24/03/2017|Yearly                        |553.7|0|First Year Policies           |382.05|61.13|0|0|0|0|1|443.18
60014913|E5024716|Suriyati bte Mat Adan                                                 |ES8|HNFW|54|SGD|1100|24/03/2016|24/03/2016|24/03/2017|Yearly                        |549.55|0|First Year Policies           |379.19|60.67|0|0|0|0|1|439.86
60014913|E5027219|Tang Chiam Hoe                                                        |ES8|HNFW|57|SGD|1500|24/03/2016|24/03/2016|24/03/2017|Yearly                        |535|0|First Year Policies           |369.15|59.06|0|0|0|0|1|428.21
60014913|E5032412|Lin Dunyi                                                             |ES8|HNFW|46|SGD|1000|24/03/2016|24/03/2016|24/03/2017|Yearly                        |534.6|0|First Year Policies           |368.87|59.02|0|0|0|0|1|427.89
60014913|E5032533|Law Choon Cheng                                                       |ES8|HNFW|51|SGD|1200|24/03/2016|24/03/2016|24/03/2017|Yearly                        |533.1|0|First Year Policies           |367.84|58.85|0|0|0|0|1|426.69
60014913|E5032579|Juslan bin Ibrahim                                                    |ES8|HNFW|40|SGD|800|24/03/2016|24/03/2016|24/03/2017|Yearly                        |532|0|First Year Policies           |367.08|58.73|0|0|0|0|1|425.81
60014811|27837799|Sani bin Paimon                                                       |MYS|MSI2|92|SGD|0|26/02/2016|26/02/2016|26/02/2017|Yearly                        |78.4|0|First Year Policies           |23.52|7.84|0|0|0|0|1|31.36
60014816|27872009|Lakkaiyan Shiva Kumar                                                 |MYS|MSI1|60|SGD|0|26/02/2016|26/02/2016|26/02/2017|Yearly                        |259.97|0|First Year Policies           |77.99|26|0|0|0|0|1|103.99
60014816|27872022|Lakkaiyan Shiva Kumar                                                 |MYS|MSI1|63|SGD|0|26/02/2016|26/02/2016|26/02/2017|Yearly                        |259.97|0|First Year Policies           |77.99|26|0|0|0|0|1|103.99
60014816|27872040|Lakkaiyan Shiva Kumar                                                 |MYS|MSI1|90|SGD|0|26/02/2016|26/02/2016|26/02/2017|Yearly                        |138.66|0|First Year Policies           |41.6|13.87|0|0|0|0|1|55.47
60014816|27872064|Lakkaiyan Shiva Kumar                                                 |MYS|MSI1|94|SGD|0|26/02/2016|26/02/2016|26/02/2017|Yearly                        |138.66|0|First Year Policies           |41.6|13.87|0|0|0|0|1|55.47
60014817|27884690|Lavin s/o Jayakumar                                                   |MYS|MSI1|74|SGD|0|14/03/2016|14/03/2016|14/03/2017|Yearly                        |109.99|0|First Year Policies           |33|11|0|0|0|0|1|44
60014818|27872087|Aue Gilbert Christian @Shahmeer Gilbert Aue                           |MYS|MSI1|61|SGD|0|3/7/16|3/7/16|3/7/17|Yearly                        |259.97|0|First Year Policies           |77.99|26|0|0|0|0|1|103.99
60014818|27872102|Aue Gilbert Christian @Shahmeer Gilbert Aue                           |MYS|MSI1|51|SGD|0|3/7/16|3/7/16|3/7/17|Yearly                        |542.06|0|First Year Policies           |162.62|54.21|0|0|0|0|1|216.83
60014818|27872120|Aue Gilbert Christian @Shahmeer Gilbert Aue                           |MYS|MSI1|91|SGD|0|3/5/16|3/5/16|3/5/17|Yearly                        |138.66|0|First Year Policies           |41.6|13.87|0|0|0|0|1|55.47
60014821|27884908|Tan Ampeka                                                            |MYS|MSI1|98|SGD|0|14/03/2016|14/03/2016|14/03/2017|Yearly                        |138.66|0|First Year Policies           |41.6|13.87|0|0|0|0|1|55.47
60014822|27814815|Ravinder Kaur d/o Pooran Singh                                        |MYS|MSI1|54|SGD|0|3/7/16|3/7/16|3/7/17|Yearly                        |436.74|0|First Year Policies           |131.02|43.67|0|0|0|0|1|174.69
60014823|27863106|Javeri Ashit Kishorkumar                                              |MYS|MSI1|57|SGD|0|14/03/2016|14/03/2016|14/03/2017|Yearly                        |436.74|0|First Year Policies           |131.02|43.67|0|0|0|0|1|174.69
60014823|27864804|Javeri Ashit Kishorkumar                                              |MYS|MSI1|60|SGD|0|26/02/2016|26/02/2016|26/02/2017|Yearly                        |259.97|0|First Year Policies           |77.99|26|0|0|0|0|1|103.99
60014823|27864827|Javeri Ashit Kishorkumar                                              |MYS|MSI1|87|SGD|0|26/02/2016|26/02/2016|26/02/2017|Yearly                        |138.66|0|First Year Policies           |41.6|13.87|0|0|0|0|1|55.47
60014823|27864846|Javeri Ashit Kishorkumar                                              |MYS|MSI1|91|SGD|0|26/02/2016|26/02/2016|26/02/2017|Yearly                        |138.66|0|First Year Policies           |41.6|13.87|0|0|0|0|1|55.47
60014823|27864869|Li Deneng                                                             |MYS|MSI1|67|SGD|0|26/02/2016|26/02/2016|26/02/2017|Yearly                        |259.97|0|First Year Policies           |77.99|26|0|0|0|0|1|103.99
60014825|27856519|Sheela Kumari Devi                                                    |MYS|MSI1|98|SGD|0|3/2/16|3/2/16|3/2/17|Yearly                        |138.66|0|First Year Policies           |41.6|13.87|0|0|0|0|1|55.47
60014826|27901804|Kwa Poh Kuan                                                          |MYS|MSI1|66|SGD|0|21/03/2016|21/03/2016|21/03/2017|Yearly                        |259.97|0|First Year Policies           |77.99|26|0|0|0|0|1|103.99
60014826|27901827|Chan Yi Khai                                                          |MYS|MSI1|67|SGD|0|21/03/2016|21/03/2016|21/03/2017|Yearly                        |259.97|0|First Year Policies           |77.99|26|0|0|0|0|1|103.99
60014826|27910691|Ling Hua Pin                                                          |MYS|MSI1|97|SGD|0|28/03/2016|28/03/2016|28/03/2017|Yearly                        |138.66|0|First Year Policies           |41.6|13.87|0|0|0|0|1|55.47
60014826|27921354|Do Thuy Dung                                                          |MYS|MSI1|54|SGD|0|28/03/2016|28/03/2016|28/03/2017|Yearly                        |436.74|0|First Year Policies           |131.02|43.67|0|0|0|0|1|174.69
60014828|27747610|Alinah bte Mohamed Ali                                                |MYS|MSI3|41|SGD|0|19/02/2016|19/02/2016|19/02/2017|Yearly                        |259.61|0|First Year Policies           |64.9|12.98|0|0|0|0|1|77.88
60014829|22803446|Wong David                                                            |MYS|MSI1R|40|SGD|0|2/1/09|2/1/16|2/1/17|Yearly                        |1565.63|0|Renewal Year Policies         |234.84|78.28|0|0|0|0|1|313.12
60014829|22803455|Wong David                                                            |MYS|MSI1R|42|SGD|0|2/1/09|2/1/16|2/1/17|Yearly                        |1059.89|0|Renewal Year Policies         |158.98|52.99|0|0|0|0|1|211.97
60014829|27899612|Ng Tze Wei                                                            |MYS|MSI1|98|SGD|0|21/03/2016|21/03/2016|21/03/2017|Yearly                        |138.66|0|First Year Policies           |41.6|13.87|0|0|0|0|1|55.47
60014830|27904845|Tan Guay Cheng                                                        |MYS|MSI2|35|SGD|0|21/03/2016|21/03/2016|21/03/2017|Yearly                        |701.07|0|First Year Policies           |210.32|70.11|0|0|0|0|1|280.43
60014833|27869927|Sunita Kaur Gill                                                      |MYS|MSI1|98|SGD|0|26/02/2016|26/02/2016|26/02/2017|Yearly                        |138.66|0|First Year Policies           |41.6|13.87|0|0|0|0|1|55.47
60014836|27869889|Bose Soumik                                                           |MYS|MSI2|60|SGD|0|26/02/2016|26/02/2016|26/02/2017|Yearly                        |151.6|0|First Year Policies           |45.48|15.16|0|0|0|0|1|60.64
60014836|27874660|Sathe Amol Pralhad                                                    |MYS|MSN1|98|SGD|0|21/03/2016|21/03/2016|21/03/2017|Yearly                        |260.16|0|First Year Policies           |78.05|26.02|0|0|0|0|1|104.07
60014837|27922097|Lim Hui Hui                                                           |MYS|MSI1|98|SGD|0|28/03/2016|28/03/2016|28/03/2017|Yearly                        |138.66|0|First Year Policies           |41.6|13.87|0|0|0|0|1|55.47
60014840|27879330|Le Minh Duong                                                         |MYS|MSI1|69|SGD|0|3/7/16|3/7/16|3/7/17|Yearly                        |155.92|0|First Year Policies           |46.78|15.59|0|0|0|0|1|62.37
60014840|27879354|Le Minh Duong                                                         |MYS|MSN1|68|SGD|0|3/7/16|3/7/16|3/7/17|Yearly                        |549.69|0|First Year Policies           |164.91|54.97|0|0|0|0|1|219.88
60014840|27879377|Le Minh Duong                                                         |MYS|MSN1|97|SGD|0|3/7/16|3/7/16|3/7/17|Yearly                        |260.16|0|First Year Policies           |78.05|26.02|0|0|0|0|1|104.07
60014840|27890310|Hu Huiping                                                            |MYS|MSI1|65|SGD|0|14/03/2016|14/03/2016|14/03/2017|Yearly                        |259.97|0|First Year Policies           |77.99|26|0|0|0|0|1|103.99
60014841|27914285|Katja Anna Maria Hansdotter Mattsson                                  |MYS|MSI1|96|SGD|0|21/03/2016|21/03/2016|21/03/2017|Yearly                        |138.66|0|First Year Policies           |41.6|13.87|0|0|0|0|1|55.47
60014849|27908125|Goh Qiu Yan Venessa                                                   |MYS|MSI1|72|SGD|0|28/03/2016|28/03/2016|28/03/2017|Yearly                        |155.92|0|First Year Policies           |46.78|15.59|0|0|0|0|1|62.37
60014849|27908139|Goh Qiu Yan Venessa                                                   |MYS|MSI1|75|SGD|0|28/03/2016|28/03/2016|28/03/2017|Yearly                        |155.92|0|First Year Policies           |46.78|15.59|0|0|0|0|1|62.37
60014850|27910717|Mahalingam Senthil Kumar                                              |MYS|MSI1|65|SGD|0|28/03/2016|28/03/2016|28/03/2017|Yearly                        |259.97|0|First Year Policies           |77.99|26|0|0|0|0|1|103.99
60014851|27884707|Li Guoxiang                                                           |MYS|MSI2|70|SGD|0|14/03/2016|14/03/2016|14/03/2017|Yearly                        |89.72|0|First Year Policies           |26.92|8.97|0|0|0|0|1|35.89
60014851|27884725|Cui Yajuan                                                            |MYS|MSI1|63|SGD|0|28/03/2016|28/03/2016|28/03/2017|Yearly                        |259.97|0|First Year Policies           |77.99|26|0|0|0|0|1|103.99
60014851|27884748|Chen Yougang                                                          |MYS|MSI1|63|SGD|0|14/03/2016|14/03/2016|14/03/2017|Yearly                        |259.97|0|First Year Policies           |77.99|26|0|0|0|0|1|103.99
60014851|27884761|Chen Yougang                                                          |MYS|MSI1|95|SGD|0|14/03/2016|14/03/2016|14/03/2017|Yearly                        |138.66|0|First Year Policies           |41.6|13.87|0|0|0|0|1|55.47
60014851|27896506|Ma Su Mon Yi @Elena Ng                                                |MYS|MSI1|40|SGD|0|21/03/2016|21/03/2016|21/03/2017|Yearly                        |525.07|0|First Year Policies           |157.52|52.51|0|0|0|0|1|210.03
60014851|27914300|Liau Hon Tiong                                                        |MYS|MSI2|67|SGD|0|28/03/2016|28/03/2016|28/03/2017|Yearly                        |151.6|0|First Year Policies           |45.48|15.16|0|0|0|0|1|60.64
60014852|27893594|Polineni Anil Kumar                                                   |MYS|MSI1|62|SGD|0|21/03/2016|21/03/2016|21/03/2016|Yearly                        |259.97|0|First Year Policies           |77.99|26|0|0|0|0|1|103.99
60014852|27893619|Polineni Anil Kumar                                                   |MYS|MSI1|96|SGD|0|21/03/2016|21/03/2016|21/03/2016|Yearly                        |138.66|0|First Year Policies           |41.6|13.87|0|0|0|0|1|55.47
60014852|27893632|Doddapaneni Swapna Priya                                              |MYS|MSI1|67|SGD|0|14/03/2016|14/03/2016|14/03/2016|Yearly                        |259.97|0|First Year Policies           |77.99|26|0|0|0|0|1|103.99
60014852|27893632|Doddapaneni Swapna Priya                                              |MYS|MSI1|67|SGD|0|14/03/2016|14/03/2016|14/03/2016|Yearly                        |-259.97|0|First Year Policies           |-77.99|-26|0|0|0|0|1|-103.99
60014854|27830248|Handoko                                                               |MYS|MSN1|98|SGD|0|21/03/2016|21/03/2016|21/03/2017|Yearly                        |260.16|0|First Year Policies           |78.05|26.02|0|0|0|0|1|104.07
60014854|27849922|Chen Ming Xuan                                                        |MYS|MSI2|43|SGD|0|14/03/2016|14/03/2016|14/03/2017|Yearly                        |448.32|0|First Year Policies           |134.5|44.83|0|0|0|0|1|179.33
60014860|27910614|Chan Weng Cheong                                                      |MYS|MSI1|30|SGD|0|28/03/2016|28/03/2016|28/03/2017|Yearly                        |1161.1|0|First Year Policies           |348.33|116.11|0|0|0|0|1|464.44
60014862|27784846|Seow Lee Suan                                                         |MYS|MSI1|98|SGD|0|21/03/2016|21/03/2016|21/03/2017|Yearly                        |138.66|0|First Year Policies           |41.6|13.87|0|0|0|0|1|55.47
60014866|27780944|Tseng Wie Sing Catherine                                              |MYS|MSI1|64|SGD|0|21/03/2016|21/03/2016|21/03/2017|Yearly                        |259.97|0|First Year Policies           |77.99|26|0|0|0|0|1|103.99
60014866|27780967|Tseng Wie Sing Catherine                                              |MYS|MSI1|64|SGD|0|21/03/2016|21/03/2016|21/03/2017|Yearly                        |259.97|0|First Year Policies           |77.99|26|0|0|0|0|1|103.99
60014866|27904881|Koh Kok Hong                                                          |MYS|MSI1|65|SGD|0|21/03/2016|21/03/2016|21/03/2017|Yearly                        |259.97|0|First Year Policies           |77.99|26|0|0|0|0|1|103.99
60014873|27869866|Chang Jia Man                                                         |MYS|MSI1|76|SGD|0|26/02/2016|26/02/2016|26/02/2017|Yearly                        |155.92|0|First Year Policies           |46.78|15.59|0|0|0|0|1|62.37
60014874|27787214|Kanagasabai Sivamani                                                  |MYS|MSI1|94|SGD|0|14/03/2016|14/03/2016|14/03/2017|Yearly                        |138.66|0|First Year Policies           |41.6|13.87|0|0|0|0|1|55.47
60014874|27832054|Kotteri Vijeyan                                                       |MYS|MSI1|78|SGD|0|26/02/2016|26/02/2016|26/02/2017|Yearly                        |109.99|0|First Year Policies           |33|11|0|0|0|0|1|44
60014876|27902000|Woo Sui Lin                                                           |MYS|MSI3|31|SGD|0|21/03/2016|21/03/2016|21/03/2017|Yearly                        |651.94|0|First Year Policies           |162.99|32.6|0|0|0|0|1|195.59
60014878|27870600|Vedachalam Natanasabapathy                                            |MYS|MSI1|48|SGD|0|14/03/2016|14/03/2016|14/03/2017|Yearly                        |733.3|0|First Year Policies           |219.99|73.33|0|0|0|0|1|293.32
60014878|27884805|Lim Kai Hui Alvin                                                     |MYS|MSI1|72|SGD|0|14/03/2016|14/03/2016|14/03/2017|Yearly                        |155.92|0|First Year Policies           |46.78|15.59|0|0|0|0|1|62.37
60014878|27884828|Lim Kai Hui Alvin                                                     |MYS|MSN1|69|SGD|0|14/03/2016|14/03/2016|14/03/2017|Yearly                        |338.16|0|First Year Policies           |101.45|33.82|0|0|0|0|1|135.27
60014878|27914324|Su Chong Guang                                                        |MYS|MSI1|71|SGD|0|28/03/2016|28/03/2016|28/03/2017|Yearly                        |155.92|0|First Year Policies           |46.78|15.59|0|0|0|0|1|62.37
60014879|27862306|Koh Lay Hoon                                                          |MYS|MSI2|51|SGD|0|26/02/2016|26/02/2016|26/02/2017|Yearly                        |308.77|0|First Year Policies           |92.63|30.88|0|0|0|0|1|123.51
60014881|27874580|Oh Frederick                                                          |MYS|MSI2|45|SGD|0|3/7/16|3/7/16|3/7/17|Yearly                        |425.06|0|First Year Policies           |127.52|42.51|0|0|0|0|1|170.03
60014883|27872505|Ho Li Li                                                              |MYS|MSI1|98|SGD|0|3/7/16|3/7/16|3/7/17|Yearly                        |138.66|0|First Year Policies           |41.6|13.87|0|0|0|0|1|55.47
60014883|27893570|Chen Dehui                                                            |MYS|MSI1|34|SGD|0|28/03/2016|28/03/2016|28/03/2017|Yearly                        |760.79|0|First Year Policies           |228.24|76.08|0|0|0|0|1|304.32
60014883|27927648|Adaikalasamy Sagayarani                                               |MYS|MSI1|55|SGD|0|28/03/2016|28/03/2016|28/03/2017|Yearly                        |304.25|0|First Year Policies           |91.28|30.43|0|0|0|0|1|121.71
60014884|27882357|Lee Wen Pin Kenneth                                                   |MYS|MSI1|63|SGD|0|14/03/2016|14/03/2016|14/03/2017|Yearly                        |184.52|0|First Year Policies           |55.36|18.45|0|0|0|0|1|73.81
60014884|27882389|Chua Lee Chuang                                                       |MYS|MSI2|42|SGD|0|14/03/2016|14/03/2016|14/03/2017|Yearly                        |448.32|0|First Year Policies           |134.5|44.83|0|0|0|0|1|179.33
60014884|27884944|Lim William                                                           |MYS|MSI1|68|SGD|0|14/03/2016|14/03/2016|14/03/2017|Yearly                        |259.97|0|First Year Policies           |77.99|26|0|0|0|0|1|103.99
60014884|27910829|Toh Tuan Lay                                                          |MYS|MSI1|58|SGD|0|21/03/2016|21/03/2016|21/03/2017|Yearly                        |436.74|0|First Year Policies           |131.02|43.67|0|0|0|0|1|174.69
60014886|27872528|Ng Tian Jie                                                           |MYS|MSI1|71|SGD|0|3/7/16|3/7/16|3/7/17|Yearly                        |155.92|0|First Year Policies           |46.78|15.59|0|0|0|0|1|62.37
60014889|27728961|Lee Gek Ling                                                          |MYS|MSI1|71|SGD|0|26/02/2016|26/02/2016|26/02/2017|Yearly                        |155.92|0|First Year Policies           |46.78|15.59|0|0|0|0|1|62.37
60014895|27907807|Xu Yiling Linda                                                       |MYS|MSI2|65|SGD|0|21/03/2016|21/03/2016|21/03/2017|Yearly                        |151.6|0|First Year Policies           |45.48|15.16|0|0|0|0|1|60.64
60014895|27907826|Xu Yiling Linda                                                       |MYS|MSI2|64|SGD|0|21/03/2016|21/03/2016|21/03/2017|Yearly                        |151.6|0|First Year Policies           |45.48|15.16|0|0|0|0|1|60.64
60014895|27914164|Harris Lomboy Servillon                                               |MYS|MSI2|60|SGD|0|28/03/2016|28/03/2016|28/03/2017|Yearly                        |151.6|0|First Year Policies           |45.48|15.16|0|0|0|0|1|60.64
60014895|27914187|Harris Lomboy Servillon                                               |MYS|MSI2|62|SGD|0|28/03/2016|28/03/2016|28/03/2017|Yearly                        |151.6|0|First Year Policies           |45.48|15.16|0|0|0|0|1|60.64
60014896|27874718|Carbonilla Rauliz May Ann Lizada @Rauliz May Ann Rausa Lizada         |MYS|MSI2|68|SGD|0|3/7/16|3/7/16|3/7/17|Yearly                        |151.6|0|First Year Policies           |45.48|15.16|0|0|0|0|1|60.64
60014896|27874777|Marvin Nunez Carbonilla                                               |MYS|MSI2|66|SGD|0|3/7/16|3/7/16|3/7/17|Yearly                        |151.6|0|First Year Policies           |45.48|15.16|0|0|0|0|1|60.64
60014899|27821185|Roshan Mahesh Lalmalani                                               |MYS|MSI1|70|SGD|0|26/02/2016|26/02/2016|26/02/2017|Yearly                        |155.92|0|First Year Policies           |46.78|15.59|0|0|0|0|1|62.37
60014899|27821200|Roshan Mahesh Lalmalani                                               |MYS|MSI1|70|SGD|0|26/02/2016|26/02/2016|26/02/2017|Yearly                        |155.92|0|First Year Policies           |46.78|15.59|0|0|0|0|1|62.37
60014902|27879312|Toh Jiawei                                                            |MYS|MSI1|98|SGD|0|3/7/16|3/7/16|3/7/17|Yearly                        |138.66|0|First Year Policies           |41.6|13.87|0|0|0|0|1|55.47
60014903|27910655|Tan Jeem Guarn Jim Daven                                              |MYS|MSI1|98|SGD|0|28/03/2016|28/03/2016|28/03/2017|Yearly                        |100.09|0|First Year Policies           |30.03|10.01|0|0|0|0|1|40.04
60014905|27841180|Wong Weng Hwa Peter                                                   |MYS|MSI2|63|SGD|0|28/03/2016|28/03/2016|28/03/2017|Yearly                        |151.6|0|First Year Policies           |45.48|15.16|0|0|0|0|1|60.64
60014905|27841194|Wong Weng Hwa Peter                                                   |MYS|MSN2|66|SGD|0|28/03/2016|28/03/2016|28/03/2017|Yearly                        |441.32|0|First Year Policies           |132.4|44.13|0|0|0|0|1|176.53
60014906|27907791|Koo Tian Ze                                                           |MYS|MSI1|68|SGD|0|21/03/2016|21/03/2016|21/03/2017|Yearly                        |259.97|0|First Year Policies           |77.99|26|0|0|0|0|1|103.99
60014906|27907880|Khoo Kok Ann Michael                                                  |MYS|MSI1|58|SGD|0|21/03/2016|21/03/2016|21/03/2017|Yearly                        |436.74|0|First Year Policies           |131.02|43.67|0|0|0|0|1|174.69
60014908|27867157|Lim Jian Wei Mark                                                     |MYS|MSI2|76|SGD|0|26/02/2016|26/02/2016|26/02/2017|Yearly                        |89.72|0|First Year Policies           |26.92|8.97|0|0|0|0|1|35.89
60014910|27862280|Nur Ashikin bte Sabari                                                |MYS|MSI1|66|SGD|0|26/02/2016|26/02/2016|26/02/2017|Yearly                        |259.97|0|First Year Policies           |77.99|26|0|0|0|0|1|103.99
60014912|27884841|Lim Bee Kiat                                                          |MYS|MSI1|49|SGD|0|14/03/2016|14/03/2016|14/03/2017|Yearly                        |542.06|0|First Year Policies           |162.62|54.21|0|0|0|0|1|216.83
60014912|27884864|Hwang Tsui Foon Susan                                                 |MYS|MSI1|51|SGD|0|14/03/2016|14/03/2016|14/03/2017|Yearly                        |542.06|0|First Year Policies           |162.62|54.21|0|0|0|0|1|216.83
60014913|27910771|Tang Chiam Oh                                                         |MYS|MSI1|53|SGD|0|28/03/2016|28/03/2016|28/03/2017|Yearly                        |542.06|0|First Year Policies           |162.62|54.21|0|0|0|0|1|216.83
60014913|27910794|Tang Chiam Hoe                                                        |MYS|MSI1|57|SGD|0|28/03/2016|28/03/2016|28/03/2017|Yearly                        |436.74|0|First Year Policies           |131.02|43.67|0|0|0|0|1|174.69
60014915|27874684|Winston Emmanuel Longue                                               |MYS|MSI3|27|SGD|0|3/7/16|3/7/16|3/7/17|Yearly                        |1044.33|0|First Year Policies           |261.08|52.22|0|0|0|0|1|313.3
60014915|27874697|Winston Emmanuel Longue                                               |MYS|MSI3|33|SGD|0|3/7/16|3/7/16|3/7/17|Yearly                        |651.94|0|First Year Policies           |162.99|32.6|0|0|0|0|1|195.59
60014915|27874709|Kong Fook Fah                                                         |MYS|MSI3|29|SGD|0|3/7/16|3/7/16|3/7/17|Yearly                        |651.94|0|First Year Policies           |162.99|32.6|0|0|0|0|1|195.59
60014915|27910678|Teh Wan Joo                                                           |MYS|MSI1|38|SGD|0|28/03/2016|28/03/2016|28/03/2017|Yearly                        |1059.89|0|First Year Policies           |317.97|105.99|0|0|0|0|1|423.96