Agent No|Policy Num|Policy Holder|Policy Type|Component|Pol Term|Cont Curr|Sum Insured|Inception Date|Premium Due Date|Paid To Date|Bil Freq| Premium Paid | Extra Loading |Fee Type| Basic Comm | Basic Overrding Comm | Extra Overrding Comm | Trailer Fee Comm | PAS Comm | Other Comm |FX rate| Total Comm on Payment Curr 
60014805|E4921238|Trilochan Kumar Gupta                                                 |ES8|HNFW|56|SGD|5000|06/09/2015|06/09/2015|06/09/2016|Yearly                        |1993.65| -   |First Year Policies           |1375.62|220.1| -   | -   | -   | -   |1|1595.72
60014809|21166175|Roziah bte A Raja                                                     |MSP|MP1C|51|SGD|0|01/03/2016|01/03/2016|01/08/2016|Yearly                        |150.02| -   |First Year Policies           |33.76|11.25| -   | -   | -   | -   |1|45.01
60014809|27821167|Lau Ee Lian                                                           |MSP|MP2C|98|SGD|0|01/02/2016|01/02/2016|01/02/2017|Yearly                        |149.53| -   |First Year Policies           |33.64|11.21| -   | -   | -   | -   |1|44.85
60014809|27832077|Ho Yue Mei                                                            |MYS|MSI1|73|SGD|0|05/02/2016|05/02/2016|05/02/2017|Yearly                        |155.92| -   |First Year Policies           |46.78|15.59| -   | -   | -   | -   |1|62.37
60014810|6041089|Vidovic Dragoslav                                                     |CPW|ENTW|30|SGD|1000000|23/01/2016|23/01/2016|23/01/2017|Yearly                        |1427.6| -   |First Year Policies           |822.3|246.69| -   | -   | -   | -   |1|1068.99
60014810|6041089|Vidovic Dragoslav                                                     |CPW|TPAK|30|SGD|1000000|23/01/2016|23/01/2016|23/01/2017|Yearly                        |264| -   |First Year Policies           |152.06|45.62| -   | -   | -   | -   |1|197.68
60014810|6045899|Sreenilayam Sreedhar Manju                                            |CPW|ENTW|23|SGD|500000|23/02/2016|23/02/2016|23/03/2016|Monthly                       |73.4| -   |First Year Policies           |39.47|11.84| -   | -   | -   | -   |1|51.31
60014810|27860475|Abdul Jalil bin Abdul Razak                                           |MYS|MSI1|98|SGD|0|22/02/2016|22/02/2016|22/02/2017|Yearly                        |138.66| -   |First Year Policies           |41.6|13.87| -   | -   | -   | -   |1|55.47
60014810|27860489|Abdul Jalil bin Abdul Razak                                           |MSP|MP1C|98|SGD|0|22/02/2016|22/02/2016|22/02/2017|Yearly                        |309.35| -   |First Year Policies           |69.6|23.2| -   | -   | -   | -   |1|92.8
60014811|27837767|Sani bin Paimon                                                       |MYS|MSI2|50|SGD|0|15/02/2016|15/02/2016|15/02/2017|Yearly                        |308.77| -   |First Year Policies           |92.63|30.88| -   | -   | -   | -   |1|123.51
60014811|27837785|Sani bin Paimon                                                       |MSP|MP2C|50|SGD|0|15/02/2016|15/02/2016|15/02/2017|Yearly                        |341.12| -   |First Year Policies           |76.75|25.58| -   | -   | -   | -   |1|102.33
60014813|27836774|Eng Sze Hui                                                           |MYS|MSI1|62|SGD|0|22/02/2016|22/02/2016|22/02/2017|Yearly                        |259.97| -   |First Year Policies           |77.99|26| -   | -   | -   | -   |1|103.99
60014813|27836784|Eng Sze Hui                                                           |MSP|MP1C|62|SGD|0|22/02/2016|22/02/2016|22/02/2017|Yearly                        |358.88| -   |First Year Policies           |80.75|26.92| -   | -   | -   | -   |1|107.67
60014813|27848292|Viloria Fidel Pedro                                                   |MSP|MP1C|60|SGD|0|01/03/2016|01/03/2016|01/02/2017|Yearly                        |330.45| -   |First Year Policies           |74.35|24.78| -   | -   | -   | -   |1|99.13
60014813|27848304|Viloria Myla Pimentel                                                 |MSP|MP1C|59|SGD|0|01/03/2016|01/03/2016|01/02/2017|Yearly                        |330.45| -   |First Year Policies           |74.35|24.78| -   | -   | -   | -   |1|99.13
60014814|6023344|Zulkifly bin Jaffar                                                   |CPW|ENTW|30|SGD|1000000|14/01/2016|14/01/2016|14/03/2016|Monthly                       |328.6| -   |First Year Policies           |189.2|56.76| -   | -   | -   | -   |1|245.96
60014814|6023344|Zulkifly bin Jaffar                                                   |CPW|HNMQ|30|SGD|2293.6|14/01/2016|14/01/2016|14/03/2016|Monthly                       |30.7| -   |First Year Policies           |6.14|4.91| -   | -   | -   | -   |1|11.05
60014814|6023344|Zulkifly bin Jaffar                                                   |CPW|TPAK|29|SGD|1000000|14/01/2016|14/01/2016|14/03/2016|Monthly                       |62.8| -   |First Year Policies           |36.16|10.85| -   | -   | -   | -   |1|47.01
60014816|6025665|Teo Cheng Ean Colin                                                   |CPW|CIAJ|40|SGD|500000|19/12/2015|19/12/2015|19/12/2016|Yearly                        |852| -   |First Year Policies           |490.75|147.23| -   | -   | -   | -   |1|637.98
60014816|6025665|Teo Cheng Ean Colin                                                   |CPW|ENTW|40|SGD|1000000|19/12/2015|19/12/2015|19/12/2016|Yearly                        |1142.1| -   |First Year Policies           |657.85|197.36| -   | -   | -   | -   |1|855.21
60014816|6025665|Teo Cheng Ean Colin                                                   |CPW|TPAK|40|SGD|1000000|19/12/2015|19/12/2015|19/12/2016|Yearly                        |192| -   |First Year Policies           |110.59|33.18| -   | -   | -   | -   |1|143.77
60014817|6034138|R Sandhia                                                             |MLF|CIAO|74|SGD|100000|26/01/2016|26/01/2016|26/02/2016|Monthly                       |38.6| -   |First Year Policies           |36.67| -   | -   | -   | -   | -   |1|36.67
60014817|6034138|R Sandhia                                                             |MLF|HML3|74|SGD|100000|26/01/2016|26/01/2016|26/02/2016|Monthly                       |126.8| -   |First Year Policies           |120.46| -   | -   | -   | -   | -   |1|120.46
60014817|6034138|R Sandhia                                                             |MLF|TPM3|45|SGD|100000|26/01/2016|26/01/2016|26/02/2016|Monthly                       |2.35| -   |First Year Policies           |2.23| -   | -   | -   | -   | -   |1|2.23
60014817|6034142|Ee Hui Mei Valerie                                                    |MLF|CIAO|73|SGD|100000|02/02/2016|02/02/2016|02/03/2016|Monthly                       |40.45| -   |First Year Policies           |38.43| -   | -   | -   | -   | -   |1|38.43
60014817|6034142|Ee Hui Mei Valerie                                                    |MLF|HML3|73|SGD|100000|02/02/2016|02/02/2016|02/03/2016|Monthly                       |129.75| -   |First Year Policies           |123.26| -   | -   | -   | -   | -   |1|123.26
60014817|6034142|Ee Hui Mei Valerie                                                    |MLF|TPM3|44|SGD|100000|02/02/2016|02/02/2016|02/03/2016|Monthly                       |2.4| -   |First Year Policies           |2.28| -   | -   | -   | -   | -   |1|2.28
60014817|20200714|Jonathan Villamin Cano                                                |MSP|MP2C|61|SGD|0|01/03/2016|01/03/2016|01/01/2017|Yearly                        |196.13| -   |First Year Policies           |44.13|14.71| -   | -   | -   | -   |1|58.84
60014817|27830225|R Sandhia                                                             |MYS|MSI1|73|SGD|0|05/02/2016|05/02/2016|05/02/2017|Yearly                        |155.92| -   |First Year Policies           |46.78|15.59| -   | -   | -   | -   |1|62.37
60014818|6032622|Wong Zhi Wai                                                          |MLF|CIAO|65|SGD|150000|05/02/2016|05/02/2016|05/03/2016|Monthly                       |71.55| -   |First Year Policies           |67.97| -   | -   | -   | -   | -   |1|67.97
60014818|6032622|Wong Zhi Wai                                                          |MLF|HML3|65|SGD|150000|05/02/2016|05/02/2016|05/03/2016|Monthly                       |264.75| -   |First Year Policies           |251.51| -   | -   | -   | -   | -   |1|251.51
60014818|6032622|Wong Zhi Wai                                                          |MLF|TPM3|36|SGD|150000|05/02/2016|05/02/2016|05/03/2016|Monthly                       |7.05| -   |First Year Policies           |6.7| -   | -   | -   | -   | -   |1|6.7
60014822|27818721|Roshidah bte Mohamad Noor                                             |MYS|MSI2|50|SGD|0|01/02/2016|01/02/2016|01/02/2017|Yearly                        |308.77| -   |First Year Policies           |92.63|30.88| -   | -   | -   | -   |1|123.51
60014822|27818730|Roshidah bte Mohamad Noor                                             |MSP|MP2C|50|SGD|0|01/02/2016|01/02/2016|01/02/2017|Yearly                        |341.12| -   |First Year Policies           |76.75|25.58| -   | -   | -   | -   |1|102.33
60014824|E4687071|Lim Yong Lee                                                          |ES8|HNFW|50|SGD|1200|25/02/2016|25/02/2016|25/02/2017|Yearly                        |557.05| -   |First Year Policies           |384.36|61.5| -   | -   | -   | -   |1|445.86
60014824|E4929986|Voo Yee Ling                                                          |ES6|HPFU|58|SGD|1000|25/02/2016|25/02/2016|25/02/2017|Yearly                        |524.25| -   |First Year Policies           |361.73|57.88| -   | -   | -   | -   |1|419.61
60014824|E4960644|Tan Swan Kit Magellan                                                 |ES6|HPFU|56|SGD|1200|25/02/2016|25/02/2016|25/02/2017|Yearly                        |542.45| -   |First Year Policies           |374.29|59.89| -   | -   | -   | -   |1|434.18
60014824|27760095|Kueh Lee Geok                                                         |MYS|MSI1|59|SGD|0|13/01/2016|13/01/2016|13/01/2017|Yearly                        |259.97| -   |First Year Policies           |77.99|26| -   | -   | -   | -   |1|103.99
60014824|27760101|Kueh Lee Geok                                                         |MSP|MP1C|59|SGD|0|13/01/2016|13/01/2016|13/01/2017|Yearly                        |358.88| -   |First Year Policies           |80.75|26.92| -   | -   | -   | -   |1|107.67
60014825|27856484|Sheela Kumari Devi                                                    |MYS|MSI1|98|SGD|0|22/02/2016|22/02/2016|22/02/2017|Yearly                        |138.66| -   |First Year Policies           |41.6|13.87| -   | -   | -   | -   |1|55.47
60014825|27856505|Sheela Kumari Devi                                                    |MSP|MP1C|98|SGD|0|22/02/2016|22/02/2016|22/02/2017|Yearly                        |309.35| -   |First Year Policies           |69.6|23.2| -   | -   | -   | -   |1|92.8
60014827|27833944|Ng Chong Wei Shaun                                                    |MYS|MSI1|98|SGD|0|05/02/2016|05/02/2016|05/02/2017|Yearly                        |138.66| -   |First Year Policies           |41.6|13.87| -   | -   | -   | -   |1|55.47
60014827|27833954|Ng Chong Wei Shaun                                                    |MSP|MP1C|98|SGD|0|05/02/2016|05/02/2016|05/02/2017|Yearly                        |309.35| -   |First Year Policies           |69.6|23.2| -   | -   | -   | -   |1|92.8
60014830|6041098|Say Wan Ling Jennifer                                                 |CPW|CIAJ|32|SGD|200000|05/02/2016|05/02/2016|05/03/2016|Monthly                       |36.6| -   |First Year Policies           |21.07|6.32| -   | -   | -   | -   |1|27.39
60014830|6041098|Say Wan Ling Jennifer                                                 |CPW|ENTW|32|SGD|1000000|05/02/2016|05/02/2016|05/03/2016|Monthly                       |65.15| -   |First Year Policies           |37.51|11.25| -   | -   | -   | -   |1|48.76
60014830|6041098|Say Wan Ling Jennifer                                                 |CPW|TPAK|32|SGD|1000000|05/02/2016|05/02/2016|05/03/2016|Monthly                       |13.65| -   |First Year Policies           |7.86|2.36| -   | -   | -   | -   |1|10.22
60014830|6043587|Ithihas Mangalore Nagaraj                                             |CPW|CIAJ|30|SGD|400000|29/02/2016|29/02/2016|29/03/2016|Monthly                       |53.8| -   |First Year Policies           |30.98|9.29| -   | -   | -   | -   |1|40.27
60014830|6043587|Ithihas Mangalore Nagaraj                                             |CPW|ENTW|30|SGD|1000000|29/02/2016|29/02/2016|29/03/2016|Monthly                       |72.5| -   |First Year Policies           |41.74|12.52| -   | -   | -   | -   |1|54.26
60014830|6043587|Ithihas Mangalore Nagaraj                                             |CPW|TPAK|30|SGD|500000|29/02/2016|29/02/2016|29/03/2016|Monthly                       |5.15| -   |First Year Policies           |2.97|0.89| -   | -   | -   | -   |1|3.86
60014830|22846651|Pang Yuanyuan                                                         |MYS|MSI1|71|SGD|0|01/02/2008|01/02/2016|01/02/2017|Yearly                        |259.97| -   |Renewal Year Policies         |39|13| -   | -   | -   | -   |1|52
60014830|27818786|Lin Daoji Michael                                                     |MYS|MSI1|67|SGD|0|01/02/2016|01/02/2016|01/02/2017|Yearly                        |259.97| -   |First Year Policies           |77.99|26| -   | -   | -   | -   |1|103.99
60014830|27818795|Lin Daoji Michael                                                     |MSP|MP1A|67|SGD|0|01/02/2016|01/02/2016|01/02/2017|Yearly                        |107.48| -   |First Year Policies           |24.18|8.06| -   | -   | -   | -   |1|32.24
60014830|27818801|Jayshree Ramesh Khemlani                                              |MYS|MSI2|79|SGD|0|01/02/2016|01/02/2016|01/02/2017|Yearly                        |52.49| -   |First Year Policies           |15.75|5.25| -   | -   | -   | -   |1|21
60014830|27818810|Jayshree Ramesh Khemlani                                              |MSP|MP2C|79|SGD|0|01/02/2016|01/02/2016|01/02/2017|Yearly                        |151.78| -   |First Year Policies           |34.15|11.38| -   | -   | -   | -   |1|45.53
60014831|27836797|Lau Seng Han Sebastian                                                |MYS|MSI1|64|SGD|0|05/02/2016|05/02/2016|05/02/2017|Yearly                        |259.97| -   |First Year Policies           |77.99|26| -   | -   | -   | -   |1|103.99
60014831|27836809|Lau Seng Han Sebastian                                                |MSP|MP1C|64|SGD|0|05/02/2016|05/02/2016|05/02/2017|Yearly                        |358.88| -   |First Year Policies           |80.75|26.92| -   | -   | -   | -   |1|107.67
60014832|6041772|Mong Dong Peng                                                        |MB6|HCC2|20|SGD|100000|23/02/2016|23/02/2016|23/02/2017|Yearly                        |8040| -   |First Year Policies           |4438.08| -   | -   | -   | -   | -   |1|4438.08
60014832|6041781|Mong Dong Peng                                                        |CPE|CIAQ|10|SGD|150000|16/02/2016|16/02/2016|16/02/2017|Yearly                        |208.5| -   |First Year Policies           |41.7|33.36| -   | -   | -   | -   |1|75.06
60014832|6041781|Mong Dong Peng                                                        |CPE|ENTF|10|SGD|150000|16/02/2016|16/02/2016|16/02/2017|Yearly                        |156| -   |First Year Policies           |85.8|25.74| -   | -   | -   | -   |1|111.54
60014832|6041781|Mong Dong Peng                                                        |CPE|TPAD|10|SGD|150000|16/02/2016|16/02/2016|16/02/2017|Yearly                        |21| -   |First Year Policies           |4.2|3.36| -   | -   | -   | -   |1|7.56
60014833|E4960335|Lam Lai Wah Mildred                                                   |ES8|HNFW|52|SGD|2000|24/02/2016|24/02/2016|24/02/2017|Yearly                        |1184.1| -   |First Year Policies           |817.03|130.72| -   | -   | -   | -   |1|947.75
60014833|27832110|Lee Liat Yeow                                                         |MYS|MSI1|55|SGD|0|05/02/2016|05/02/2016|05/02/2017|Yearly                        |436.74| -   |First Year Policies           |131.02|43.67| -   | -   | -   | -   |1|174.69
60014833|27832124|Lee Liat Yeow                                                         |MSP|MP1C|55|SGD|0|05/02/2016|05/02/2016|05/02/2017|Yearly                        |358.88| -   |First Year Policies           |80.75|26.92| -   | -   | -   | -   |1|107.67
60014833|27834097|Chan Mee Keow                                                         |MSP|MP1C|73|SGD|0|01/03/2016|01/03/2016|01/02/2017|Yearly                        |325.28| -   |First Year Policies           |73.19|24.4| -   | -   | -   | -   |1|97.59
60014837|E4791414|Lee Joo Tong John                                                     |ES8|HNFW|58|SGD|1800|25/02/2016|25/02/2016|25/02/2017|Yearly                        |626.3| -   |First Year Policies           |432.15|69.14| -   | -   | -   | -   |1|501.29
60014837|6024266|Vaidyanathan Narayanan                                                |CPW|ENTW|31|SGD|1500000|25/01/2016|25/01/2016|25/01/2017|Yearly                        |4342.6| -   |First Year Policies           |2501.34|750.4| -   | -   | -   | -   |1|3251.74
60014837|6024266|Vaidyanathan Narayanan                                                |CPW|HNMQ|31|SGD|5026.56|25/01/2016|25/01/2016|25/01/2017|Yearly                        |550.6| -   |First Year Policies           |110.12|88.1| -   | -   | -   | -   |1|198.22
60014837|6024266|Vaidyanathan Narayanan                                                |CPW|TPAK|26|SGD|1500000|25/01/2016|25/01/2016|25/01/2017|Yearly                        |684| -   |First Year Policies           |393.98|118.19| -   | -   | -   | -   |1|512.17
60014837|26003802|Koh Lay Tin                                                           |MSP|MP1C|39|SGD|0|01/02/2016|01/02/2016|01/12/2016|Yearly                        |444.02| -   |First Year Policies           |99.9|33.3| -   | -   | -   | -   |1|133.2
60014837|27833921|Thomas Axel Jonas Celinder                                            |MYS|MSI1|62|SGD|0|05/02/2016|05/02/2016|05/02/2017|Yearly                        |259.97| -   |First Year Policies           |77.99|26| -   | -   | -   | -   |1|103.99
60014837|27833930|Thomas Axel Jonas Celinder                                            |MSP|MP1C|62|SGD|0|05/02/2016|05/02/2016|05/02/2017|Yearly                        |358.88| -   |First Year Policies           |80.75|26.92| -   | -   | -   | -   |1|107.67
60014839|27847174|Lee Tong Yih Eric                                                     |MSP|MP2C|98|SGD|0|15/02/2016|15/02/2016|15/02/2017|Yearly                        |149.53| -   |First Year Policies           |33.64|11.21| -   | -   | -   | -   |1|44.85
60014840|6035837|Zeng Shimin                                                           |CPW|CIAJ|65|SGD|150000|14/02/2016|14/02/2016|14/02/2017|Yearly                        |435.6| -   |First Year Policies           |250.91|75.27| -   | -   | -   | -   |1|326.18
60014840|6035837|Zeng Shimin                                                           |CPW|ENTW|65|SGD|1000000|14/02/2016|14/02/2016|14/02/2017|Yearly                        |2330.65| -   |First Year Policies           |1342.45|402.74| -   | -   | -   | -   |1|1745.19
60014840|6035837|Zeng Shimin                                                           |CPW|TPAK|40|SGD|1000000|14/02/2016|14/02/2016|14/02/2017|Yearly                        |208| -   |First Year Policies           |119.81|35.94| -   | -   | -   | -   |1|155.75
60014840|6035855|Lai Faat Sun                                                          |CPW|CIAJ|47|SGD|100000|03/02/2016|03/02/2016|03/03/2016|Monthly                       |24.6| -   |First Year Policies           |14.16|4.25| -   | -   | -   | -   |1|18.41
60014840|6035855|Lai Faat Sun                                                          |CPW|ENTW|47|SGD|1000000|03/02/2016|03/02/2016|03/03/2016|Monthly                       |180.15| -   |First Year Policies           |103.73|31.12| -   | -   | -   | -   |1|134.85
60014840|6035855|Lai Faat Sun                                                          |CPW|TPAK|37|SGD|1000000|03/02/2016|03/02/2016|03/03/2016|Monthly                       |19.8| -   |First Year Policies           |11.4|3.42| -   | -   | -   | -   |1|14.82
60014840|27721250|Antony Suwaty                                                         |MSP|MP2C|98|SGD|0|01/02/2016|01/02/2016|01/02/2017|Yearly                        |149.53| -   |First Year Policies           |33.64|11.21| -   | -   | -   | -   |1|44.85
60014840|27721250|Antony Suwaty                                                         |MSP|MP2C|97|SGD|0|01/02/2016|10/02/2016|01/02/2017|Yearly                        |149.53| -   |First Year Policies           |33.64|11.21| -   | -   | -   | -   |1|44.85
60014840|27721250|Antony Suwaty                                                         |MSP|MP2C|97|SGD|0|01/02/2016|10/02/2016|01/02/2017|Yearly                        |-149.53| -   |First Year Policies           |-33.64|-11.21| -   | -   | -   | -   |1|-44.85
60014840|27787227|Ho Meibao Valentina                                                   |MYS|MSI1|77|SGD|0|01/02/2016|01/02/2016|01/02/2017|Yearly                        |155.92| -   |First Year Policies           |46.78|15.59| -   | -   | -   | -   |1|62.37
60014840|27787237|Ho Meibao Valentina                                                   |MSP|MP1C|77|SGD|0|01/02/2016|01/02/2016|01/02/2017|Yearly                        |353.27| -   |First Year Policies           |79.49|26.5| -   | -   | -   | -   |1|105.99
60014840|27787246|Ho Meiying Beatrice                                                   |MYS|MSI1|75|SGD|0|01/02/2016|01/02/2016|01/02/2017|Yearly                        |155.92| -   |First Year Policies           |46.78|15.59| -   | -   | -   | -   |1|62.37
60014840|27787255|Ho Meiying Beatrice                                                   |MSP|MP1C|75|SGD|0|01/02/2016|01/02/2016|01/02/2017|Yearly                        |353.27| -   |First Year Policies           |79.49|26.5| -   | -   | -   | -   |1|105.99
60014840|27787255|Ho Meiying Beatrice                                                   |MSP|MP1C|74|SGD|0|01/02/2016|05/02/2016|01/02/2017|Yearly                        |353.27| -   |First Year Policies           |79.49| -   | -   | -   | -   | -   |1|79.49
60014840|27787255|Ho Meiying Beatrice                                                   |MSP|MP1C|74|SGD|0|01/02/2016|05/02/2016|01/02/2017|Yearly                        |-353.27| -   |First Year Policies           |-79.49| -   | -   | -   | -   | -   |1|-79.49
60014840|27848327|Hu Ning                                                               |MSP|MP1C|71|SGD|0|22/02/2016|22/02/2016|22/02/2017|Yearly                        |353.27| -   |First Year Policies           |79.49|26.5| -   | -   | -   | -   |1|105.99
60014841|27830350|Jebie Kananggar Ganda                                                 |MYS|MSN1|98|SGD|0|05/02/2016|05/02/2016|05/02/2017|Yearly                        |260.16| -   |First Year Policies           |78.05|26.02| -   | -   | -   | -   |1|104.07
60014841|27832044|Jebie Kananggar Ganda                                                 |MSP|MP1C|98|SGD|0|05/02/2016|05/02/2016|05/02/2017|Yearly                        |309.35| -   |First Year Policies           |69.6|23.2| -   | -   | -   | -   |1|92.8
60014841|27844649|Tan La Hong                                                           |MYS|MSI1|52|SGD|0|15/02/2016|15/02/2016|15/02/2017|Yearly                        |542.06| -   |First Year Policies           |162.62|54.21| -   | -   | -   | -   |1|216.83
60014841|27844658|Tan La Hong                                                           |MSP|MP1C|52|SGD|0|15/02/2016|15/02/2016|15/02/2017|Yearly                        |358.88| -   |First Year Policies           |80.75|26.92| -   | -   | -   | -   |1|107.67
60014844|E4967003|Tay Ngiang Leng Shireen                                               |ES8|HNFW|58|SGD|2000|25/02/2016|25/02/2016|25/02/2017|Yearly                        |915.75| -   |First Year Policies           |631.87|101.1| -   | -   | -   | -   |1|732.97
60014844|6035814|Zhong Xiecheng Jason                                                  |CPW|CIAJ|33|SGD|300000|20/07/2015|20/07/2015|20/07/2016|Yearly                        |532.8| -   |First Year Policies           |306.89|92.07| -   | -   | -   | -   |1|398.96
60014844|6035814|Zhong Xiecheng Jason                                                  |CPW|ENTW|33|SGD|1000000|20/07/2015|20/07/2015|20/07/2016|Yearly                        |956.2| -   |First Year Policies           |550.77|165.23| -   | -   | -   | -   |1|716
60014844|6035814|Zhong Xiecheng Jason                                                  |CPW|TPAK|33|SGD|1000000|20/07/2015|20/07/2015|20/07/2016|Yearly                        |152| -   |First Year Policies           |87.55|26.27| -   | -   | -   | -   |1|113.82
60014844|6038394|Tan Shuyi Corin                                                       |CPW|CIAJ|32|SGD|300000|11/09/2015|11/09/2015|11/09/2016|Yearly                        |643.2| -   |First Year Policies           |370.48|111.14| -   | -   | -   | -   |1|481.62
60014844|6038394|Tan Shuyi Corin                                                       |CPW|ENTW|32|SGD|1000000|11/09/2015|11/09/2015|11/09/2016|Yearly                        |763.6| -   |First Year Policies           |439.83|131.95| -   | -   | -   | -   |1|571.78
60014844|6038394|Tan Shuyi Corin                                                       |CPW|TPAK|32|SGD|1000000|11/09/2015|11/09/2015|11/09/2016|Yearly                        |160| -   |First Year Policies           |92.16|27.65| -   | -   | -   | -   |1|119.81
60014844|6041768|Loh Kwok Kong Jason                                                   |MLD|CIAM|93|SGD|100000|23/02/2016|23/02/2016|23/02/2017|Yearly                        |277| -   |First Year Policies           |157.89| -   | -   | -   | -   | -   |1|157.89
60014844|6041768|Loh Kwok Kong Jason                                                   |MLD|HML1|93|SGD|100000|23/02/2016|23/02/2016|23/02/2017|Yearly                        |1251| -   |First Year Policies           |713.07| -   | -   | -   | -   | -   |1|713.07
60014844|6041768|Loh Kwok Kong Jason                                                   |MLD|HNMU|15|SGD|1549|23/02/2016|23/02/2016|23/02/2017|Yearly                        |42.45| -   |First Year Policies           |15.28| -   | -   | -   | -   | -   |1|15.28
60014844|6041768|Loh Kwok Kong Jason                                                   |MLD|HNM6|15|SGD|1549|23/02/2016|23/02/2016|23/02/2017|Yearly                        |32.7| -   |First Year Policies           |11.77| -   | -   | -   | -   | -   |1|11.77
60014844|6041768|Loh Kwok Kong Jason                                                   |MLD|TPM1|64|SGD|100000|23/02/2016|23/02/2016|23/02/2017|Yearly                        |21| -   |First Year Policies           |11.97| -   | -   | -   | -   | -   |1|11.97
60014844|6048084|Oh Li Chen Elizabeth                                                  |RE1|HCB6|24|SGD|1000|01/12/2015|01/12/2015|01/03/2016|Monthly                       |3072.9| -   |First Year Policies           |921.87| -   | -   | -   | -   | -   |1|921.87
60014844|25168004|Kamal bin Jupri                                                       |MSP|MP2C|90|SGD|0|01/02/2016|01/02/2016|01/04/2016|Yearly                        |24.51| -   |First Year Policies           |5.51|1.84| -   | -   | -   | -   |1|7.35
60014844|27825617|Chen Boyang                                                           |MYS|MSI1|70|SGD|0|05/02/2016|05/02/2016|05/02/2017|Yearly                        |155.92| -   |First Year Policies           |46.78|15.59| -   | -   | -   | -   |1|62.37
60014844|27825627|Chen Boyang                                                           |MSP|MP1A|70|SGD|0|05/02/2016|05/02/2016|05/02/2017|Yearly                        |101.87| -   |First Year Policies           |22.92|7.64| -   | -   | -   | -   |1|30.56
60014844|27825668|Kamal bin Jupri                                                       |MYS|MSI2|96|SGD|0|05/02/2016|05/02/2016|05/02/2017|Yearly                        |52.49| -   |First Year Policies           |15.75|5.25| -   | -   | -   | -   |1|21
60014844|27825672|Kamal bin Jupri                                                       |MSP|MP2A|96|SGD|0|05/02/2016|05/02/2016|05/02/2017|Yearly                        |32.15| -   |First Year Policies           |7.23|2.41| -   | -   | -   | -   |1|9.64
60014844|27826898|Tan Han Hui Jenson                                                    |MYS|MSI2|98|SGD|0|05/02/2016|05/02/2016|05/02/2017|Yearly                        |78.4| -   |First Year Policies           |23.52|7.84| -   | -   | -   | -   |1|31.36
60014844|27826914|Tan Han Hui Jenson                                                    |MSP|MP2C|98|SGD|0|05/02/2016|05/02/2016|05/02/2017|Yearly                        |189.72| -   |First Year Policies           |42.69|14.23| -   | -   | -   | -   |1|56.92
60014846|27851727|Ng Ging Meng                                                          |MSP|MP1C|98|SGD|0|22/02/2016|22/02/2016|22/02/2017|Yearly                        |309.35| -   |First Year Policies           |69.6|23.2| -   | -   | -   | -   |1|92.8
60014846|27856390|Ng Ging Meng                                                          |MYS|MSI1|98|SGD|0|22/02/2016|22/02/2016|22/02/2017|Yearly                        |138.66| -   |First Year Policies           |41.6|13.87| -   | -   | -   | -   |1|55.47
60014847|27874802|Ng Hui Ling Lynn                                                      |MSP|MP1C|69|SGD|0|01/03/2016|01/03/2016|01/05/2016|Yearly                        |58.88| -   |First Year Policies           |13.25|4.42| -   | -   | -   | -   |1|17.67
60014848|E4960326|Sivakumar s/o Vithalingam                                             |ES8|HNFW|53|SGD|1300|25/02/2016|25/02/2016|25/02/2017|Yearly                        |537| -   |First Year Policies           |370.53|59.28| -   | -   | -   | -   |1|429.81
60014849|E4965959|Toh Tong Nee                                                          |ES8|HNFW|54|SGD|1400|25/02/2016|25/02/2016|25/02/2017|Yearly                        |560.25| -   |First Year Policies           |386.57|61.85| -   | -   | -   | -   |1|448.42
60014849|E4965978|Low Ooi Meng Eugene                                                   |ES8|HNFW|57|SGD|1500|25/02/2016|25/02/2016|25/02/2017|Yearly                        |535| -   |First Year Policies           |369.15|59.06| -   | -   | -   | -   |1|428.21
60014849|E4965991|Chin Yin Fun                                                          |ES8|HNFW|55|SGD|1100|25/02/2016|25/02/2016|25/02/2017|Yearly                        |527.7| -   |First Year Policies           |364.11|58.26| -   | -   | -   | -   |1|422.37
60014849|E4976304|Khoo Phoi Ling                                                        |ES8|HNFW|56|SGD|1100|25/02/2016|25/02/2016|25/02/2017|Yearly                        |507| -   |First Year Policies           |349.83|55.97| -   | -   | -   | -   |1|405.8
60014849|E4976345|Soh Lay Hong                                                          |ES8|HNFW|48|SGD|900|25/02/2016|25/02/2016|25/02/2017|Yearly                        |553.7| -   |First Year Policies           |382.05|61.13| -   | -   | -   | -   |1|443.18
60014849|E4976439|Wee Kim Huat                                                          |ES8|HNFW|47|SGD|1000|25/02/2016|25/02/2016|25/02/2017|Yearly                        |510.95| -   |First Year Policies           |352.56|56.41| -   | -   | -   | -   |1|408.97
60014851|6035519|Chan Dione Yiptong                                                    |CPW|CIAJ|33|SGD|100000|27/01/2016|27/02/2016|27/03/2016|Monthly                       |17.35| -   |First Year Policies           |9.99|3| -   | -   | -   | -   |1|12.99
60014851|6035519|Chan Dione Yiptong                                                    |CPW|CIE5|33|SGD|200000|27/01/2016|27/02/2016|27/03/2016|Monthly                       |124.1| -   |First Year Policies           |78.68|23.6| -   | -   | -   | -   |1|102.28
60014851|6035519|Chan Dione Yiptong                                                    |CPW|ENTW|33|SGD|1000000|27/01/2016|27/02/2016|27/03/2016|Monthly                       |62.35| -   |First Year Policies           |35.9|10.77| -   | -   | -   | -   |1|46.67
60014851|6035519|Chan Dione Yiptong                                                    |CPW|TPAK|33|SGD|1000000|27/01/2016|27/02/2016|27/03/2016|Monthly                       |13| -   |First Year Policies           |7.48|2.24| -   | -   | -   | -   |1|9.72
60014854|27849918|Long See Yong                                                         |MYS|MSI3|33|SGD|0|22/02/2016|22/02/2016|22/02/2017|Yearly                        |651.94| -   |First Year Policies           |162.99|32.6| -   | -   | -   | -   |1|195.59
60014858|27836818|John Fernandis                                                        |MYS|MSI2|44|SGD|0|05/02/2016|05/02/2016|05/02/2017|Yearly                        |425.06| -   |First Year Policies           |127.52|42.51| -   | -   | -   | -   |1|170.03
60014858|27836822|John Fernandis                                                        |MSP|MP2C|44|SGD|0|05/02/2016|05/02/2016|05/02/2017|Yearly                        |379.44| -   |First Year Policies           |85.37|28.46| -   | -   | -   | -   |1|113.83
60014858|27841162|Jinu Joseph                                                           |MYS|MSN2|98|SGD|0|15/02/2016|15/02/2016|15/02/2017|Yearly                        |199.9| -   |First Year Policies           |59.97|19.99| -   | -   | -   | -   |1|79.96
60014858|27841171|Jinu Joseph                                                           |MYS|MSN2|72|SGD|0|15/02/2016|15/02/2016|15/02/2017|Yearly                        |271.96| -   |First Year Policies           |81.59|27.2| -   | -   | -   | -   |1|108.79
60014858|27841229|Jinu Joseph                                                           |MSP|MP2C|98|SGD|0|15/02/2016|15/02/2016|15/02/2017|Yearly                        |189.72| -   |First Year Policies           |42.69|14.23| -   | -   | -   | -   |1|56.92
60014858|27841238|Jinu Joseph                                                           |MSP|MP2C|72|SGD|0|15/02/2016|15/02/2016|15/02/2017|Yearly                        |222.44| -   |First Year Policies           |50.05|16.68| -   | -   | -   | -   |1|66.73
60014858|27860504|Mohammad Haroon Rafiq Sindhu                                          |MYS|MSI1|98|SGD|0|22/02/2016|22/02/2016|22/02/2017|Yearly                        |138.66| -   |First Year Policies           |41.6|13.87| -   | -   | -   | -   |1|55.47
60014860|E4787227|Chua Hang Piau                                                        |ES8|HNFW|42|SGD|1200|04/11/2015|04/11/2015|04/11/2016|Yearly                        |815.25| -   |First Year Policies           |562.52|90| -   | -   | -   | -   |1|652.52
60014860|6041104|Rathinasamy Rajesh                                                    |CE1|CEP2|21|SGD|70000|11/02/2016|11/02/2016|11/02/2017|Yearly                        |6475| -   |First Year Policies           |2428.13| -   | -   | -   | -   | -   |1|2428.13
60014860|6041104|Rathinasamy Rajesh                                                    |CE1|HNMV|10|SGD|6475|11/02/2016|11/02/2016|11/02/2017|Yearly                        |110.75| -   |First Year Policies           |39.87| -   | -   | -   | -   | -   |1|39.87
60014860|6041104|Rathinasamy Rajesh                                                    |CE1|HNRS|10|SGD|6475|11/02/2016|11/02/2016|11/02/2017|Yearly                        |101.7| -   |First Year Policies           |36.61| -   | -   | -   | -   | -   |1|36.61
60014860|6044444|Ho Hoon How                                                           |MLD|CIAM|98|SGD|100000|22/02/2016|22/02/2016|22/02/2017|Yearly                        |296| -   |First Year Policies           |168.72| -   | -   | -   | -   | -   |1|168.72
60014860|6044444|Ho Hoon How                                                           |MLD|HML1|98|SGD|100000|22/02/2016|22/02/2016|22/02/2017|Yearly                        |1223| -   |First Year Policies           |697.11| -   | -   | -   | -   | -   |1|697.11
60014860|6044444|Ho Hoon How                                                           |MLD|HNMU|15|SGD|1542|22/02/2016|22/02/2016|22/02/2017|Yearly                        |31| -   |First Year Policies           |11.16| -   | -   | -   | -   | -   |1|11.16
60014860|6044444|Ho Hoon How                                                           |MLD|HNM6|15|SGD|1542|22/02/2016|22/02/2016|22/02/2017|Yearly                        |26.85| -   |First Year Policies           |9.67| -   | -   | -   | -   | -   |1|9.67
60014860|6044444|Ho Hoon How                                                           |MLD|TPM1|69|SGD|100000|22/02/2016|22/02/2016|22/02/2017|Yearly                        |23| -   |First Year Policies           |13.11| -   | -   | -   | -   | -   |1|13.11
60014861|27825556|Mohamed Hyder bin Mohamed Hussain                                     |MSP|MP2C|98|SGD|0|05/02/2016|05/02/2016|05/02/2017|Yearly                        |119.62| -   |First Year Policies           |26.91|8.97| -   | -   | -   | -   |1|35.88
60014861|27857239|Lim Jeandie Palco                                                     |MSP|MP1C|57|SGD|0|01/03/2016|01/03/2016|01/03/2017|Yearly                        |358.88| -   |First Year Policies           |80.75|26.92| -   | -   | -   | -   |1|107.67
60014861|27857328|Lim Jeandie Palco                                                     |MSP|MP1C|54|SGD|0|01/03/2016|01/03/2016|01/03/2017|Yearly                        |358.88| -   |First Year Policies           |80.75|26.92| -   | -   | -   | -   |1|107.67
60014861|27857332|Lim Jeandie Palco                                                     |MSP|MP2C|83|SGD|0|01/03/2016|01/03/2016|01/03/2017|Yearly                        |149.53| -   |First Year Policies           |33.64|11.21| -   | -   | -   | -   |1|44.85
60014861|27857341|Lim Jeandie Palco                                                     |MSP|MP2C|89|SGD|0|01/03/2016|01/03/2016|01/03/2017|Yearly                        |149.53| -   |First Year Policies           |33.64|11.21| -   | -   | -   | -   |1|44.85
60014861|27857350|Lim Jeandie Palco                                                     |MSP|MP2C|93|SGD|0|01/03/2016|01/03/2016|01/03/2017|Yearly                        |149.53| -   |First Year Policies           |33.64|11.21| -   | -   | -   | -   |1|44.85
60014864|E4959209|Haslinda bte Abd Hamid                                                |ES8|HNFW|57|SGD|1200|12/01/2016|12/01/2016|12/01/2017|Yearly                        |539.45| -   |First Year Policies           |372.22|59.56| -   | -   | -   | -   |1|431.78
60014864|6037310|Ong Shu Zhen                                                          |CPW|CIAJ|38|SGD|280000|11/02/2016|11/02/2016|11/03/2016|Monthly                       |37.3| -   |First Year Policies           |21.48|6.44| -   | -   | -   | -   |1|27.92
60014864|6037310|Ong Shu Zhen                                                          |CPW|CIE5|38|SGD|70000|11/02/2016|11/02/2016|11/03/2016|Monthly                       |33.9| -   |First Year Policies           |21.49|6.45| -   | -   | -   | -   |1|27.94
60014864|6037310|Ong Shu Zhen                                                          |CPW|ENTW|38|SGD|1000000|11/02/2016|11/02/2016|11/03/2016|Monthly                       |52.7| -   |First Year Policies           |30.34|9.1| -   | -   | -   | -   |1|39.44
60014864|6037310|Ong Shu Zhen                                                          |CPW|TPAK|38|SGD|1000000|11/02/2016|11/02/2016|11/03/2016|Monthly                       |10.25| -   |First Year Policies           |5.9|1.77| -   | -   | -   | -   |1|7.67
60014864|6038406|Ng Yui Yun                                                            |RE1|HCBL|35|SGD|1600|01/02/2016|01/02/2016|01/03/2016|Monthly                       |1003.15| -   |First Year Policies           |376.18| -   | -   | -   | -   | -   |1|376.18
60014864|27746038|Lee Hui Pheng                                                         |MYS|MSI1|59|SGD|0|29/01/2016|29/01/2016|29/01/2017|Yearly                        |259.97| -   |First Year Policies           |77.99|26| -   | -   | -   | -   |1|103.99
60014864|27746042|Lee Hui Pheng                                                         |MSP|MP1C|59|SGD|0|29/01/2016|29/01/2016|29/01/2017|Yearly                        |358.88| -   |First Year Policies           |80.75|26.92| -   | -   | -   | -   |1|107.67
60014864|27746060|Lee Hui Pheng                                                         |MSP|MP2C|94|SGD|0|22/02/2016|22/02/2016|22/02/2017|Yearly                        |149.53| -   |First Year Policies           |33.64|11.21| -   | -   | -   | -   |1|44.85
60014864|27746084|Lee Hui Pheng                                                         |MSP|MP2C|98|SGD|0|22/02/2016|22/02/2016|22/02/2017|Yearly                        |149.53| -   |First Year Policies           |33.64|11.21| -   | -   | -   | -   |1|44.85
60014864|27825565|Benjamin George Martin Davies                                         |MYS|MSI1|61|SGD|0|05/02/2016|05/02/2016|05/02/2017|Yearly                        |259.97| -   |First Year Policies           |77.99|26| -   | -   | -   | -   |1|103.99
60014864|27825579|Benjamin George Martin Davies                                         |MYS|MSI1|93|SGD|0|05/02/2016|05/02/2016|05/02/2017|Yearly                        |138.66| -   |First Year Policies           |41.6|13.87| -   | -   | -   | -   |1|55.47
60014864|27825588|Benjamin George Martin Davies                                         |MYS|MSN1|96|SGD|0|05/02/2016|05/02/2016|05/02/2017|Yearly                        |260.16| -   |First Year Policies           |78.05|26.02| -   | -   | -   | -   |1|104.07
60014864|27844706|Ong Shu Zhen                                                          |MYS|MSI1|72|SGD|0|15/02/2016|15/02/2016|15/02/2017|Yearly                        |155.92| -   |First Year Policies           |46.78|15.59| -   | -   | -   | -   |1|62.37
60014864|27844715|Ong Shu Zhen                                                          |MSP|MP1C|72|SGD|0|15/02/2016|15/02/2016|15/02/2017|Yearly                        |353.27| -   |First Year Policies           |79.49|26.5| -   | -   | -   | -   |1|105.99
60014866|27735398|Kum Paul                                                              |MSP|MP2A|94|SGD|0|01/03/2016|01/03/2016|01/10/2016|Yearly                        |23.5| -   |First Year Policies           |5.29|1.76| -   | -   | -   | -   |1|7.05
60014867|E4932658|Lim Chen Ping Justine                                                 |ES8|HNFV|55|SGD|700|25/02/2016|25/02/2016|25/02/2017|Yearly                        |502.85| -   |First Year Policies           |236.34|40.18| -   | -   | -   | -   |1|276.52
60014867|27821224|David Brindle                                                         |MYS|MSI1|34|SGD|0|20/01/2016|20/01/2016|20/01/2017|Yearly                        |1059.89| -   |First Year Policies           |317.97|105.99| -   | -   | -   | -   |1|423.96
60014867|27821237|David Brindle                                                         |MSP|MP1C|34|SGD|0|20/01/2016|20/01/2016|20/01/2017|Yearly                        |1046.73| -   |First Year Policies           |235.51|78.5| -   | -   | -   | -   |1|314.01
60014867|27823357|Foong Chee Kuen                                                       |MYS|MSI1|45|SGD|0|01/02/2016|01/02/2016|01/02/2017|Yearly                        |519.18| -   |First Year Policies           |155.75|51.92| -   | -   | -   | -   |1|207.67
60014867|27823366|Foong Chee Kuen                                                       |MSP|MP1C|45|SGD|0|01/02/2016|01/02/2016|01/02/2017|Yearly                        |317.76| -   |First Year Policies           |71.5|23.83| -   | -   | -   | -   |1|95.33
60014867|27823375|Foong Chee Kuen                                                       |MYS|MSI1|55|SGD|0|01/02/2016|01/02/2016|01/02/2017|Yearly                        |305.88| -   |First Year Policies           |91.76|30.59| -   | -   | -   | -   |1|122.35
60014867|27823389|Foong Chee Kuen                                                       |MSP|MP1C|55|SGD|0|01/02/2016|01/02/2016|01/02/2017|Yearly                        |287.1| -   |First Year Policies           |64.6|21.53| -   | -   | -   | -   |1|86.13
60014867|27823404|Foong Chee Kuen                                                       |MSP|MP2C|80|SGD|0|15/02/2016|15/02/2016|15/02/2017|Yearly                        |119.62| -   |First Year Policies           |26.91|8.97| -   | -   | -   | -   |1|35.88
60014867|27823427|Foong Chee Kuen                                                       |MSP|MP2C|86|SGD|0|15/02/2016|15/02/2016|15/02/2017|Yearly                        |149.53| -   |First Year Policies           |33.64|11.21| -   | -   | -   | -   |1|44.85
60014869|27732264|Ng Lee Geok                                                           |MYS|MSI1|52|SGD|0|02/02/2016|02/02/2016|02/02/2017|Yearly                        |542.06| -   |First Year Policies           |162.62|54.21| -   | -   | -   | -   |1|216.83
60014869|27732287|Ng Lee Geok                                                           |MSP|MP1C|52|SGD|0|02/02/2016|02/02/2016|02/02/2017|Yearly                        |358.88| -   |First Year Policies           |80.75|26.92| -   | -   | -   | -   |1|107.67
60014870|6020297|Richard William Humphries III                                         |MLE|CIAN|89|SGD|100000|26/02/2016|26/02/2016|26/03/2016|Monthly                       |31.15|10.4|First Year Policies           |23.67| -   | -   | -   | -   | -   |1|23.67
60014870|6020297|Richard William Humphries III                                         |MLE|HML2|89|SGD|100000|26/02/2016|26/02/2016|26/03/2016|Monthly                       |105.8|8.55|First Year Policies           |80.41| -   | -   | -   | -   | -   |1|80.41
60014870|6020297|Richard William Humphries III                                         |MLE|HNMU|20|SGD|1631.5|26/02/2016|26/02/2016|26/03/2016|Monthly                       |7.85| -   |First Year Policies           |2.83| -   | -   | -   | -   | -   |1|2.83
60014870|6020297|Richard William Humphries III                                         |MLE|HNM6|20|SGD|1631.5|26/02/2016|26/02/2016|26/03/2016|Monthly                       |5.95| -   |First Year Policies           |2.14| -   | -   | -   | -   | -   |1|2.14
60014870|6020297|Richard William Humphries III                                         |MLE|TPM2|60|SGD|100000|26/02/2016|26/02/2016|26/03/2016|Monthly                       |2.35|0.8|First Year Policies           |1.79| -   | -   | -   | -   | -   |1|1.79
60014871|27836854|Rasul Bee Bee bte Karat Khan                                          |MYS|MSI1|52|SGD|0|05/02/2016|05/02/2016|05/02/2017|Yearly                        |388.51| -   |First Year Policies           |116.55|38.85| -   | -   | -   | -   |1|155.4
60014871|27836864|Rasul Bee Bee bte Karat Khan                                          |MSP|MP1C|52|SGD|0|05/02/2016|05/02/2016|05/02/2017|Yearly                        |287.1| -   |First Year Policies           |64.6|21.53| -   | -   | -   | -   |1|86.13
60014871|27860578|Junainah bte Rahmat                                                   |MSP|MP1C|55|SGD|0|14/03/2016|14/03/2016|14/12/2016|Yearly                        |215.72| -   |First Year Policies           |48.54|16.18| -   | -   | -   | -   |1|64.72
60014874|E4960724|Sanisah bte Mohd                                                      |ES8|HNFW|57|SGD|1200|25/02/2016|25/02/2016|25/02/2017|Yearly                        |539.45| -   |First Year Policies           |372.22|59.56| -   | -   | -   | -   |1|431.78
60014875|E4719208|Lim Kin Leng Roy                                                      |ES8|HNFW|57|SGD|1500|25/02/2016|25/02/2016|25/02/2017|Yearly                        |535| -   |First Year Policies           |369.15|59.06| -   | -   | -   | -   |1|428.21
60014875|E4906898|Lim Siew Lee Sherlyn                                                  |ES8|HNFW|56|SGD|5000|25/02/2016|25/02/2016|25/02/2017|Yearly                        |2622.75| -   |First Year Policies           |1809.7|289.55| -   | -   | -   | -   |1|2099.25
60014878|6039617|Bhavaraju Padmaja                                                     |CPW|CIAJ|26|SGD|500000|04/02/2016|04/02/2016|04/02/2017|Yearly                        |2300| -   |First Year Policies           |1324.8|397.44| -   | -   | -   | -   |1|1722.24
60014878|6039617|Bhavaraju Padmaja                                                     |CPW|ENTW|26|SGD|1000000|04/02/2016|04/02/2016|04/02/2017|Yearly                        |1474.1| -   |First Year Policies           |849.08|254.72| -   | -   | -   | -   |1|1103.8
60014878|6039617|Bhavaraju Padmaja                                                     |CPW|TPAK|26|SGD|1000000|04/02/2016|04/02/2016|04/02/2017|Yearly                        |480| -   |First Year Policies           |276.48|82.94| -   | -   | -   | -   |1|359.42
60014878|27844662|Vedachalam Natanasabapathy                                            |MYS|MSI1|45|SGD|0|22/02/2016|22/02/2016|22/02/2017|Yearly                        |733.3| -   |First Year Policies           |219.99|73.33| -   | -   | -   | -   |1|293.32
60014878|27844671|Vedachalam Natanasabapathy                                            |MSP|MP1C|45|SGD|0|22/02/2016|22/02/2016|22/02/2017|Yearly                        |397.2| -   |First Year Policies           |89.37|29.79| -   | -   | -   | -   |1|119.16
60014878|27844680|Ong Kim Kee                                                           |MYS|MSI2|49|SGD|0|15/02/2016|15/02/2016|15/02/2017|Yearly                        |201.88| -   |First Year Policies           |60.56|20.19| -   | -   | -   | -   |1|80.75
60014878|27844694|Seek Mei Ling                                                         |MYS|MSI2|56|SGD|0|15/02/2016|15/02/2016|15/02/2017|Yearly                        |283.26| -   |First Year Policies           |84.98|28.33| -   | -   | -   | -   |1|113.31
60014879|E4967308|Nor-Sahrel bin Toha                                                   |ES8|HNFW|50|SGD|1200|25/02/2016|25/02/2016|25/02/2017|Yearly                        |557.05| -   |First Year Policies           |384.36|61.5| -   | -   | -   | -   |1|445.86
60014880|E4538096|Normala bte Sukor                                                     |ES7|HNDW|38|SGD|600|25/02/2016|25/02/2016|25/02/2017|Yearly                        |537.5| -   |First Year Policies           |370.88|59.34| -   | -   | -   | -   |1|430.22
60014880|E4679559|Rozi bte Abdul                                                        |ES7|HNDW|49|SGD|800|25/02/2016|25/02/2016|25/02/2017|Yearly                        |524.15| -   |First Year Policies           |361.66|57.87| -   | -   | -   | -   |1|419.53
60014880|6012761|Huang Yingyu                                                          |CPW|CIAJ|33|SGD|250000|29/01/2016|29/01/2016|29/02/2016|Monthly                       |46.45| -   |First Year Policies           |26.74|8.02| -   | -   | -   | -   |1|34.76
60014880|6012761|Huang Yingyu                                                          |CPW|CIE5|33|SGD|50000|29/01/2016|29/01/2016|29/02/2016|Monthly                       |50.05|16.7|First Year Policies           |31.73|9.52| -   | -   | -   | -   |1|41.25
60014880|6012761|Huang Yingyu                                                          |CPW|ENTW|33|SGD|1000000|29/01/2016|29/01/2016|29/02/2016|Monthly                       |134.9|67.45|First Year Policies           |77.67|23.3| -   | -   | -   | -   |1|100.97
60014882|E4960621|Elamaran s/o Selliah                                                  |ES8|HNFW|54|SGD|1400|25/02/2016|25/02/2016|25/02/2017|Yearly                        |560.25| -   |First Year Policies           |386.57|61.85| -   | -   | -   | -   |1|448.42
60014883|E4859483|Lim Poh Luan Patricia                                                 |ES8|HNFW|39|SGD|2000|25/02/2016|25/02/2016|25/02/2017|Yearly                        |2264.4|"1|132.20"|First Year Policies           |1562.44|249.99| -   | -   | -   | -   |1|1812.43
60014883|6041114|Gladys Doromal Gubac                                                  |RE1|HCB2|34|SGD|500|26/02/2016|26/02/2016|26/03/2016|Monthly                       |187.05| -   |First Year Policies           |105.22| -   | -   | -   | -   | -   |1|105.22
60014883|6041114|Gladys Doromal Gubac                                                  |RE1|HNMP|19|SGD|2192.5|26/02/2016|26/02/2016|26/03/2016|Monthly                       |3.3| -   |First Year Policies           |1.19| -   | -   | -   | -   | -   |1|1.19
60014883|26749804|Chin Jia Wu Ronald                                                    |MSP|MP1C|66|SGD|0|01/03/2016|01/03/2016|01/08/2016|Yearly                        |150.02| -   |First Year Policies           |33.76|11.25| -   | -   | -   | -   |1|45.01
60014883|27396184|Hazimah bte Hassim                                                    |MSP|MP2C|70|SGD|0|01/07/2015|01/07/2015|01/03/2016|Monthly                       |18.97| -   |First Year Policies           |4.27|1.42| -   | -   | -   | -   |1|5.69
60014883|27396184|Hazimah bte Hassim                                                    |MSP|MP2C|70|SGD|0|01/07/2015|01/08/2015|01/03/2016|Monthly                       |18.97| -   |First Year Policies           |4.27|1.42| -   | -   | -   | -   |1|5.69
60014883|27396184|Hazimah bte Hassim                                                    |MSP|MP2C|70|SGD|0|01/07/2015|01/09/2015|01/03/2016|Monthly                       |18.97| -   |First Year Policies           |4.27|1.42| -   | -   | -   | -   |1|5.69
60014883|27396184|Hazimah bte Hassim                                                    |MSP|MP2C|70|SGD|0|01/07/2015|01/10/2015|01/03/2016|Monthly                       |18.97| -   |First Year Policies           |4.27|1.42| -   | -   | -   | -   |1|5.69
60014883|27396184|Hazimah bte Hassim                                                    |MSP|MP2C|70|SGD|0|01/07/2015|01/11/2015|01/03/2016|Monthly                       |18.97| -   |First Year Policies           |4.27|1.42| -   | -   | -   | -   |1|5.69
60014883|27396184|Hazimah bte Hassim                                                    |MSP|MP2C|70|SGD|0|01/07/2015|01/12/2015|01/03/2016|Monthly                       |18.97| -   |First Year Policies           |4.27|1.42| -   | -   | -   | -   |1|5.69
60014883|27396184|Hazimah bte Hassim                                                    |MSP|MP2C|70|SGD|0|01/07/2015|01/01/2016|01/03/2016|Monthly                       |18.97| -   |First Year Policies           |4.27|1.42| -   | -   | -   | -   |1|5.69
60014883|27396184|Hazimah bte Hassim                                                    |MSP|MP2C|70|SGD|0|01/07/2015|01/02/2016|01/03/2016|Monthly                       |18.97| -   |First Year Policies           |4.27|1.42| -   | -   | -   | -   |1|5.69
60014884|E4869824|Lim Soon Tat                                                          |ES6|HPFU|58|SGD|1300|25/02/2016|25/02/2016|25/02/2017|Yearly                        |548.7| -   |First Year Policies           |378.6|60.58| -   | -   | -   | -   |1|439.18
60014884|E4960653|Lim Chit Chan                                                         |ES6|HPFU|58|SGD|1300|25/02/2016|25/02/2016|25/02/2017|Yearly                        |548.7| -   |First Year Policies           |378.6|60.58| -   | -   | -   | -   |1|439.18
60014884|E4960779|Chew Cher Joanna                                                      |ES6|HPFU|58|SGD|1000|25/02/2016|25/02/2016|25/02/2017|Yearly                        |524.25| -   |First Year Policies           |361.73|57.88| -   | -   | -   | -   |1|419.61
60014884|E4960789|Thong Chee Seng                                                       |ES6|HPFU|52|SGD|1000|25/02/2016|25/02/2016|25/02/2017|Yearly                        |514.8| -   |First Year Policies           |355.21|56.83| -   | -   | -   | -   |1|412.04
60014884|E4960798|Tan Lee Boon                                                          |ES6|HPFU|56|SGD|900|25/02/2016|25/02/2016|25/02/2017|Yearly                        |498.25| -   |First Year Policies           |343.79|55.01| -   | -   | -   | -   |1|398.8
60014884|E4960804|Chan Wei Kee                                                          |ES6|HPFU|58|SGD|1300|25/02/2016|25/02/2016|25/02/2017|Yearly                        |548.7| -   |First Year Policies           |378.6|60.58| -   | -   | -   | -   |1|439.18
60014884|E4960827|Chua Hock Meng                                                        |ES6|HPFU|58|SGD|1300|25/02/2016|25/02/2016|25/02/2017|Yearly                        |548.7| -   |First Year Policies           |378.6|60.58| -   | -   | -   | -   |1|439.18
60014884|E4965154|Koh Hwee Chin                                                         |ES6|HPFU|58|SGD|1000|25/02/2016|25/02/2016|25/02/2017|Yearly                        |524.25| -   |First Year Policies           |361.73|57.88| -   | -   | -   | -   |1|419.61
60014884|E4965163|Tay Pei Ying Doreen                                                   |ES6|HPFU|58|SGD|1000|25/02/2016|25/02/2016|25/02/2017|Yearly                        |524.25| -   |First Year Policies           |361.73|57.88| -   | -   | -   | -   |1|419.61
60014884|E4965177|Goh Hock Lye                                                          |ES6|HPFU|53|SGD|3000|04/02/2016|04/02/2016|04/02/2017|Yearly                        |1674.25| -   |First Year Policies           |1155.23|184.84| -   | -   | -   | -   |1|1340.07
60014884|E4965186|Tan Hui Luan                                                          |ES6|HPFU|58|SGD|3000|25/02/2016|25/02/2016|25/02/2017|Yearly                        |1766.25| -   |First Year Policies           |1218.71|194.99| -   | -   | -   | -   |1|1413.7
60014884|E4965211|Kang Yen Thiing                                                       |ES6|HPFU|58|SGD|1000|25/02/2016|25/02/2016|25/02/2017|Yearly                        |524.25| -   |First Year Policies           |361.73|57.88| -   | -   | -   | -   |1|419.61
60014884|E4965220|Ong Choon Ling                                                        |ES6|HPFU|58|SGD|1000|25/02/2016|25/02/2016|25/02/2017|Yearly                        |524.25| -   |First Year Policies           |361.73|57.88| -   | -   | -   | -   |1|419.61
60014884|E4965234|Ong Siew Nee                                                          |ES6|HPFU|58|SGD|1000|25/02/2016|25/02/2016|25/02/2017|Yearly                        |524.25| -   |First Year Policies           |361.73|57.88| -   | -   | -   | -   |1|419.61
60014884|E4970221|Muhammad bin Abu                                                      |ES6|HPFU|58|SGD|1300|25/02/2016|25/02/2016|25/02/2017|Yearly                        |548.7| -   |First Year Policies           |378.6|60.58| -   | -   | -   | -   |1|439.18
60014884|E4970244|Tan Kwee Huay                                                         |ES6|HPFU|58|SGD|1000|25/02/2016|25/02/2016|25/02/2017|Yearly                        |524.25| -   |First Year Policies           |361.73|57.88| -   | -   | -   | -   |1|419.61
60014884|E4970253|Lee Sze Chin                                                          |ES6|HPFU|58|SGD|1300|25/02/2016|25/02/2016|25/02/2017|Yearly                        |548.7| -   |First Year Policies           |378.6|60.58| -   | -   | -   | -   |1|439.18
60014884|E4970285|Tan Chee Keong                                                        |ES6|HPFU|58|SGD|1300|25/02/2016|25/02/2016|25/02/2017|Yearly                        |548.7| -   |First Year Policies           |378.6|60.58| -   | -   | -   | -   |1|439.18
60014884|E4971522|Lui Su Yen Ann                                                        |ES6|HPFU|58|SGD|1000|25/02/2016|25/02/2016|25/02/2017|Yearly                        |524.25| -   |First Year Policies           |361.73|57.88| -   | -   | -   | -   |1|419.61
60014884|E4971531|Low Wah Lay                                                           |ES6|HPFU|58|SGD|1000|25/02/2016|25/02/2016|25/02/2017|Yearly                        |524.25| -   |First Year Policies           |361.73|57.88| -   | -   | -   | -   |1|419.61
60014884|E4971540|Phua Kia Jong Alvin                                                   |ES6|HPFU|58|SGD|1300|25/02/2016|25/02/2016|25/02/2017|Yearly                        |548.7| -   |First Year Policies           |378.6|60.58| -   | -   | -   | -   |1|439.18
60014884|E4971554|Mohammad Haikal bin Zainal Abidin                                     |ES6|HPFU|58|SGD|1300|25/02/2016|25/02/2016|25/02/2017|Yearly                        |548.7| -   |First Year Policies           |378.6|60.58| -   | -   | -   | -   |1|439.18
60014884|E4971563|Tan Check Seng                                                        |ES6|HPFU|58|SGD|1300|25/02/2016|25/02/2016|25/02/2017|Yearly                        |548.7| -   |First Year Policies           |378.6|60.58| -   | -   | -   | -   |1|439.18
60014884|27849897|Muhammad bin Abu                                                      |MYS|MSI2|58|SGD|0|22/02/2016|22/02/2016|22/02/2017|Yearly                        |283.26| -   |First Year Policies           |84.98|28.33| -   | -   | -   | -   |1|113.31
60014884|27849909|Muhammad bin Abu                                                      |MYS|MSI2|92|SGD|0|22/02/2016|22/02/2016|22/02/2017|Yearly                        |78.4| -   |First Year Policies           |23.52|7.84| -   | -   | -   | -   |1|31.36
60014885|6033807|Tioh Sze Bing Esther                                                  |CPE|ENTF|24|SGD|300000|24/02/2016|24/02/2016|24/02/2017|Yearly                        |366| -   |First Year Policies           |201.3|60.39| -   | -   | -   | -   |1|261.69
60014885|6033807|Tioh Sze Bing Esther                                                  |CPE|TPAD|24|SGD|300000|24/02/2016|24/02/2016|24/02/2017|Yearly                        |69| -   |First Year Policies           |13.8|11.04| -   | -   | -   | -   |1|24.84
60014885|6038349|Lim Kang-Ming                                                         |RE1|HCB7|23|SGD|950|01/02/2016|01/02/2016|01/02/2017|Yearly                        |11834.15| -   |First Year Policies           |3550.25| -   | -   | -   | -   | -   |1|3550.25
60014885|6038371|Lim Kang-Ming                                                         |RE1|HCB1|31|SGD|450|03/02/2016|03/02/2016|03/02/2017|Yearly                        |2427.3| -   |First Year Policies           |1365.36| -   | -   | -   | -   | -   |1|1365.36
60014885|6046952|Lim Kang-Ling                                                         |MB6|HCC2|15|SGD|54000|22/02/2016|22/02/2016|22/02/2017|Yearly                        |4962.6| -   |First Year Policies           |1846.09| -   | -   | -   | -   | -   |1|1846.09
60014885|6046952|Lim Kang-Ling                                                         |MB6|HNRQ|15|SGD|25000|22/02/2016|22/02/2016|22/02/2017|Yearly                        |137.75| -   |First Year Policies           |49.59| -   | -   | -   | -   | -   |1|49.59
60014885|6046952|Lim Kang-Ling                                                         |MB6|HNRY|10|SGD|5100.35|22/02/2016|22/02/2016|22/02/2017|Yearly                        |118.35| -   |First Year Policies           |42.61| -   | -   | -   | -   | -   |1|42.61
60014885|6046961|Lim Kang-Ling                                                         |MB6|HCC2|15|SGD|54000|22/02/2016|22/02/2016|22/02/2017|Yearly                        |4962.6| -   |First Year Policies           |1846.09| -   | -   | -   | -   | -   |1|1846.09
60014885|6046961|Lim Kang-Ling                                                         |MB6|HNRQ|15|SGD|25000|22/02/2016|22/02/2016|22/02/2017|Yearly                        |137.75| -   |First Year Policies           |49.59| -   | -   | -   | -   | -   |1|49.59
60014885|6046961|Lim Kang-Ling                                                         |MB6|HNRY|10|SGD|5100.35|22/02/2016|22/02/2016|22/02/2017|Yearly                        |118.35| -   |First Year Policies           |42.61| -   | -   | -   | -   | -   |1|42.61
60014885|27757734|Aw Sze Min                                                            |MSP|MP1C|72|SGD|0|01/03/2016|01/03/2016|01/06/2016|Yearly                        |88.8| -   |First Year Policies           |19.98|6.66| -   | -   | -   | -   |1|26.64
60014885|27837824|Lim Kang-Ming                                                         |MYS|MSN1|70|SGD|0|15/02/2016|15/02/2016|15/02/2017|Yearly                        |338.16| -   |First Year Policies           |101.45|33.82| -   | -   | -   | -   |1|135.27
60014885|27837847|Lim Kang-Ming                                                         |MSP|MP1C|70|SGD|0|15/02/2016|15/02/2016|15/02/2017|Yearly                        |353.27| -   |First Year Policies           |79.49|26.5| -   | -   | -   | -   |1|105.99
60014887|E4970276|Ye Jun                                                                |ES8|HNFW|57|SGD|1500|17/01/2016|17/01/2016|17/01/2017|Yearly                        |535| -   |First Year Policies           |369.15|59.06| -   | -   | -   | -   |1|428.21
60014887|27825592|Seah Shiu Hoong                                                       |MYS|MSI1|98|SGD|0|05/02/2016|05/02/2016|05/02/2017|Yearly                        |138.66| -   |First Year Policies           |41.6|13.87| -   | -   | -   | -   |1|55.47
60014887|27825604|Seah Shiu Hoong                                                       |MSP|MP1C|98|SGD|0|05/02/2016|05/02/2016|05/02/2017|Yearly                        |309.35| -   |First Year Policies           |69.6|23.2| -   | -   | -   | -   |1|92.8
60014891|E4966034|Norhayati bte Abu                                                     |ES8|HNFW|55|SGD|1100|25/02/2016|25/02/2016|25/02/2017|Yearly                        |527.7| -   |First Year Policies           |364.11|58.26| -   | -   | -   | -   |1|422.37
60014891|E4966075|Roskhan bin Ridai                                                     |ES8|HNFW|50|SGD|1200|01/02/2016|01/02/2016|01/02/2017|Yearly                        |557.05| -   |First Year Policies           |384.36|61.5| -   | -   | -   | -   |1|445.86
60014891|27837814|Roskhan bin Ridai                                                     |MYS|MSI1|50|SGD|0|15/02/2016|15/02/2016|15/02/2017|Yearly                        |542.06| -   |First Year Policies           |162.62|54.21| -   | -   | -   | -   |1|216.83
60014893|6016837|Lim Kek Khoo                                                          |MLF|CIAO|85|SGD|200000|18/02/2016|18/02/2016|18/02/2017|Yearly                        |530| -   |First Year Policies           |503.5| -   | -   | -   | -   | -   |1|503.5
60014893|6016837|Lim Kek Khoo                                                          |MLF|HML3|85|SGD|200000|18/02/2016|18/02/2016|18/02/2017|Yearly                        |2208| -   |First Year Policies           |2097.6| -   | -   | -   | -   | -   |1|2097.6
60014893|6016837|Lim Kek Khoo                                                          |MLF|HNMU|25|SGD|2776|18/02/2016|18/02/2016|18/02/2017|Yearly                        |240.7| -   |First Year Policies           |86.65| -   | -   | -   | -   | -   |1|86.65
60014893|6016837|Lim Kek Khoo                                                          |MLF|HNM6|25|SGD|2776|18/02/2016|18/02/2016|18/02/2017|Yearly                        |194.05| -   |First Year Policies           |69.86| -   | -   | -   | -   | -   |1|69.86
60014893|6016837|Lim Kek Khoo                                                          |MLF|TPM3|56|SGD|200000|18/02/2016|18/02/2016|18/02/2017|Yearly                        |38| -   |First Year Policies           |36.1| -   | -   | -   | -   | -   |1|36.1
60014893|6016847|Lim Kek Khoo                                                          |MLF|CIAO|82|SGD|200000|27/12/2015|27/12/2015|27/12/2016|Yearly                        |606| -   |First Year Policies           |575.7| -   | -   | -   | -   | -   |1|575.7
60014893|6016847|Lim Kek Khoo                                                          |MLF|HML3|82|SGD|200000|27/12/2015|27/12/2015|27/12/2016|Yearly                        |2386| -   |First Year Policies           |2266.7| -   | -   | -   | -   | -   |1|2266.7
60014893|6016847|Lim Kek Khoo                                                          |MLF|HNMU|25|SGD|3034|27/12/2015|27/12/2015|27/12/2016|Yearly                        |263.05| -   |First Year Policies           |94.7| -   | -   | -   | -   | -   |1|94.7
60014893|6016847|Lim Kek Khoo                                                          |MLF|HNM6|25|SGD|3034|27/12/2015|27/12/2015|27/12/2016|Yearly                        |212.1| -   |First Year Policies           |76.36| -   | -   | -   | -   | -   |1|76.36
60014893|6016847|Lim Kek Khoo                                                          |MLF|TPM3|53|SGD|200000|27/12/2015|27/12/2015|27/12/2016|Yearly                        |42| -   |First Year Policies           |39.9| -   | -   | -   | -   | -   |1|39.9
60014900|5977074|Wang Li Kuan                                                          |MLF|CIAO|96|SGD|50000|11/02/2016|11/02/2016|11/02/2017|Yearly                        |166.5|55.5|First Year Policies           |158.18| -   | -   | -   | -   | -   |1|158.18
60014900|5977074|Wang Li Kuan                                                          |MLF|HML3|96|SGD|50000|11/02/2016|11/02/2016|11/02/2017|Yearly                        |553.5| -   |First Year Policies           |525.83| -   | -   | -   | -   | -   |1|525.83
60014900|5977074|Wang Li Kuan                                                          |MLF|HNMU|25|SGD|735|11/02/2016|11/02/2016|11/02/2017|Yearly                        |27.35| -   |First Year Policies           |9.85| -   | -   | -   | -   | -   |1|9.85
60014900|5977074|Wang Li Kuan                                                          |MLF|HNM6|25|SGD|735|11/02/2016|11/02/2016|11/02/2017|Yearly                        |23.55| -   |First Year Policies           |8.48| -   | -   | -   | -   | -   |1|8.48
60014900|5977074|Wang Li Kuan                                                          |MLF|TPM3|67|SGD|50000|11/02/2016|11/02/2016|11/02/2017|Yearly                        |15|5|First Year Policies           |14.25| -   | -   | -   | -   | -   |1|14.25
60014900|6031680|Aninon Craig Mosquida                                                 |CPW|CIAJ|32|SGD|200000|19/02/2016|19/02/2016|19/03/2016|Monthly                       |32.9| -   |First Year Policies           |18.94|5.68| -   | -   | -   | -   |1|24.62
60014900|6031680|Aninon Craig Mosquida                                                 |CPW|CIE5|32|SGD|50000|19/02/2016|19/02/2016|19/03/2016|Monthly                       |27.75| -   |First Year Policies           |17.59|5.28| -   | -   | -   | -   |1|22.87
60014900|6031680|Aninon Craig Mosquida                                                 |CPW|ENTW|32|SGD|1000000|19/02/2016|19/02/2016|19/03/2016|Monthly                       |85.55| -   |First Year Policies           |49.26|14.78| -   | -   | -   | -   |1|64.04
60014900|6031680|Aninon Craig Mosquida                                                 |CPW|TPAK|32|SGD|1000000|19/02/2016|19/02/2016|19/03/2016|Monthly                       |13.65| -   |First Year Policies           |7.86|2.36| -   | -   | -   | -   |1|10.22
60014900|6037301|Aurelie Pelissier                                                     |CPW|CIAJ|26|SGD|200000|23/02/2016|23/02/2016|23/03/2016|Monthly                       |36.6| -   |First Year Policies           |21.07|6.32| -   | -   | -   | -   |1|27.39
60014900|6037301|Aurelie Pelissier                                                     |CPW|ENTW|26|SGD|1000000|23/02/2016|23/02/2016|23/03/2016|Monthly                       |58.35| -   |First Year Policies           |33.6|10.08| -   | -   | -   | -   |1|43.68
60014900|6037301|Aurelie Pelissier                                                     |CPW|TPAK|26|SGD|1000000|23/02/2016|23/02/2016|23/03/2016|Monthly                       |9.6| -   |First Year Policies           |5.53|1.66| -   | -   | -   | -   |1|7.19
60014900|6041075|Lacroute Sylvain                                                      |CPW|CIAJ|27|SGD|200000|19/02/2016|19/02/2016|19/03/2016|Monthly                       |27.05| -   |First Year Policies           |15.57|4.67| -   | -   | -   | -   |1|20.24
60014900|6041075|Lacroute Sylvain                                                      |CPW|ENTW|27|SGD|1000000|19/02/2016|19/02/2016|19/03/2016|Monthly                       |70.8| -   |First Year Policies           |40.76|12.23| -   | -   | -   | -   |1|52.99
60014900|6041075|Lacroute Sylvain                                                      |CPW|TPAK|27|SGD|1000000|19/02/2016|19/02/2016|19/03/2016|Monthly                       |9.6| -   |First Year Policies           |5.53|1.66| -   | -   | -   | -   |1|7.19
60014900|27870534|Tan Mui Choo                                                          |MSP|MP1C|54|SGD|0|01/03/2016|01/03/2016|01/01/2017|Yearly                        |300.05| -   |First Year Policies           |67.51|22.5| -   | -   | -   | -   |1|90.01
60014900|27870576|Tan Mui Choo                                                          |MSP|MP1C|54|SGD|0|01/03/2016|01/03/2016|01/01/2017|Yearly                        |300.05| -   |First Year Policies           |67.51|22.5| -   | -   | -   | -   |1|90.01
60014900|27874820|Lim Ee Ling                                                           |MSP|MP1C|49|SGD|0|01/03/2016|01/03/2016|01/04/2016|Yearly                        |30.4| -   |First Year Policies           |6.84|2.28| -   | -   | -   | -   |1|9.12
60014901|E4931849|Soh Chee Wee                                                          |ES8|HNFW|58|SGD|1600|25/02/2016|25/02/2016|25/02/2017|Yearly                        |551.3| -   |First Year Policies           |380.4|60.86| -   | -   | -   | -   |1|441.26
60014901|6038380|Khoo Min En Rebecca                                                   |MLD|CIAM|76|SGD|100000|30/01/2016|30/01/2016|30/01/2017|Yearly                        |535| -   |First Year Policies           |304.95| -   | -   | -   | -   | -   |1|304.95
60014901|6038380|Khoo Min En Rebecca                                                   |MLD|HML1|76|SGD|100000|30/01/2016|30/01/2016|30/01/2017|Yearly                        |1916| -   |First Year Policies           |1092.12| -   | -   | -   | -   | -   |1|1092.12
60014901|6038380|Khoo Min En Rebecca                                                   |MLD|TPM1|47|SGD|100000|30/01/2016|30/01/2016|30/01/2017|Yearly                        |33| -   |First Year Policies           |18.81| -   | -   | -   | -   | -   |1|18.81
60014901|27823324|Tan Mui Lang                                                          |MYS|MSI2|47|SGD|0|01/02/2016|01/02/2016|01/02/2017|Yearly                        |425.06| -   |First Year Policies           |127.52|42.51| -   | -   | -   | -   |1|170.03
60014901|27837776|Tan Mui Lang                                                          |MYS|MSI1|75|SGD|0|15/02/2016|15/02/2016|15/02/2017|Yearly                        |155.92| -   |First Year Policies           |46.78|15.59| -   | -   | -   | -   |1|62.37
60014902|6032631|Chen Ziqian                                                           |CPW|CIAJ|40|SGD|300000|26/01/2016|26/02/2016|26/03/2016|Monthly                       |35.45| -   |First Year Policies           |20.41|6.12| -   | -   | -   | -   |1|26.53
60014902|6032631|Chen Ziqian                                                           |CPW|CIE5|40|SGD|100000|26/01/2016|26/02/2016|26/03/2016|Monthly                       |42.8| -   |First Year Policies           |27.13|8.14| -   | -   | -   | -   |1|35.27
60014902|6032631|Chen Ziqian                                                           |CPW|ENTW|40|SGD|1000000|26/01/2016|26/02/2016|26/03/2016|Monthly                       |48.75| -   |First Year Policies           |28.07|8.42| -   | -   | -   | -   |1|36.49
60014902|6032631|Chen Ziqian                                                           |CPW|TPAK|40|SGD|1000000|26/01/2016|26/02/2016|26/03/2016|Monthly                       |8.2| -   |First Year Policies           |4.72|1.42| -   | -   | -   | -   |1|6.14
60014902|6047229|Toh Jiawei                                                            |CPW|CIE5|30|SGD|50000|25/02/2016|25/02/2016|25/03/2016|Monthly                       |28.9| -   |First Year Policies           |18.32|5.5| -   | -   | -   | -   |1|23.82
60014902|6047229|Toh Jiawei                                                            |CPW|ENTW|30|SGD|1000000|25/02/2016|25/02/2016|25/03/2016|Monthly                       |90.1| -   |First Year Policies           |51.88|15.56| -   | -   | -   | -   |1|67.44
60014902|6047229|Toh Jiawei                                                            |CPW|HNMQ|30|SGD|1199.76|25/02/2016|25/02/2016|25/03/2016|Monthly                       |4.1| -   |First Year Policies           |0.82|0.66| -   | -   | -   | -   |1|1.48
60014902|6047229|Toh Jiawei                                                            |CPW|TPAK|30|SGD|1000000|25/02/2016|25/02/2016|25/03/2016|Monthly                       |12.3| -   |First Year Policies           |7.08|2.12| -   | -   | -   | -   |1|9.2
60014902|6048664|Tay Toh Learn                                                         |MLE|CIAN|94|SGD|100000|26/02/2016|26/02/2016|26/02/2017|Yearly                        |227| -   |First Year Policies           |172.52| -   | -   | -   | -   | -   |1|172.52
60014902|6048664|Tay Toh Learn                                                         |MLE|HML2|94|SGD|100000|26/02/2016|26/02/2016|26/02/2017|Yearly                        |1021| -   |First Year Policies           |775.96| -   | -   | -   | -   | -   |1|775.96
60014902|6048664|Tay Toh Learn                                                         |MLE|HNMU|20|SGD|1265|26/02/2016|26/02/2016|26/02/2017|Yearly                        |23.95| -   |First Year Policies           |8.62| -   | -   | -   | -   | -   |1|8.62
60014902|6048664|Tay Toh Learn                                                         |MLE|HNM6|20|SGD|1265|26/02/2016|26/02/2016|26/02/2017|Yearly                        |22.9| -   |First Year Policies           |8.24| -   | -   | -   | -   | -   |1|8.24
60014902|6048664|Tay Toh Learn                                                         |MLE|TPM2|65|SGD|100000|26/02/2016|26/02/2016|26/02/2017|Yearly                        |17| -   |First Year Policies           |12.92| -   | -   | -   | -   | -   |1|12.92
60014902|27818744|See Ming Shun                                                         |MYS|MSI2|70|SGD|0|01/02/2016|01/02/2016|01/02/2017|Yearly                        |89.72| -   |First Year Policies           |26.92|8.97| -   | -   | -   | -   |1|35.89
60014902|27818754|See Ming Shun                                                         |MSP|MP2C|70|SGD|0|01/02/2016|01/02/2016|01/02/2017|Yearly                        |222.44| -   |First Year Policies           |50.05|16.68| -   | -   | -   | -   |1|66.73
60014904|E4974508|Aw Eng San                                                            |ES8|HNFW|48|SGD|1100|25/02/2016|25/02/2016|25/02/2017|Yearly                        |548.85| -   |First Year Policies           |378.71|60.59| -   | -   | -   | -   |1|439.3
60014904|6035827|Lin Shimin                                                            |CPW|CIAJ|30|SGD|1000000|23/02/2016|23/02/2016|23/03/2016|Monthly                       |186.3| -   |First Year Policies           |107.27|32.18| -   | -   | -   | -   |1|139.45
60014904|6035827|Lin Shimin                                                            |CPW|ENTW|30|SGD|1000000|23/02/2016|23/02/2016|23/03/2016|Monthly                       |90.1| -   |First Year Policies           |51.88|15.56| -   | -   | -   | -   |1|67.44
60014904|6035827|Lin Shimin                                                            |CPW|TPAK|30|SGD|1000000|23/02/2016|23/02/2016|23/03/2016|Monthly                       |12.3| -   |First Year Policies           |7.08|2.12| -   | -   | -   | -   |1|9.2
60014904|27826889|Lin Shimin                                                            |MYS|MSI2|97|SGD|0|05/02/2016|05/02/2016|05/02/2017|Yearly                        |78.4| -   |First Year Policies           |23.52|7.84| -   | -   | -   | -   |1|31.36
60014904|27826904|Lin Shimin                                                            |MSP|MP2C|97|SGD|0|05/02/2016|05/02/2016|05/02/2017|Yearly                        |189.72| -   |First Year Policies           |42.69|14.23| -   | -   | -   | -   |1|56.92
60014906|E4959569|Chia Micheal                                                          |ES8|HNFW|58|SGD|1600|25/02/2016|25/02/2016|25/02/2017|Yearly                        |551.3| -   |First Year Policies           |380.4|60.86| -   | -   | -   | -   |1|441.26
60014906|P0049081|Sng Ping Wei                                                          |LF1|UNVA|69|SGD|0|18/02/2016|18/02/2016|18/03/2016|Monthly                       |100| -   |First Year Policies           |75| -   | -   | -   | -   | -   |1|75
60014906|27830319|Madala Hanumantharao                                                  |MYS|MSI1|62|SGD|0|05/02/2016|05/02/2016|05/02/2017|Yearly                        |259.97| -   |First Year Policies           |77.99|26| -   | -   | -   | -   |1|103.99
60014906|27830328|Madala Hanumantharao                                                  |MYS|MSI1|68|SGD|0|05/02/2016|05/02/2016|05/02/2017|Yearly                        |259.97| -   |First Year Policies           |77.99|26| -   | -   | -   | -   |1|103.99
60014907|6023649|Lau Kim Yun                                                           |CPW|CIE5|21|SGD|200000|05/11/2015|05/11/2015|05/11/2016|Yearly                        |1779.2| -   |First Year Policies           |978.56|293.57| -   | -   | -   | -   |1|1272.13
60014907|6023649|Lau Kim Yun                                                           |CPW|ENTW|60|SGD|1000000|05/11/2015|05/11/2015|05/11/2016|Yearly                        |4050.4| -   |First Year Policies           |2333.03|699.91| -   | -   | -   | -   |1|3032.94
60014907|6023649|Lau Kim Yun                                                           |CPW|HNMQ|60|SGD|4050.4|05/11/2015|05/11/2015|05/11/2016|Yearly                        |670.35| -   |First Year Policies           |134.07|107.26| -   | -   | -   | -   |1|241.33
60014907|6023658|Lau Kim Yun                                                           |RE1|HCB7|31|SGD|1000|05/11/2015|05/11/2015|05/11/2016|Yearly                        |9874| -   |First Year Policies           |2962.2| -   | -   | -   | -   | -   |1|2962.2
60014907|6041066|Terence Edward Sale                                                   |CPW|CIAJ|27|SGD|800000|16/02/2016|16/02/2016|16/02/2017|Yearly                        |5100.8| -   |First Year Policies           |2938.06|881.42| -   | -   | -   | -   |1|3819.48
60014907|6041066|Terence Edward Sale                                                   |CPW|ENTW|27|SGD|1200000|16/02/2016|16/02/2016|16/02/2017|Yearly                        |4669.25| -   |First Year Policies           |2689.49|806.85| -   | -   | -   | -   |1|3496.34
60014907|6041066|Terence Edward Sale                                                   |CPW|TPAK|22|SGD|1200000|16/02/2016|16/02/2016|16/02/2017|Yearly                        |720| -   |First Year Policies           |387.36|116.21| -   | -   | -   | -   |1|503.57
60014907|6048801|Sim Yen Leng                                                          |RE1|HCB3|30|SGD|1000|27/02/2016|27/02/2016|27/03/2016|Monthly                       |490.05| -   |First Year Policies           |275.65| -   | -   | -   | -   | -   |1|275.65
60014907|27844729|Tjandra Juvanus                                                       |MYS|MSN1|94|SGD|0|22/02/2016|22/02/2016|22/02/2017|Yearly                        |260.16| -   |First Year Policies           |78.05|26.02| -   | -   | -   | -   |1|104.07
60014907|27844738|Tjandra Juvanus                                                       |MSP|MP1C|94|SGD|0|22/02/2016|22/02/2016|22/02/2017|Yearly                        |309.35| -   |First Year Policies           |69.6|23.2| -   | -   | -   | -   |1|92.8
60014907|27844742|Tjandra Juvanus                                                       |MYS|MSN1|97|SGD|0|15/02/2016|15/02/2016|15/02/2017|Yearly                        |260.16| -   |First Year Policies           |78.05|26.02| -   | -   | -   | -   |1|104.07
60014907|27844751|Tjandra Juvanus                                                       |MSP|MP1C|97|SGD|0|15/02/2016|15/02/2016|15/02/2017|Yearly                        |309.35| -   |First Year Policies           |69.6|23.2| -   | -   | -   | -   |1|92.8
60014907|27857261|Mok Kher Shin                                                         |MSP|MP2C|58|SGD|0|01/03/2016|01/03/2016|01/10/2016|Yearly                        |137.16| -   |First Year Policies           |30.86|10.29| -   | -   | -   | -   |1|41.15
60014907|27857270|Mok Kher Shin                                                         |MSP|MP2C|32|SGD|0|01/03/2016|01/03/2016|01/08/2016|Yearly                        |525.47| -   |First Year Policies           |118.23|39.41| -   | -   | -   | -   |1|157.64
60014907|27857284|Mok Kher Shin                                                         |MSP|MP2C|26|SGD|0|01/03/2016|01/03/2016|01/02/2017|Yearly                        |1290.8| -   |First Year Policies           |290.43|96.81| -   | -   | -   | -   |1|387.24
60014908|27836877|Soon Yeow Teen                                                        |MYS|MSI2|40|SGD|0|05/02/2016|05/02/2016|05/02/2017|Yearly                        |448.32| -   |First Year Policies           |134.5|44.83| -   | -   | -   | -   |1|179.33
60014908|27836887|Soon Yeow Teen                                                        |MSP|MP2C|40|SGD|0|05/02/2016|05/02/2016|05/02/2017|Yearly                        |486.92| -   |First Year Policies           |109.56|36.52| -   | -   | -   | -   |1|146.08
60014909|E4960747|Cheong Kok Ann                                                        |ES7|HNDW|49|SGD|1000|25/02/2016|25/02/2016|25/02/2017|Yearly                        |521.95| -   |First Year Policies           |360.15|57.62| -   | -   | -   | -   |1|417.77
60014910|E4965257|To Hong Ling                                                          |ES8|HNFW|58|SGD|1600|25/02/2016|25/02/2016|25/02/2017|Yearly                        |551.3| -   |First Year Policies           |380.4|60.86| -   | -   | -   | -   |1|441.26
60014910|27836896|Eng Chee Pau                                                          |MYS|MSI1|63|SGD|0|05/02/2016|05/02/2016|05/02/2017|Yearly                        |259.97| -   |First Year Policies           |77.99|26| -   | -   | -   | -   |1|103.99
60014910|27836902|Eng Chee Pau                                                          |MSP|MP1C|63|SGD|0|05/02/2016|05/02/2016|05/02/2017|Yearly                        |358.88| -   |First Year Policies           |80.75|26.92| -   | -   | -   | -   |1|107.67
60014910|27836920|Eng Chee Pau                                                          |MSP|MP2C|96|SGD|0|22/02/2016|22/02/2016|22/02/2017|Yearly                        |149.53| -   |First Year Policies           |33.64|11.21| -   | -   | -   | -   |1|44.85
60014912|E4972107|Wong Lim Lim                                                          |ES8|HNFW|54|SGD|1100|25/02/2016|25/02/2016|25/02/2017|Yearly                        |549.55| -   |First Year Policies           |379.19|60.67| -   | -   | -   | -   |1|439.86
60014912|27761260|Neo Wan Long                                                          |MYS|MSI2|41|SGD|0|15/02/2016|15/02/2016|15/02/2017|Yearly                        |448.32| -   |First Year Policies           |134.5|44.83| -   | -   | -   | -   |1|179.33
60014913|E4960685|Goh Joo Kwang                                                         |ES8|HNFW|54|SGD|1400|25/02/2016|25/02/2016|25/02/2017|Yearly                        |560.25| -   |First Year Policies           |386.57|61.85| -   | -   | -   | -   |1|448.42
60014913|E4960701|Abdul Aziz bin Hamid                                                  |ES8|HNFW|49|SGD|1100|25/02/2016|25/02/2016|25/02/2017|Yearly                        |524.8| -   |First Year Policies           |362.11|57.94| -   | -   | -   | -   |1|420.05
60014913|E4972036|Chew Lay Hoon                                                         |ES8|HNFW|55|SGD|1100|25/02/2016|25/02/2016|25/02/2017|Yearly                        |527.7| -   |First Year Policies           |364.11|58.26| -   | -   | -   | -   |1|422.37
60014915|E4912008|Tan Liang Ping                                                        |ES8|HNFW|53|SGD|1300|25/02/2016|25/02/2016|25/02/2017|Yearly                        |537| -   |First Year Policies           |370.53|59.28| -   | -   | -   | -   |1|429.81
60014916|6032640|Low Wan Ling Levina                                                   |CPW|CIAJ|34|SGD|200000|29/02/2016|29/02/2016|28/02/2017|Yearly                        |617.6| -   |First Year Policies           |355.74|106.72| -   | -   | -   | -   |1|462.46
60014916|6032640|Low Wan Ling Levina                                                   |CPW|ENTW|34|SGD|1000000|29/02/2016|29/02/2016|28/02/2017|Yearly                        |1142.1| -   |First Year Policies           |657.85|197.36| -   | -   | -   | -   |1|855.21
60014916|6032640|Low Wan Ling Levina                                                   |CPW|TPAK|33|SGD|1000000|29/02/2016|29/02/2016|28/02/2017|Yearly                        |312| -   |First Year Policies           |179.71|53.91| -   | -   | -   | -   |1|233.62
60014916|6032654|Chin Chee Khiong                                                      |CPW|CIAJ|23|SGD|200000|24/02/2016|24/02/2016|24/02/2017|Yearly                        |1158.4| -   |First Year Policies           |623.22|186.97| -   | -   | -   | -   |1|810.19
60014916|6032654|Chin Chee Khiong                                                      |CPW|ENTW|23|SGD|1000000|24/02/2016|24/02/2016|24/02/2017|Yearly                        |3114.2| -   |First Year Policies           |1675.44|502.63| -   | -   | -   | -   |1|2178.07
60014916|6032654|Chin Chee Khiong                                                      |CPW|TPAK|22|SGD|1000000|24/02/2016|24/02/2016|24/02/2017|Yearly                        |600| -   |First Year Policies           |322.8|96.84| -   | -   | -   | -   |1|419.64
60014916|27830284|Taswinder Singh Dhaliwal                                              |MYS|MSN1|71|SGD|0|05/02/2016|05/02/2016|05/02/2017|Yearly                        |270.53| -   |First Year Policies           |81.16|27.05| -   | -   | -   | -   |1|108.21
60014916|27830294|Taswinder Singh Dhaliwal                                              |MSP|MP1C|71|SGD|0|05/02/2016|05/02/2016|05/02/2017|Yearly                        |282.62| -   |First Year Policies           |63.59|21.2| -   | -   | -   | -   |1|84.79
60014917|E4911969|Tan Choong Wee                                                        |ES8|HNFW|58|SGD|1600|25/02/2016|25/02/2016|25/02/2017|Yearly                        |551.3| -   |First Year Policies           |380.4|60.86| -   | -   | -   | -   |1|441.26