Agent No|Policy Num|Policy Holder|Policy Type|Component|Pol Term|Cont Curr|Sum Insured|Inception Date|Premium Due Date|Paid To Date|Bil Freq| Premium Paid | Extra Loading |Fee Type| Basic Comm | Basic Overrding Comm | Extra Overrding Comm | Trailer Fee Comm | PAS Comm | Other Comm |FX rate| Total Comm on Payment Curr 
60014804|28044276|Pek Guan Tat                                                          |MYS-MyShield                      |MSI2|31|SGD|0|08/08/2016|08/08/2016|08/08/2017|Yearly                        |1105.76|0|First Year Policies           |331.73|110.58|0|0|0|0|1|442.31
60014804|28044285|Pek Guan Tat                                                          |MSP-MyHealthPlus                  |MP2C|31|SGD|0|08/08/2016|08/08/2016|08/08/2017|Yearly                        |1257.01|0|First Year Policies           |282.83|94.28|0|0|0|0|1|377.11
60014804|28044314|Lin Linli                                                             |MYS-MyShield                      |MSI1|61|SGD|0|01/08/2016|01/08/2016|01/08/2017|Yearly                        |184.52|0|First Year Policies           |55.36|18.45|0|0|0|0|1|73.81
60014804|28044324|Lin Linli                                                             |MSP-MyHealthPlus                  |MP1C|61|SGD|0|01/08/2016|01/08/2016|01/08/2017|Yearly                        |373.23|0|First Year Policies           |41.99|14|0|0|0|0|1|55.99
60014804|28044337|Lin Linli                                                             |MYS-MyShield                      |MSI1|82|SGD|0|01/08/2016|01/08/2016|01/08/2017|Yearly                        |100.09|0|First Year Policies           |30.03|10.01|0|0|0|0|1|40.04
60014804|28044347|Lin Linli                                                             |MSP-MyHealthPlus                  |MP1C|82|SGD|0|01/08/2016|01/08/2016|01/08/2017|Yearly                        |334.1|0|First Year Policies           |37.59|12.53|0|0|0|0|1|50.12
60014804|28044356|Lin Linli                                                             |MYS-MyShield                      |MSI1|93|SGD|0|01/08/2016|01/08/2016|01/08/2017|Yearly                        |100.09|0|First Year Policies           |30.03|10.01|0|0|0|0|1|40.04
60014804|28044365|Lin Linli                                                             |MSP-MyHealthPlus                  |MP1C|93|SGD|0|01/08/2016|01/08/2016|01/08/2017|Yearly                        |334.1|0|First Year Policies           |37.59|12.53|0|0|0|0|1|50.12
60014804|28084914|Pek Guan Tat                                                          |MSP-MyHealthPlus                  |MP2C|98|SGD|0|15/08/2016|15/08/2016|15/08/2017|Yearly                        |119.62|0|First Year Policies           |26.91|8.97|0|0|0|0|1|35.88
60014805|26099444|Then Feng                                                             |MYS-MyShield                      |MSI1|67|SGD|0|01/08/2013|01/08/2016|01/08/2017|Yearly                        |259.97|0|Renewal Year Policies         |13|13|0|0|0|0|1|26
60014805|26099457|Then Feng                                                             |MSP-MyHealthPlus                  |MP1C|67|SGD|0|01/08/2013|01/08/2016|01/08/2017|Yearly                        |466.54|0|Renewal Year Policies         |17.5|5.83|0|0|0|0|1|23.33
60014809|21166175|Roziah bte A Raja                                                     |MSP-MyHealthPlus                  |MP1C|51|SGD|0|01/03/2016|01/08/2016|01/08/2017|Yearly                        |574.21|0|Renewal Year Policies         |21.53|7.18|0|0|0|0|1|28.71
60014811|28110616|Chong Chee Seng                                                       |MSP-MyHealthPlus                  |MP1A|60|SGD|0|01/09/2016|01/09/2016|01/02/2017|Yearly                        |35.94|0|First Year Policies           |8.09|2.7|0|0|0|0|1|10.79
60014812|28093394|Tan Eng Soon                                                          |MYS-MyShield                      |MSI1|68|SGD|0|15/08/2016|15/08/2016|15/08/2017|Yearly                        |259.97|0|First Year Policies           |77.99|26|0|0|0|0|1|103.99
60014812|28093415|Chang Choon Hin                                                       |MYS-MyShield                      |MSI1|47|SGD|0|22/08/2016|22/08/2016|22/08/2017|Yearly                        |733.3|0|First Year Policies           |219.99|73.33|0|0|0|0|1|293.32
60014812|28093429|Chang Choon Hin                                                       |MSP-MyHealthPlus                  |MP1C|47|SGD|0|22/08/2016|22/08/2016|22/08/2017|Yearly                        |635.51|0|First Year Policies           |71.49|23.83|0|0|0|0|1|95.32
60014817|28130564|Muhammad Raimi bin Ramli                                              |MSP-MyHealthPlus                  |MP2C|70|SGD|0|01/09/2016|01/09/2016|01/09/2017|Yearly                        |222.44|0|First Year Policies           |50.05|16.68|0|0|0|0|1|66.73
60014818|28078524|Lim Jun Xian Terence                                                  |MYS-MyShield                      |MSI1|98|SGD|0|01/08/2016|01/08/2016|01/08/2017|Yearly                        |100.09|0|First Year Policies           |30.03|10.01|0|0|0|0|1|40.04
60014818|28078537|Lim Jun Xian Terence                                                  |MSP-MyHealthPlus                  |MP1C|98|SGD|0|01/08/2016|01/08/2016|01/08/2017|Yearly                        |334.1|0|First Year Policies           |37.59|12.53|0|0|0|0|1|50.12
60014818|28079539|Lai Kah Yip                                                           |MSP-MyHealthPlus                  |MP2C|98|SGD|0|01/08/2016|01/08/2016|01/08/2017|Yearly                        |149.53|0|First Year Policies           |33.64|11.21|0|0|0|0|1|44.85
60014818|28083190|Chow Kwai Soon                                                        |MSP-MyHealthPlus                  |MP2C|42|SGD|0|25/07/2016|25/07/2016|25/07/2017|Yearly                        |486.92|0|First Year Policies           |109.56|36.52|0|0|0|0|1|146.08
60014818|28116687|Tan Kai Xin                                                           |MYS-MyShield                      |MSI1|73|SGD|0|22/08/2016|22/08/2016|22/08/2017|Yearly                        |155.92|0|First Year Policies           |46.78|15.59|0|0|0|0|1|62.37
60014818|28116697|Tan Kai Xin                                                           |MSP-MyHealthPlus                  |MP1C|73|SGD|0|22/08/2016|22/08/2016|22/08/2017|Yearly                        |460.93|0|First Year Policies           |51.85|17.28|0|0|0|0|1|69.13
60014822|28134797|Tan Kok Hong Gareth @Chen Ming Liang                                  |MSP-MyHealthPlus                  |MP1C|57|SGD|0|01/09/2016|01/09/2016|01/03/2017|Yearly                        |249.15|0|First Year Policies           |28.03|9.34|0|0|0|0|1|37.37
60014822|28134818|Sim Peck Koon Ivy                                                     |MSP-MyHealthPlus                  |MP1C|57|SGD|0|01/09/2016|01/09/2016|01/03/2017|Yearly                        |249.15|0|First Year Policies           |28.03|9.34|0|0|0|0|1|37.37
60014822|28134822|Sim Peck Koon Ivy                                                     |MSP-MyHealthPlus                  |MP2C|88|SGD|0|01/09/2016|01/09/2016|01/03/2017|Yearly                        |74.15|0|First Year Policies           |16.68|5.56|0|0|0|0|1|22.24
60014824|20935759|Tan Yong Heng                                                         |MSP-MyHealthPlus                  |MP2A|66|SGD|0|01/10/2011|01/08/2016|01/09/2016|Monthly                       |4.38|0|Renewal Year Policies         |0.66|0.22|0|0|0|0|1|0.88
60014824|20935759|Tan Yong Heng                                                         |MSP-MyHealthPlus                  |MP2B|66|SGD|0|01/10/2011|01/08/2016|01/09/2016|Monthly                       |15.63|0|Renewal Year Policies         |2.34|0.78|0|0|0|0|1|3.12
60014825|25447630|Giselle Maria Illesinghe                                              |MSP-MyHealthPlus                  |MP1A|36|SGD|0|01/12/2012|01/08/2016|01/09/2016|Monthly                       |59.8|0|Renewal Year Policies         |8.97|2.99|0|0|0|0|1|11.96
60014825|25447630|Giselle Maria Illesinghe                                              |MSP-MyHealthPlus                  |MP1B|36|SGD|0|01/12/2012|01/08/2016|01/09/2016|Monthly                       |64.64|0|Renewal Year Policies         |9.7|3.23|0|0|0|0|1|12.93
60014828|28079481|Roger Peter Byrne                                                     |MYS-MyShield                      |MSI1|40|SGD|0|08/08/2016|08/08/2016|08/08/2017|Yearly                        |803.53|0|First Year Policies           |241.06|80.35|0|0|0|0|1|321.41
60014828|28079490|Roger Peter Byrne                                                     |MSP-MyHealthPlus                  |MP1C|40|SGD|0|08/08/2016|08/08/2016|08/08/2017|Yearly                        |855.33|0|First Year Policies           |96.22|32.07|0|0|0|0|1|128.29
60014829|28103214|Ng Chan Kyong                                                         |MYS-MyShield                      |MSI2|98|SGD|0|15/08/2016|15/08/2016|15/08/2017|Yearly                        |78.4|0|First Year Policies           |23.52|7.84|0|0|0|0|1|31.36
60014833|28094627|Looi Kian Mun                                                         |MSP-MyHealthPlus                  |MP1C|97|SGD|0|01/08/2016|01/08/2016|01/08/2017|Yearly                        |334.1|0|First Year Policies           |37.59|12.53|0|0|0|0|1|50.12
60014833|28094636|Looi Kian Mun                                                         |MYS-MyShield                      |MSI1|97|SGD|0|01/08/2016|01/08/2016|01/08/2017|Yearly                        |100.57|0|First Year Policies           |30.17|10.06|0|0|0|0|1|40.23
60014834|28106724|Chua Guan Cheng                                                       |MYS-MyShield                      |MSI1|46|SGD|0|15/08/2016|15/08/2016|15/08/2017|Yearly                        |733.3|0|First Year Policies           |219.99|73.33|0|0|0|0|1|293.32
60014834|28106737|Chua Guan Cheng                                                       |MSP-MyHealthPlus                  |MP1C|46|SGD|0|15/08/2016|15/08/2016|15/08/2017|Yearly                        |635.51|0|First Year Policies           |71.49|23.83|0|0|0|0|1|95.32
60014839|28095795|Madhukar Makhija                                                      |MSP-MyHealthPlus                  |MP1C|65|SGD|0|01/09/2016|01/09/2016|01/09/2017|Yearly                        |466.54|0|First Year Policies           |52.49|17.5|0|0|0|0|1|69.99
60014839|28117894|Alexander Khuotarinen                                                 |MYS-MyShield                      |MSI1|58|SGD|0|22/08/2016|22/08/2016|22/08/2017|Yearly                        |436.74|0|First Year Policies           |131.02|43.67|0|0|0|0|1|174.69
60014839|28117906|Alexander Khuotarinen                                                 |MYS-MyShield                      |MSI1|64|SGD|0|22/08/2016|22/08/2016|22/08/2017|Yearly                        |259.97|0|First Year Policies           |77.99|26|0|0|0|0|1|103.99
60014839|28117915|Alexander Khuotarinen                                                 |MYS-MyShield                      |MSI1|90|SGD|0|22/08/2016|22/08/2016|22/08/2017|Yearly                        |138.66|0|First Year Policies           |41.6|13.87|0|0|0|0|1|55.47
60014839|28117929|Alexander Khuotarinen                                                 |MYS-MyShield                      |MSI1|96|SGD|0|22/08/2016|22/08/2016|22/08/2017|Yearly                        |138.66|0|First Year Policies           |41.6|13.87|0|0|0|0|1|55.47
60014839|28137886|Ramprasath Pitchiah                                                   |MSP-MyHealthPlus                  |MP1C|63|SGD|0|01/09/2016|01/09/2016|01/08/2017|Yearly                        |426.92|0|First Year Policies           |48.03|16.01|0|0|0|0|1|64.04
60014841|28063824|Shahrul Nizam bin Mohamed Hassan                                      |MYS-MyShield                      |MSI1|98|SGD|0|08/08/2016|08/08/2016|08/08/2017|Yearly                        |138.66|0|First Year Policies           |41.6|13.87|0|0|0|0|1|55.47
60014841|28063837|Shahrul Nizam bin Mohamed Hassan                                      |MSP-MyHealthPlus                  |MP1C|98|SGD|0|08/08/2016|08/08/2016|08/08/2017|Yearly                        |417.62|0|First Year Policies           |46.98|15.66|0|0|0|0|1|62.64
60014841|28116786|Peter Stephen Overy                                                   |MYS-MyShield                      |MSI1|56|SGD|0|19/08/2016|19/08/2016|19/08/2017|Yearly                        |436.74|0|First Year Policies           |131.02|43.67|0|0|0|0|1|174.69
60014841|28116795|Peter Stephen Overy                                                   |MSP-MyHealthPlus                  |MP1C|56|SGD|0|19/08/2016|19/08/2016|19/08/2017|Yearly                        |502.43|0|First Year Policies           |56.52|18.84|0|0|0|0|1|75.36
60014841|28116801|Peter Stephen Overy                                                   |MYS-MyShield                      |MSI1|98|SGD|0|22/08/2016|22/08/2016|22/08/2017|Yearly                        |138.66|0|First Year Policies           |41.6|13.87|0|0|0|0|1|55.47
60014841|28116810|Peter Stephen Overy                                                   |MSP-MyHealthPlus                  |MP1C|98|SGD|0|22/08/2016|22/08/2016|22/08/2017|Yearly                        |417.62|0|First Year Policies           |46.98|15.66|0|0|0|0|1|62.64
60014844|28107850|Chen Boyang                                                           |MYS-MyShield                      |MSI1|98|SGD|0|15/08/2016|15/08/2016|15/08/2017|Yearly                        |138.66|0|First Year Policies           |41.6|13.87|0|0|0|0|1|55.47
60014844|28107864|Chen Boyang                                                           |MSP-MyHealthPlus                  |MP1C|98|SGD|0|15/08/2016|15/08/2016|15/08/2017|Yearly                        |417.62|0|First Year Policies           |46.98|15.66|0|0|0|0|1|62.64
60014846|28119407|Tan Shiuan Yu Leonard @Shukri Iman Tan                                |MSP-MyHealthPlus                  |MP2C|97|SGD|0|29/08/2016|29/08/2016|29/08/2017|Yearly                        |149.53|0|First Year Policies           |33.64|11.21|0|0|0|0|1|44.85
60014846|28139524|Tan Chuu-Ming                                                         |MSP-MyHealthPlus                  |MP2A|54|SGD|0|01/09/2016|01/09/2016|01/09/2017|Yearly                        |101.4|0|First Year Policies           |22.82|7.61|0|0|0|0|1|30.43
60014848|28110568|Xie Jianlong                                                          |MSP-MyHealthPlus                  |MP2C|98|SGD|0|15/08/2016|15/08/2016|15/08/2017|Yearly                        |149.53|0|First Year Policies           |33.64|11.21|0|0|0|0|1|44.85
60014850|28070139|Mohammad Noor bin Nordin                                              |MYS-MyShield                      |MSI2|65|SGD|0|18/07/2016|18/07/2016|18/07/2017|Yearly                        |151.6|0|First Year Policies           |45.48|15.16|0|0|0|0|1|60.64
60014850|28070148|Mohammad Noor bin Nordin                                              |MYS-MyShield                      |MSI2|68|SGD|0|18/07/2016|18/07/2016|18/07/2017|Yearly                        |151.6|0|First Year Policies           |45.48|15.16|0|0|0|0|1|60.64
60014851|20880821|Cheng Shi Hui Sylvia                                                  |MSP-MyHealthPlus                  |MP1A|73|SGD|0|01/08/2010|01/08/2016|01/08/2017|Yearly                        |107.48|0|Renewal Year Policies         |16.12|5.37|0|0|0|0|1|21.49
60014851|20880821|Cheng Shi Hui Sylvia                                                  |MSP-MyHealthPlus                  |MP1B|73|SGD|0|01/08/2010|01/08/2016|01/08/2017|Yearly                        |359.07|0|Renewal Year Policies         |53.86|17.95|0|0|0|0|1|71.81
60014851|23576364|Cheng Shi Hui Sylvia                                                  |MYS-MyShield                      |MSI1|72|SGD|0|01/08/2010|01/08/2016|01/08/2017|Yearly                        |259.97|0|Renewal Year Policies         |13|13|0|0|0|0|1|26
60014851|27985207|Lee Shi Yao Ronald                                                    |MYS-MyShield                      |MSI1|98|SGD|0|25/04/2016|01/08/2016|01/08/2017|Yearly                        |138.66|0|First Year Policies           |30.43|10.14|0|0|0|0|1|40.57
60014851|27985207|Lee Shi Yao Ronald                                                    |MYS-MyShield                      |MSI1|98|SGD|0|25/04/2016|25/04/2017|01/08/2017|Yearly                        |138.66|0|Renewal Year Policies         |1.86|1.86|0|0|0|0|1|3.72
60014851|27985217|Lee Shi Yao Ronald                                                    |MSP-MyHealthPlus                  |MP1A|98|SGD|0|25/04/2016|01/08/2016|01/08/2017|Yearly                        |49.53|0|First Year Policies           |8.15|2.72|0|0|0|0|1|10.87
60014851|27985217|Lee Shi Yao Ronald                                                    |MSP-MyHealthPlus                  |MP1A|98|SGD|0|25/04/2016|25/04/2017|01/08/2017|Yearly                        |49.53|0|Renewal Year Policies         |0.5|0.17|0|0|0|0|1|0.67
60014851|27985217|Lee Shi Yao Ronald                                                    |MSP-MyHealthPlus                  |MP2C|98|SGD|0|25/04/2016|01/08/2016|01/08/2017|Yearly                        |-87.5|0|First Year Policies           |-19.68|-6.56|0|0|0|0|1|-26.24
60014851|28098654|Auri Lai Anak Spencer Latip                                           |MYS-MyShield                      |MSI2|71|SGD|0|08/08/2016|08/08/2016|08/08/2017|Yearly                        |89.72|0|First Year Policies           |26.92|8.97|0|0|0|0|1|35.89
60014851|28098664|Auri Lai Anak Spencer Latip                                           |MSP-MyHealthPlus                  |MP2C|71|SGD|0|08/08/2016|08/08/2016|08/08/2017|Yearly                        |222.44|0|First Year Policies           |50.05|16.68|0|0|0|0|1|66.73
60014851|28099351|Oh Xiujuan Michelle                                                   |MYS-MyShield                      |MSI1|98|SGD|0|08/08/2016|08/08/2016|08/08/2017|Yearly                        |138.66|0|First Year Policies           |41.6|13.87|0|0|0|0|1|55.47
60014851|28099360|Oh Xiujuan Michelle                                                   |MSP-MyHealthPlus                  |MP1C|98|SGD|0|08/08/2016|08/08/2016|08/08/2017|Yearly                        |417.62|0|First Year Policies           |46.98|15.66|0|0|0|0|1|62.64
60014851|28104987|Chen Yougang                                                          |MYS-MyShield                      |MSI1|97|SGD|0|15/08/2016|15/08/2016|15/08/2017|Yearly                        |138.66|0|First Year Policies           |41.6|13.87|0|0|0|0|1|55.47
60014851|28105007|Chen Yougang                                                          |MSP-MyHealthPlus                  |MP1C|97|SGD|0|15/08/2016|15/08/2016|15/08/2017|Yearly                        |417.62|0|First Year Policies           |46.98|15.66|0|0|0|0|1|62.64
60014851|28128418|Chin Joon Wen                                                         |MYS-MyShield                      |MSI1|96|SGD|0|29/08/2016|29/08/2016|29/08/2017|Yearly                        |138.66|0|First Year Policies           |41.6|13.87|0|0|0|0|1|55.47
60014851|28128422|Chin Joon Wen                                                         |MSP-MyHealthPlus                  |MP1C|96|SGD|0|29/08/2016|29/08/2016|29/08/2017|Yearly                        |417.62|0|First Year Policies           |46.98|15.66|0|0|0|0|1|62.64
60014856|28088217|Lim Chew Theng                                                        |MYS-MyShield                      |MSI1|64|SGD|0|29/08/2016|29/08/2016|29/08/2017|Yearly                        |259.97|0|First Year Policies           |77.99|26|0|0|0|0|1|103.99
60014856|28088227|Lim Chew Theng                                                        |MSP-MyHealthPlus                  |MP1C|64|SGD|0|29/08/2016|29/08/2016|29/08/2017|Yearly                        |466.54|0|First Year Policies           |52.49|17.5|0|0|0|0|1|69.99
60014863|27940367|Chow Kian Kwang Johnathon                                             |MSP-MyHealthPlus                  |MP1C|67|SGD|0|01/04/2016|01/08/2016|01/08/2017|Yearly                        |466.54|0|Renewal Year Policies         |17.5|5.83|0|0|0|0|1|23.33
60014864|25962631|Chia Xian Lin Penelope                                                |MSP-MyHealthPlus                  |MP1A|73|SGD|0|01/06/2013|01/08/2016|01/09/2016|Monthly                       |8.69|0|Renewal Year Policies         |1.3|0.43|0|0|0|0|1|1.73
60014864|25962631|Chia Xian Lin Penelope                                                |MSP-MyHealthPlus                  |MP1B|73|SGD|0|01/06/2013|01/08/2016|01/09/2016|Monthly                       |30.63|0|Renewal Year Policies         |4.59|1.53|0|0|0|0|1|6.12
60014864|28106246|Lee Bee Lan Eileen                                                    |MSP-MyHealthPlus                  |MP1C|50|SGD|0|01/09/2016|01/09/2016|01/12/2016|Yearly                        |142.77|0|First Year Policies           |16.06|5.35|0|0|0|0|1|21.41
60014864|28106255|Lee Bee Lan Eileen                                                    |MSP-MyHealthPlus                  |MP1C|79|SGD|0|01/09/2016|01/09/2016|01/12/2016|Yearly                        |103.83|0|First Year Policies           |11.68|3.89|0|0|0|0|1|15.57
60014864|28117951|Wong Lai Ying                                                         |MYS-MyShield                      |MSI3|41|SGD|0|22/08/2016|22/08/2016|22/08/2017|Yearly                        |259.61|0|First Year Policies           |64.9|12.98|0|0|0|0|1|77.88
60014864|28117960|Wong Lai Ying                                                         |MSP-MyHealthPlus                  |MP3C|41|SGD|0|22/08/2016|22/08/2016|22/08/2017|Yearly                        |414.02|0|First Year Policies           |62.1|20.7|0|0|0|0|1|82.8
60014864|28117974|Wong Lai Ying                                                         |MYS-MyShield                      |MSI3|47|SGD|0|22/08/2016|22/08/2016|22/08/2017|Yearly                        |252.5|0|First Year Policies           |63.13|12.63|0|0|0|0|1|75.76
60014864|28117984|Wong Lai Ying                                                         |MSP-MyHealthPlus                  |MP3C|47|SGD|0|22/08/2016|22/08/2016|22/08/2017|Yearly                        |322.43|0|First Year Policies           |48.36|16.12|0|0|0|0|1|64.48
60014870|28052220|Toh Soo Lian                                                          |MSP-MyHealthPlus                  |MP3C|29|SGD|0|22/08/2016|22/08/2016|22/08/2017|Yearly                        |1068.22|0|First Year Policies           |160.23|53.41|0|0|0|0|1|213.64
60014870|28052234|Toh Soo Lian                                                          |MYS-MyShield                      |MSI3|29|SGD|0|22/08/2016|22/08/2016|22/08/2017|Yearly                        |651.94|0|First Year Policies           |162.99|32.6|0|0|0|0|1|195.59
60014870|28052244|Teo Leck Soon                                                         |MYS-MyShield                      |MSI3|25|SGD|0|22/08/2016|22/08/2016|22/08/2017|Yearly                        |1216.92|0|First Year Policies           |304.23|60.85|0|0|0|0|1|365.08
60014870|28052257|Teo Leck Soon                                                         |MSP-MyHealthPlus                  |MP3C|25|SGD|0|22/08/2016|22/08/2016|22/08/2017|Yearly                        |1191.59|0|First Year Policies           |178.74|59.58|0|0|0|0|1|238.32
60014870|28114788|Reshmi Subramanian                                                    |MSP-MyHealthPlus                  |MP2C|97|SGD|0|22/08/2016|22/08/2016|22/08/2017|Yearly                        |149.53|0|First Year Policies           |33.64|11.21|0|0|0|0|1|44.85
60014872|28103237|Wang Guoqiang Roy                                                     |MSP-MyHealthPlus                  |MP2C|98|SGD|0|15/08/2016|15/08/2016|15/08/2017|Yearly                        |149.53|0|First Year Policies           |33.64|11.21|0|0|0|0|1|44.85
60014873|28090757|Cao Yi                                                                |MSP-MyHealthPlus                  |MP1C|95|SGD|0|08/08/2016|08/08/2016|08/08/2017|Yearly                        |417.62|0|First Year Policies           |46.98|15.66|0|0|0|0|1|62.64
60014880|28104977|Pavrushasp Choksey                                                    |MYS-MyShield                      |MSI1|57|SGD|0|15/08/2016|15/08/2016|15/08/2016|Yearly                        |436.74|0|First Year Policies           |131.02|43.67|0|0|0|0|1|174.69
60014880|28104996|Pavrushasp Choksey                                                    |MSP-MyHealthPlus                  |MP1A|57|SGD|0|15/08/2016|15/08/2016|15/08/2016|Yearly                        |107.48|0|First Year Policies           |24.18|8.06|0|0|0|0|1|32.24
60014880|28120614|Lam Quoc Huy                                                          |MSP-MyHealthPlus                  |MP2A|58|SGD|0|01/09/2016|01/09/2016|01/09/2017|Yearly                        |101.4|0|First Year Policies           |22.82|7.61|0|0|0|0|1|30.43
60014883|20962037|Goh Boon Khiang                                                       |MSP-MyHealthPlus                  |MP2A|89|SGD|0|01/11/2011|01/08/2016|01/11/2016|Yearly                        |10.1|0|Renewal Year Policies         |0.38|0.13|0|0|0|0|1|0.51
60014883|20962037|Goh Boon Khiang                                                       |MSP-MyHealthPlus                  |MP2A|89|SGD|0|01/11/2011|01/08/2016|01/11/2016|Yearly                        |-10.1|0|Renewal Year Policies         |0|-0.13|0|0|0|0|1|-0.13
60014883|20962037|Goh Boon Khiang                                                       |MSP-MyHealthPlus                  |MP2A|89|SGD|0|01/11/2011|29/08/2016|01/11/2016|Yearly                        |0|0|Renewal Year Policies         |-0.38|0|0|0|0|0|1|-0.38
60014883|20962037|Goh Boon Khiang                                                       |MSP-MyHealthPlus                  |MP2C|89|SGD|0|01/05/2016|01/05/2016|01/11/2016|Yearly                        |-75.17|0|First Year Policies           |0|-5.64|0|0|0|0|1|-5.64
60014883|20962037|Goh Boon Khiang                                                       |MSP-MyHealthPlus                  |MP2C|89|SGD|0|01/05/2016|01/05/2016|01/11/2016|Yearly                        |75.17|0|First Year Policies           |16.91|5.64|0|0|0|0|1|22.55
60014883|20962037|Goh Boon Khiang                                                       |MSP-MyHealthPlus                  |MP2C|89|SGD|0|01/05/2016|01/08/2016|01/11/2016|Yearly                        |-37.59|0|First Year Policies           |0|-2.82|0|0|0|0|1|-2.82
60014883|20962037|Goh Boon Khiang                                                       |MSP-MyHealthPlus                  |MP2C|89|SGD|0|01/05/2016|01/08/2016|01/11/2016|Yearly                        |37.59|0|First Year Policies           |0|2.82|0|0|0|0|1|2.82
60014883|20962037|Goh Boon Khiang                                                       |MSP-MyHealthPlus                  |MP2C|89|SGD|0|01/05/2016|29/08/2016|01/11/2016|Yearly                        |0|0|First Year Policies           |-16.91|0|0|0|0|0|1|-16.91
60014883|20962037|Goh Boon Khiang                                                       |MSP-MyHealthPlus                  |MP2C|89|SGD|0|01/05/2016|01/09/2016|01/11/2016|Yearly                        |-24.92|0|First Year Policies           |0|-1.87|0|0|0|0|1|-1.87
60014883|26749804|Chin Jia Wu Ronald                                                    |MSP-MyHealthPlus                  |MP1C|66|SGD|0|01/03/2016|01/08/2016|01/08/2017|Yearly                        |466.54|0|Renewal Year Policies         |17.5|5.83|0|0|0|0|1|23.33
60014883|26749814|Chan Peng Guan                                                        |MSP-MyHealthPlus                  |MP1C|66|SGD|0|01/02/2016|01/08/2016|01/08/2017|Yearly                        |466.54|0|Renewal Year Policies         |17.5|5.83|0|0|0|0|1|23.33
60014883|27396184|Hazimah bte Hassim                                                    |MSP-MyHealthPlus                  |MP2C|70|SGD|0|01/07/2015|01/08/2016|01/09/2016|Monthly                       |18.97|0|Renewal Year Policies         |0.71|0.24|0|0|0|0|1|0.95
60014883|28074461|Ridzuan bin Daud                                                      |MSP-MyHealthPlus                  |MP2C|98|SGD|0|18/07/2016|18/07/2016|18/07/2017|Yearly                        |149.53|0|First Year Policies           |33.64|11.21|0|0|0|0|1|44.85
60014883|28116708|Aida bte Abdul Rahim                                                  |MYS-MyShield                      |MSI1|77|SGD|0|22/08/2016|22/08/2016|22/08/2017|Yearly                        |155.92|0|First Year Policies           |46.78|15.59|0|0|0|0|1|62.37
60014884|28098677|Lee Poh Hock                                                          |MYS-MyShield                      |MSI2|58|SGD|0|08/08/2016|08/08/2016|08/08/2017|Yearly                        |283.26|0|First Year Policies           |84.98|28.33|0|0|0|0|1|113.31
60014884|28104735|Boo Siew Peng                                                         |MYS-MyShield                      |MSI2|59|SGD|0|15/08/2016|15/08/2016|15/08/2017|Yearly                        |151.6|0|First Year Policies           |45.48|15.16|0|0|0|0|1|60.64
60014884|28104749|Boo Siew Peng                                                         |MSP-MyHealthPlus                  |MP2C|59|SGD|0|15/08/2016|15/08/2016|15/08/2017|Yearly                        |234.58|0|First Year Policies           |52.78|17.59|0|0|0|0|1|70.37
60014884|28104758|Chian Seow Chiang                                                     |MYS-MyShield                      |MSI2|58|SGD|0|15/08/2016|15/08/2016|15/08/2017|Yearly                        |283.26|0|First Year Policies           |84.98|28.33|0|0|0|0|1|113.31
60014884|28104762|Chian Seow Chiang                                                     |MSP-MyHealthPlus                  |MP2C|58|SGD|0|15/08/2016|15/08/2016|15/08/2017|Yearly                        |315.89|0|First Year Policies           |71.08|23.69|0|0|0|0|1|94.77
60014899|28044468|Lee Swee Shean                                                        |MSP-MyHealthPlus                  |MP2C|66|SGD|0|20/06/2016|20/06/2016|20/06/2017|Yearly                        |234.58|0|First Year Policies           |52.78|17.59|0|0|0|0|1|70.37
60014900|28086027|Anita Jacqueline Anthony Samy                                         |MYS-MyShield                      |MSI1|54|SGD|0|29/08/2016|29/08/2016|29/08/2017|Yearly                        |436.74|0|First Year Policies           |131.02|43.67|0|0|0|0|1|174.69
60014900|28107930|Zhu Xiaodong                                                          |MSP-MyHealthPlus                  |MP2C|98|SGD|0|15/08/2016|15/08/2016|15/08/2017|Yearly                        |149.53|0|First Year Policies           |33.64|11.21|0|0|0|0|1|44.85
60014900|28109657|Oi Hong Lan                                                           |MSP-MyHealthPlus                  |MP2C|48|SGD|0|01/09/2016|01/09/2016|01/08/2017|Yearly                        |312.15|0|First Year Policies           |70.23|23.41|0|0|0|0|1|93.64
60014902|27818777|See Ming Shun                                                         |MSP-MyHealthPlus                  |MP2C|95|SGD|0|01/09/2016|01/09/2016|15/02/2017|Yearly                        |68.23|0|First Year Policies           |15.35|5.12|0|0|0|0|1|20.47
60014903|20895521|Kang Shwu Huey                                                        |MSP-MyHealthPlus                  |MP1C|62|SGD|0|01/09/2016|01/09/2016|01/11/2016|Yearly                        |77.76|0|First Year Policies           |8.75|2.92|0|0|0|0|1|11.67
60014903|28059350|Sharifah Hana bte Syed Jafaralsadeg Alhadad                           |MSP-MyHealthPlus                  |MP2C|98|SGD|0|01/08/2016|01/08/2016|01/08/2017|Yearly                        |149.53|0|First Year Policies           |33.64|11.21|0|0|0|0|1|44.85
60014907|28050394|Santhi Sithirai                                                       |MYS-MyShield                      |MSI1|84|SGD|0|29/08/2016|29/08/2016|29/08/2017|Yearly                        |138.66|0|First Year Policies           |41.6|13.87|0|0|0|0|1|55.47
60014907|28050415|Santhi Sithirai                                                       |MYS-MyShield                      |MSI1|85|SGD|0|29/08/2016|29/08/2016|29/08/2017|Yearly                        |138.66|0|First Year Policies           |41.6|13.87|0|0|0|0|1|55.47
60014910|28116721|Wong Bee Ling                                                         |MYS-MyShield                      |MSI3|83|SGD|0|22/08/2016|22/08/2016|22/08/2017|Yearly                        |64.3|0|First Year Policies           |16.08|3.22|0|0|0|0|1|19.3
60014910|28116730|Wong Bee Ling                                                         |MSP-MyHealthPlus                  |MP3C|83|SGD|0|22/08/2016|22/08/2016|22/08/2017|Yearly                        |161.68|0|First Year Policies           |24.25|8.08|0|0|0|0|1|32.33
60014910|28116744|Wong Bee Ling                                                         |MYS-MyShield                      |MSI3|85|SGD|0|29/08/2016|29/08/2016|29/08/2017|Yearly                        |64.3|0|First Year Policies           |16.08|3.22|0|0|0|0|1|19.3
60014910|28116754|Wong Bee Ling                                                         |MSP-MyHealthPlus                  |MP3C|85|SGD|0|29/08/2016|29/08/2016|29/08/2017|Yearly                        |161.68|0|First Year Policies           |24.25|8.08|0|0|0|0|1|32.33
60014911|28011498|Liu Xianbin                                                           |MSP-MyHealthPlus                  |MP2C|65|SGD|0|01/06/2016|01/08/2016|01/08/2017|Yearly                        |234.58|0|Renewal Year Policies         |8.8|2.93|0|0|0|0|1|11.73
60014912|28063799|Jumariah binti Abu                                                    |MSP-MyHealthPlus                  |MP2C|42|SGD|0|11/07/2016|11/07/2016|11/07/2016|Yearly                        |-486.92|0|First Year Policies           |-109.56|-36.52|0|0|0|0|1|-146.08
60014912|28063814|Jumariah binti Abu                                                    |MSP-MyHealthPlus                  |MP2C|83|SGD|0|11/07/2016|11/07/2016|11/07/2016|Yearly                        |-189.72|0|First Year Policies           |-42.69|-14.23|0|0|0|0|1|-56.92
60014913|28120598|Huang Yuelan                                                          |MYS-MyShield                      |MSI2|88|SGD|0|29/08/2016|29/08/2016|29/08/2017|Yearly                        |78.4|0|First Year Policies           |23.52|7.84|0|0|0|0|1|31.36
60014913|28120604|Huang Yuelan                                                          |MSP-MyHealthPlus                  |MP2C|88|SGD|0|29/08/2016|29/08/2016|29/08/2017|Yearly                        |189.72|0|First Year Policies           |42.69|14.23|0|0|0|0|1|56.92
60014913|28128431|Juraimi bin Tahir                                                     |MYS-MyShield                      |MSI1|55|SGD|0|29/08/2016|29/08/2016|29/08/2017|Yearly                        |436.74|0|First Year Policies           |131.02|43.67|0|0|0|0|1|174.69
60014916|28079472|Wu Di                                                                 |MSP-MyHealthPlus                  |MP1C|94|SGD|0|22/08/2016|22/08/2016|22/08/2017|Yearly                        |334.1|0|First Year Policies           |37.59|12.53|0|0|0|0|1|50.12
60014917|27910954|Ng Fong Ching Jessica                                                 |MSP-MyHealthPlus                  |MP1C|60|SGD|0|01/05/2016|01/08/2016|01/08/2017|Yearly                        |466.54|0|Renewal Year Policies         |17.5|5.83|0|0|0|0|1|23.33
60014917|28117871|Kerk Sini                                                             |MYS-MyShield                      |MSI1|98|SGD|0|22/08/2016|22/08/2016|22/08/2017|Yearly                        |138.66|0|First Year Policies           |41.6|0|0|0|0|0|1|41.6
60014917|28117880|Kerk Sini                                                             |MSP-MyHealthPlus                  |MP1C|98|SGD|0|22/08/2016|22/08/2016|22/08/2017|Yearly                        |417.62|0|First Year Policies           |46.98|15.66|0|0|0|0|1|62.64
60015144|28072987|Kadiresan Sankara Narayanan                                           |MYS-MyShield                      |MSI1|63|SGD|0|15/08/2016|15/08/2016|15/08/2017|Yearly                        |259.97|0|First Year Policies           |77.99|26|0|0|0|0|1|103.99
60015144|28072997|Kadiresan Sankara Narayanan                                           |MSP-MyHealthPlus                  |MP1C|63|SGD|0|15/08/2016|15/08/2016|15/08/2017|Yearly                        |466.54|0|First Year Policies           |52.49|17.5|0|0|0|0|1|69.99
60015250|28107874|Desmond Mark David                                                    |MYS-MyShield                      |MSI1|73|SGD|0|15/08/2016|15/08/2016|15/08/2017|Yearly                        |155.92|0|First Year Policies           |46.78|15.59|0|0|0|0|1|62.37
60015321|28098687|New Beng Choo                                                         |MYS-MyShield                      |MSI3|27|SGD|0|08/08/2016|08/08/2016|08/08/2017|Yearly                        |1044.33|0|First Year Policies           |261.08|52.22|0|0|0|0|1|313.3
60015321|28114756|Ong Chung-Liang Alvin                                                 |MYS-MyShield                      |MSI1|55|SGD|0|22/08/2016|22/08/2016|22/08/2017|Yearly                        |436.74|0|First Year Policies           |131.02|43.67|0|0|0|0|1|174.69
60015321|28114765|Ong Chung-Liang Alvin                                                 |MSP-MyHealthPlus                  |MP1C|55|SGD|0|22/08/2016|22/08/2016|22/08/2017|Yearly                        |502.43|0|First Year Policies           |56.52|18.84|0|0|0|0|1|75.36
60015321|28114779|Ong Chung-Liang Alvin                                                 |MYS-MyShield                      |MSI1|87|SGD|0|22/08/2016|22/08/2016|22/08/2017|Yearly                        |138.66|0|First Year Policies           |41.6|13.87|0|0|0|0|1|55.47
60015400|28087824|Chea Hong Chuan Aloysius                                              |MSP-MyHealthPlus                  |MP1C|74|SGD|0|25/07/2016|25/07/2016|25/07/2017|Yearly                        |460.93|0|First Year Policies           |51.85|17.28|0|0|0|0|1|69.13
60015439|28094645|Muhammad Razif bin Ramli                                              |MYS-MyShield                      |MSI2|71|SGD|0|01/08/2016|01/08/2016|01/08/2017|Yearly                        |89.72|0|First Year Policies           |26.92|8.97|0|0|0|0|1|35.89
60015482|28088259|Lee Bin Hoe                                                           |MYS-MyShield                      |MSI1|39|SGD|0|15/08/2016|15/08/2016|15/08/2017|Yearly                        |803.53|0|First Year Policies           |241.06|80.35|0|0|0|0|1|321.41
60015482|28088268|Lee Bin Hoe                                                           |MSP-MyHealthPlus                  |MP1C|39|SGD|0|15/08/2016|15/08/2016|15/08/2017|Yearly                        |855.33|0|First Year Policies           |96.22|32.07|0|0|0|0|1|128.29
60015483|28118036|Mohd Yatim bin Ibrahim                                                |MYS-MyShield                      |MSI2|50|SGD|0|29/08/2016|29/08/2016|29/08/2017|Yearly                        |308.77|0|First Year Policies           |92.63|30.88|0|0|0|0|1|123.51
60015494|28103247|Aiyan Samiyappa                                                       |MYS-MyShield                      |MSI2|49|SGD|0|15/08/2016|15/08/2016|15/08/2017|Yearly                        |308.77|0|First Year Policies           |92.63|30.88|0|0|0|0|1|123.51
60015494|28103256|Aiyan Samiyappa                                                       |MYS-MyShield                      |MSI2|57|SGD|0|15/08/2016|15/08/2016|15/08/2017|Yearly                        |283.26|0|First Year Policies           |84.98|28.33|0|0|0|0|1|113.31
60015519|28110572|Sim Wei Ming Douglas                                                  |MYS-MyShield                      |MSI2|76|SGD|0|15/08/2016|15/08/2016|15/08/2017|Yearly                        |89.72|0|First Year Policies           |26.92|8.97|0|0|0|0|1|35.89
60015519|28110581|Sim Wei Ming Douglas                                                  |MSP-MyHealthPlus                  |MP2C|76|SGD|0|15/08/2016|15/08/2016|15/08/2017|Yearly                        |222.44|0|First Year Policies           |50.05|16.68|0|0|0|0|1|66.73
60015540|28117858|Pek Xiwei                                                             |MYS-MyShield                      |MSI1|98|SGD|0|22/08/2016|22/08/2016|22/08/2017|Yearly                        |138.66|0|First Year Policies           |41.6|13.87|0|0|0|0|1|55.47
60015540|28117862|Pek Xiwei                                                             |MSP-MyHealthPlus                  |MP1C|98|SGD|0|22/08/2016|22/08/2016|22/08/2017|Yearly                        |417.62|0|First Year Policies           |46.98|15.66|0|0|0|0|1|62.64