Agent No,Policy Num,Policy Holder,Policy Type,Component,Pol Term,Cont Curr,Sum Insured,Inception Date,Premium Due Date,Paid To Date,Bil Freq, Premium Paid , Extra Loading ,Fee Type, Basic Comm , Basic Overrding Comm , Extra Overrding Comm , Trailer Fee Comm , PAS Comm , Other Comm ,FX rate, Total Comm on Payment Curr 
86005434,N2538312,Ong Pei See,Nav,IF,99,SGD,2000,42371,-,-,-,58.2,-,Cash,58.2,-,-,-,-,-,-,-
86005434,N2547805,Teng Chiang Ming,Nav,IF,99,SGD,25000,42371,-,-,-,672,-,CPF-OA,672,-,-,-,-,-,-,-
86005456,N2300130,Lau Kin Mang,Nav,IF,99,SGD,500,42371,-,-,-,7.25,-,CPF-OA,7.25,-,-,-,-,-,-,-
86005456,N2312180,Lau Kin Mang,Nav,IF,99,SGD,500,42371,-,-,-,7.26,-,Cash,7.26,-,-,-,-,-,-,-
86005469,N2492539,Yee Kar Seng Jackson,Nav,IF,99,SGD,200,42371,-,-,-,1.94,-,Cash,1.94,-,-,-,-,-,-,-
86005469,N2494903,Lam Huei Ling,Nav,IF,99,SGD,360,42371,-,-,-,1.64,-,Cash,1.64,-,-,-,-,-,-,-
86005469,N2518442,Yeo Song Ren,Nav,IF,99,SGD,300,42371,-,-,-,4.36,-,Cash,4.36,-,-,-,-,-,-,-
86005469,N2525688,Tan Wee Wu Gabriel,Nav,IF,99,SGD,200,42371,-,-,-,2.91,-,Cash,2.91,-,-,-,-,-,-,-
86005476,N2516243,Lim Meow Leng,Nav,IF,99,SGD,262.5,42371,-,-,-,7.26,-,CPF-OA,7.26,-,-,-,-,-,-,-
86005477,N2524252,Lim Yee Siang (Lin Yuxiang),Nav,IF,99,SGD,800,42371,-,-,-,21.71,-,Cash,21.71,-,-,-,-,-,-,-
86005477,N2527201,Ang Shanshan,Nav,IF,99,SGD,700,42371,-,-,-,6.78,-,Cash,6.78,-,-,-,-,-,-,-
86005481,N2405093,Ahmad bin Kamsah,Nav,IF,99,SGD,300,42371,-,-,-,8.72,-,Cash,8.72,-,-,-,-,-,-,-
86005483,N2390719,Lee Hui Kim Mrs Karl-Lee Hui Kim,Nav,IF,99,SGD,550,42371,-,-,-,14.93,-,CPF-OA,14.93,-,-,-,-,-,-,-
86005484,N2400171,Chan Kok Keong Vince,Nav,IF,99,SGD,2000,42371,-,-,-,54.32,-,CPF-OA,54.32,-,-,-,-,-,-,-
86005487,N2506783,Lin Xiaoping,Nav,IF,99,SGD,200,42371,-,-,-,7.76,-,Cash,7.76,-,-,-,-,-,-,-
86005487,N2519672,Tan Chin Chin,Nav,IF,99,SGD,200,42371,-,-,-,7.76,-,Cash,7.76,-,-,-,-,-,-,-
86005490,N2492516,Varinporn Lauhapattanapreecha @Vilaiporn,Nav,IF,99,SGD,0,42371,-,-,-,0,-,Cash,0,-,-,-,-,-,-,-
86005490,N2492516,Varinporn Lauhapattanapreecha @Vilaiporn,Nav,IF,99,SGD,0,42371,-,-,-,0,-,Cash,0,-,-,-,-,-,-,-
86005491,N2432860,Lim Poh Eng Catherine,Nav,IF,99,SGD,500,42371,-,-,-,14.54,-,Cash,14.54,-,-,-,-,-,-,-
86005492,N2529160,Yun Caiwen,Nav,IF,99,SGD,400,42371,-,-,-,0.48,-,Cash,0.48,-,-,-,-,-,-,-
86005492,N2547860,Chia Lionel,Nav,IF,99,SGD,80000,42371,-,-,-,768,-,CPF-OA,768,-,-,-,-,-,-,-
86005505,N2372632,Toh Hong Leong,Nav,IF,99,SGD,500,42371,-,-,-,13.58,-,CPF-OA,13.58,-,-,-,-,-,-,-
86005505,N2382321,Kaan Ling Yin Dave,Nav,IF,99,SGD,450,42371,-,-,-,4.36,-,CPF-SA,4.36,-,-,-,-,-,-,-
86005505,N2382330,Kaan Ling Yin Dave,Nav,IF,99,SGD,900,42371,-,-,-,8.72,-,CPF-OA,8.72,-,-,-,-,-,-,-
86005506,N2482452,Lee Yan Ting Cheryl,Nav,IF,99,SGD,1000,42371,-,-,-,9.7,-,CPF-OA,9.7,-,-,-,-,-,-,-
86005506,N2485282,Lin Ziru,Nav,IF,99,SGD,2000,42371,-,-,-,19.4,-,CPF-OA,19.4,-,-,-,-,-,-,-
86005506,N2509290,Tan Ying Xuan,Nav,IF,99,SGD,1000,42371,-,-,-,9.7,-,CPF-OA,9.7,-,-,-,-,-,-,-
86005432,N2513006,Chop Kit Fai,Nav,OF,99,SGD,-,42371,-,-,-,0.69,-,Cash,0.69,-,-,-,-,-,-,-
86005434,N2435411,Son Tung Tran,Nav,OF,99,SGD,-,42371,-,-,-,21.25,-,Cash,21.25,-,-,-,-,-,-,-
86005481,N2480351,Lee Geok Liew,Nav,OF,99,SGD,-,42371,-,-,-,32.28,-,Cash,32.28,-,-,-,-,-,-,-
86005492,N2525768,Newton Heath Lyr Pte Ltd,Nav,OF,99,SGD,-,42371,-,-,-,110.62,-,Cash,110.62,-,-,-,-,-,-,-
86005492,N2527519,Lam Thi Kim Thi,Nav,OF,99,SGD,-,42371,-,-,-,110.39,-,Cash,110.39,-,-,-,-,-,-,-
86005492,N2525773,Newton Heath Lyr Pte Ltd,Nav,OF,99,SGD,-,42371,-,-,-,89.55,-,Cash,89.55,-,-,-,-,-,-,-
86005498,N2475112,Leong Yuet Lin Jenny,Nav,OF,99,SGD,-,42371,-,-,-,5.75,-,Cash,5.75,-,-,-,-,-,-,-
86005513,N0365673,Eng Gek Kuang,Nav,OF,99,SGD,-,42371,-,-,-,18.46,-,CPF-OA,18.46,-,-,-,-,-,-,-
86005513,N0926559,Eng Gek Kuang,Nav,OF,99,SGD,-,42371,-,-,-,6.45,-,CPF-SA,6.45,-,-,-,-,-,-,-
86005513,N2497545,Lau Wai Kiat,Nav,OF,99,SGD,-,42371,-,-,-,6.14,-,Cash,6.14,-,-,-,-,-,-,-