Firm Name,Firm Code,Agent Name,Agent Code,Agent NRIC,Policy Number,Assured Name,Policy Year,Commencement Date,Paid To Date,Policy Term,Payment Term,Plan Description,Plan Code,Flag,Premium Purpose,Policy Issue Date,Transaction Date,Production Month,Production Year,Payment Mode,RP,SP,Non-Linked Premium ,Linked Premium ,HS Premium ,Comm Rate of FYC,FYC,Comm Rate of RYC,RYC,Comm Rate of ORC,ORC,Comm Rate of MOA,MOA,TOTAL Commission,GST,Net Payable
LEGACY FA PTE LTD (86392),86392,THIO PING YANG VINCENT (86447),86447,S7410956Z      ,501-7797159,"LIEW MEI QI, VIRIDIS                              ",1,24-Feb-16,24-Feb-17,67,67,INSPIRE FLEXIPROTECTOR         (MAX COVER)        ,FPMT      ,Basic,     ,24-Feb-16,24-Feb-16,2,2016,A,RP,,0,1200,0,999,984,0,0,0,0,0,0,984,68.88,1052.88
LEGACY FA PTE LTD (86392),86392,THIO PING YANG VINCENT (86447),86447,S7410956Z      ,501-7797167,"LIEW MEI QI, VIRIDIS                              ",1,24-Feb-16,24-Feb-17,6,1,MUM CARE PLUS                                     ,06PNP1    ,Basic,     ,24-Feb-16,24-Feb-16,2,2016,A,,SP,1125.45,0,0,6,67.53,0,0,0,0,0,0,67.53,4.73,72.26
LEGACY FA PTE LTD (86392),86392,HENG ZENG AN (86468),86468,S8938595D      ,501-7800565,"PANG YOUCHAO, JEREMIAS                            ",1,15-Feb-16,15-Feb-17,25,10,AXA EARLY SAVER BASIC 10PAY                       ,10HSN25   ,Basic,     ,15-Feb-16,15-Feb-16,2,2016,A,RP,,3552.5,0,0,50,1776.25,0,0,0,0,0,0,1776.25,124.34,1900.59
LEGACY FA PTE LTD (86392),86392,HENG ZENG AN (86468),86468,S8938595D      ,501-7800565,"PANG YOUCHAO, JEREMIAS                            ",1,15-Feb-16,15-Feb-17,25,10,AXA EARLY SAVER TPD 10PAY                         ,10TPD25   ,Rider,     ,15-Feb-16,15-Feb-16,2,2016,A,RP,,35.77,0,0,50,17.89,0,0,0,0,0,0,17.89,1.25,19.14
LEGACY FA PTE LTD,LEGACY FA PTE LTD,"TANG JIA JIE, NICHOLAS",86427,S8835256D,501-7791582,LOI CHENG KENG SERENE,1,,,99,,,15PULS,,,,,,,,,,2800,,,,,,,,,,,1822.8,127.596,1950.396
LEGACY FA PTE LTD,LEGACY FA PTE LTD,"TANG JIA JIE, NICHOLAS",86427,S8835256D,501-7791582,LOI CHENG KENG SERENE,1,,,99,,,15PULS,,,,,,,,,,-2800,,,,,,,,,,,-1822.8,-127.596,-1950.396