REPORTING TO|AGENT NO|AGENT NAME|DESCRIPTION|POLICY NUMBER|POLICY HOLDER|POLICYHOLDER NRIC NUMBER|POLICY TYPE|COMPONENT CODE|POLICY TERM|CONTRACT CURRENCY|SUM INSURED|INCEPT DATE|INSTALLMENT FROM DATE|BILLING FREQUENCY|POLICY EXPIRY DATE|GROSS PREMIUM PAID| NETT PREMIUM PAID |GROSS PREMIUM INCLUDE GST AMT|NETT PREMIUM INCLUDE GST AMT|PREMIUM WITHOUT COMMISSION|PREMIUM COMVERSION RATE|PAYMENT CURRENCY|COMMISSION/OR|COMMISSION ADJUSTMENT AMT|COMMISSION RUN DATE|COMMISSION CONVERSION RATE|CERTIFICATE NUMBER|TRANSACTION CODE|TRANSACTION DESC|PREMIUM TERM|DATE OF ISSUE
60014805|60014805|Chen Jianhong|First Year|E4921238|Trilochan Kumar Gupta                                                 |-|ES8|HNFW|56|SGD|5000|20150906|-|-|-|-|1993.65|-|-|-|-|-|-|-|-|-|-|-|-|-|-
60014809|60014809|Marni bte Rahmat|First Year|21166175|Roziah bte A Raja                                                     |-|MSP|MP1C|51|SGD|0|20160301|-|-|-|-|150.02|-|-|-|-|-|-|-|-|-|-|-|-|-|-
60014809|60014809|Marni bte Rahmat|First Year|27821167|Lau Ee Lian                                                           |-|MSP|MP2C|98|SGD|0|20160201|-|-|-|-|149.53|-|-|-|-|-|-|-|-|-|-|-|-|-|-
60014809|60014809|Marni bte Rahmat|First Year|27832077|Ho Yue Mei                                                            |-|MYS|MSI1|73|SGD|0|20160205|-|-|-|-|155.92|-|-|-|-|-|-|-|-|-|-|-|-|-|-
60014810|60014810|Abdul Jalil bin Abdul Razak|First Year|6041089|Vidovic Dragoslav                                                     |-|CPW|ENTW|30|SGD|1000000|20160123|-|-|-|-|1427.6|-|-|-|-|-|-|-|-|-|-|-|-|-|-
60014810|60014810|Abdul Jalil bin Abdul Razak|First Year|6041089|Vidovic Dragoslav                                                     |-|CPW|TPAK|30|SGD|1000000|20160123|-|-|-|-|264|-|-|-|-|-|-|-|-|-|-|-|-|-|-
60014810|60014810|Abdul Jalil bin Abdul Razak|First Year|6045899|Sreenilayam Sreedhar Manju                                            |-|CPW|ENTW|23|SGD|500000|20160223|-|-|-|-|73.4|-|-|-|-|-|-|-|-|-|-|-|-|-|-
60014810|60014810|Abdul Jalil bin Abdul Razak|First Year|27860475|Abdul Jalil bin Abdul Razak                                           |-|MYS|MSI1|98|SGD|0|20160222|-|-|-|-|138.66|-|-|-|-|-|-|-|-|-|-|-|-|-|-
60014810|60014810|Abdul Jalil bin Abdul Razak|First Year|27860489|Abdul Jalil bin Abdul Razak                                           |-|MSP|MP1C|98|SGD|0|20160222|-|-|-|-|309.35|-|-|-|-|-|-|-|-|-|-|-|-|-|-
60014811|60014811|Faridah bte Hassan|First Year|27837767|Sani bin Paimon                                                       |-|MYS|MSI2|50|SGD|0|20160215|-|-|-|-|308.77|-|-|-|-|-|-|-|-|-|-|-|-|-|-
60014811|60014811|Faridah bte Hassan|First Year|27837785|Sani bin Paimon                                                       |-|MSP|MP2C|50|SGD|0|20160215|-|-|-|-|341.12|-|-|-|-|-|-|-|-|-|-|-|-|-|-
60014813|60014813|Hoe Sioh Fong|First Year|27836774|Eng Sze Hui                                                           |-|MYS|MSI1|62|SGD|0|20160222|-|-|-|-|259.97|-|-|-|-|-|-|-|-|-|-|-|-|-|-
60014813|60014813|Hoe Sioh Fong|First Year|27836784|Eng Sze Hui                                                           |-|MSP|MP1C|62|SGD|0|20160222|-|-|-|-|358.88|-|-|-|-|-|-|-|-|-|-|-|-|-|-
60014813|60014813|Hoe Sioh Fong|First Year|27848292|Viloria Fidel Pedro                                                   |-|MSP|MP1C|60|SGD|0|20160301|-|-|-|-|330.45|-|-|-|-|-|-|-|-|-|-|-|-|-|-
60014813|60014813|Hoe Sioh Fong|First Year|27848304|Viloria Myla Pimentel                                                 |-|MSP|MP1C|59|SGD|0|20160301|-|-|-|-|330.45|-|-|-|-|-|-|-|-|-|-|-|-|-|-
60014814|60014814|Lim Chee Wei Clive|First Year|6023344|Zulkifly bin Jaffar                                                   |-|CPW|ENTW|30|SGD|1000000|20160114|-|-|-|-|328.6|-|-|-|-|-|-|-|-|-|-|-|-|-|-
60014814|60014814|Lim Chee Wei Clive|First Year|6023344|Zulkifly bin Jaffar                                                   |-|CPW|HNMQ|30|SGD|2293.6|20160114|-|-|-|-|30.7|-|-|-|-|-|-|-|-|-|-|-|-|-|-
60014814|60014814|Lim Chee Wei Clive|First Year|6023344|Zulkifly bin Jaffar                                                   |-|CPW|TPAK|29|SGD|1000000|20160114|-|-|-|-|62.8|-|-|-|-|-|-|-|-|-|-|-|-|-|-
60014816|60014816|Chow Siew Le|First Year|6025665|Teo Cheng Ean Colin                                                   |-|CPW|CIAJ|40|SGD|500000|20151219|-|-|-|-|852|-|-|-|-|-|-|-|-|-|-|-|-|-|-
60014816|60014816|Chow Siew Le|First Year|6025665|Teo Cheng Ean Colin                                                   |-|CPW|ENTW|40|SGD|1000000|20151219|-|-|-|-|1142.1|-|-|-|-|-|-|-|-|-|-|-|-|-|-
60014816|60014816|Chow Siew Le|First Year|6025665|Teo Cheng Ean Colin                                                   |-|CPW|TPAK|40|SGD|1000000|20151219|-|-|-|-|192|-|-|-|-|-|-|-|-|-|-|-|-|-|-
60014817|60014817|Koh Khai Leng|First Year|6034138|R Sandhia                                                             |-|MLF|CIAO|74|SGD|100000|20160126|-|-|-|-|38.6|-|-|-|-|-|-|-|-|-|-|-|-|-|-
60014817|60014817|Koh Khai Leng|First Year|6034138|R Sandhia                                                             |-|MLF|HML3|74|SGD|100000|20160126|-|-|-|-|126.8|-|-|-|-|-|-|-|-|-|-|-|-|-|-
60014817|60014817|Koh Khai Leng|First Year|6034138|R Sandhia                                                             |-|MLF|TPM3|45|SGD|100000|20160126|-|-|-|-|2.35|-|-|-|-|-|-|-|-|-|-|-|-|-|-
60014817|60014817|Koh Khai Leng|First Year|6034142|Ee Hui Mei Valerie                                                    |-|MLF|CIAO|73|SGD|100000|20160202|-|-|-|-|40.45|-|-|-|-|-|-|-|-|-|-|-|-|-|-
60014817|60014817|Koh Khai Leng|First Year|6034142|Ee Hui Mei Valerie                                                    |-|MLF|HML3|73|SGD|100000|20160202|-|-|-|-|129.75|-|-|-|-|-|-|-|-|-|-|-|-|-|-
60014817|60014817|Koh Khai Leng|First Year|6034142|Ee Hui Mei Valerie                                                    |-|MLF|TPM3|44|SGD|100000|20160202|-|-|-|-|2.4|-|-|-|-|-|-|-|-|-|-|-|-|-|-
60014817|60014817|Koh Khai Leng|First Year|20200714|Jonathan Villamin Cano                                                |-|MSP|MP2C|61|SGD|0|20160301|-|-|-|-|196.13|-|-|-|-|-|-|-|-|-|-|-|-|-|-
60014817|60014817|Koh Khai Leng|First Year|27830225|R Sandhia                                                             |-|MYS|MSI1|73|SGD|0|20160205|-|-|-|-|155.92|-|-|-|-|-|-|-|-|-|-|-|-|-|-
60014818|60014818|Lim Kai Li Jane|First Year|6032622|Wong Zhi Wai                                                          |-|MLF|CIAO|65|SGD|150000|20160205|-|-|-|-|71.55|-|-|-|-|-|-|-|-|-|-|-|-|-|-
60014818|60014818|Lim Kai Li Jane|First Year|6032622|Wong Zhi Wai                                                          |-|MLF|HML3|65|SGD|150000|20160205|-|-|-|-|264.75|-|-|-|-|-|-|-|-|-|-|-|-|-|-
60014818|60014818|Lim Kai Li Jane|First Year|6032622|Wong Zhi Wai                                                          |-|MLF|TPM3|36|SGD|150000|20160205|-|-|-|-|7.05|-|-|-|-|-|-|-|-|-|-|-|-|-|-
60014822|60014822|Ong Mei Man|First Year|27818721|Roshidah bte Mohamad Noor                                             |-|MYS|MSI2|50|SGD|0|20160201|-|-|-|-|308.77|-|-|-|-|-|-|-|-|-|-|-|-|-|-
60014822|60014822|Ong Mei Man|First Year|27818730|Roshidah bte Mohamad Noor                                             |-|MSP|MP2C|50|SGD|0|20160201|-|-|-|-|341.12|-|-|-|-|-|-|-|-|-|-|-|-|-|-
60014824|60014824|Ong Hui Mei|First Year|E4687071|Lim Yong Lee                                                          |-|ES8|HNFW|50|SGD|1200|20160225|-|-|-|-|557.05|-|-|-|-|-|-|-|-|-|-|-|-|-|-
60014824|60014824|Ong Hui Mei|First Year|E4929986|Voo Yee Ling                                                          |-|ES6|HPFU|58|SGD|1000|20160225|-|-|-|-|524.25|-|-|-|-|-|-|-|-|-|-|-|-|-|-
60014824|60014824|Ong Hui Mei|First Year|E4960644|Tan Swan Kit Magellan                                                 |-|ES6|HPFU|56|SGD|1200|20160225|-|-|-|-|542.45|-|-|-|-|-|-|-|-|-|-|-|-|-|-
60014824|60014824|Ong Hui Mei|First Year|27760095|Kueh Lee Geok                                                         |-|MYS|MSI1|59|SGD|0|20160113|-|-|-|-|259.97|-|-|-|-|-|-|-|-|-|-|-|-|-|-
60014824|60014824|Ong Hui Mei|First Year|27760101|Kueh Lee Geok                                                         |-|MSP|MP1C|59|SGD|0|20160113|-|-|-|-|358.88|-|-|-|-|-|-|-|-|-|-|-|-|-|-
60014825|60014825|Gabriel Francis Joseph|First Year|27856484|Sheela Kumari Devi                                                    |-|MYS|MSI1|98|SGD|0|20160222|-|-|-|-|138.66|-|-|-|-|-|-|-|-|-|-|-|-|-|-
60014825|60014825|Gabriel Francis Joseph|First Year|27856505|Sheela Kumari Devi                                                    |-|MSP|MP1C|98|SGD|0|20160222|-|-|-|-|309.35|-|-|-|-|-|-|-|-|-|-|-|-|-|-
60014827|60014827|Sam Vai Sun|First Year|27833944|Ng Chong Wei Shaun                                                    |-|MYS|MSI1|98|SGD|0|20160205|-|-|-|-|138.66|-|-|-|-|-|-|-|-|-|-|-|-|-|-
60014827|60014827|Sam Vai Sun|First Year|27833954|Ng Chong Wei Shaun                                                    |-|MSP|MP1C|98|SGD|0|20160205|-|-|-|-|309.35|-|-|-|-|-|-|-|-|-|-|-|-|-|-
60014830|60014830|Lim Chee Yong|First Year|6041098|Say Wan Ling Jennifer                                                 |-|CPW|CIAJ|32|SGD|200000|20160205|-|-|-|-|36.6|-|-|-|-|-|-|-|-|-|-|-|-|-|-
60014830|60014830|Lim Chee Yong|First Year|6041098|Say Wan Ling Jennifer                                                 |-|CPW|ENTW|32|SGD|1000000|20160205|-|-|-|-|65.15|-|-|-|-|-|-|-|-|-|-|-|-|-|-
60014830|60014830|Lim Chee Yong|First Year|6041098|Say Wan Ling Jennifer                                                 |-|CPW|TPAK|32|SGD|1000000|20160205|-|-|-|-|13.65|-|-|-|-|-|-|-|-|-|-|-|-|-|-
60014830|60014830|Lim Chee Yong|First Year|6043587|Ithihas Mangalore Nagaraj                                             |-|CPW|CIAJ|30|SGD|400000|20160229|-|-|-|-|53.8|-|-|-|-|-|-|-|-|-|-|-|-|-|-
60014830|60014830|Lim Chee Yong|First Year|6043587|Ithihas Mangalore Nagaraj                                             |-|CPW|ENTW|30|SGD|1000000|20160229|-|-|-|-|72.5|-|-|-|-|-|-|-|-|-|-|-|-|-|-
60014830|60014830|Lim Chee Yong|First Year|6043587|Ithihas Mangalore Nagaraj                                             |-|CPW|TPAK|30|SGD|500000|20160229|-|-|-|-|5.15|-|-|-|-|-|-|-|-|-|-|-|-|-|-
60014830|60014830|Lim Chee Yong|First Year|22846651|Pang Yuanyuan                                                         |-|MYS|MSI1|71|SGD|0|20080201|-|-|-|-|259.97|-|-|-|-|-|-|-|-|-|-|-|-|-|-
60014830|60014830|Lim Chee Yong|First Year|27818786|Lin Daoji Michael                                                     |-|MYS|MSI1|67|SGD|0|20160201|-|-|-|-|259.97|-|-|-|-|-|-|-|-|-|-|-|-|-|-
60014830|60014830|Lim Chee Yong|First Year|27818795|Lin Daoji Michael                                                     |-|MSP|MP1A|67|SGD|0|20160201|-|-|-|-|107.48|-|-|-|-|-|-|-|-|-|-|-|-|-|-
60014830|60014830|Lim Chee Yong|First Year|27818801|Jayshree Ramesh Khemlani                                              |-|MYS|MSI2|79|SGD|0|20160201|-|-|-|-|52.49|-|-|-|-|-|-|-|-|-|-|-|-|-|-
60014830|60014830|Lim Chee Yong|First Year|27818810|Jayshree Ramesh Khemlani                                              |-|MSP|MP2C|79|SGD|0|20160201|-|-|-|-|151.78|-|-|-|-|-|-|-|-|-|-|-|-|-|-
60014831|60014831|Ang Yung Hsien Sandia|First Year|27836797|Lau Seng Han Sebastian                                                |-|MYS|MSI1|64|SGD|0|20160205|-|-|-|-|259.97|-|-|-|-|-|-|-|-|-|-|-|-|-|-
60014831|60014831|Ang Yung Hsien Sandia|First Year|27836809|Lau Seng Han Sebastian                                                |-|MSP|MP1C|64|SGD|0|20160205|-|-|-|-|358.88|-|-|-|-|-|-|-|-|-|-|-|-|-|-
60014832|60014832|Wu Xiaoping Martin|First Year|6041772|Mong Dong Peng                                                        |-|MB6|HCC2|20|SGD|100000|20160223|-|-|-|-|8040|-|-|-|-|-|-|-|-|-|-|-|-|-|-
60014832|60014832|Wu Xiaoping Martin|First Year|6041781|Mong Dong Peng                                                        |-|CPE|CIAQ|10|SGD|150000|20160216|-|-|-|-|208.5|-|-|-|-|-|-|-|-|-|-|-|-|-|-
60014832|60014832|Wu Xiaoping Martin|First Year|6041781|Mong Dong Peng                                                        |-|CPE|ENTF|10|SGD|150000|20160216|-|-|-|-|156|-|-|-|-|-|-|-|-|-|-|-|-|-|-
60014832|60014832|Wu Xiaoping Martin|First Year|6041781|Mong Dong Peng                                                        |-|CPE|TPAD|10|SGD|150000|20160216|-|-|-|-|21|-|-|-|-|-|-|-|-|-|-|-|-|-|-
60014833|60014833|Luo Xueling|First Year|E4960335|Lam Lai Wah Mildred                                                   |-|ES8|HNFW|52|SGD|2000|20160224|-|-|-|-|1184.1|-|-|-|-|-|-|-|-|-|-|-|-|-|-
60014833|60014833|Luo Xueling|First Year|27832110|Lee Liat Yeow                                                         |-|MYS|MSI1|55|SGD|0|20160205|-|-|-|-|436.74|-|-|-|-|-|-|-|-|-|-|-|-|-|-
60014833|60014833|Luo Xueling|First Year|27832124|Lee Liat Yeow                                                         |-|MSP|MP1C|55|SGD|0|20160205|-|-|-|-|358.88|-|-|-|-|-|-|-|-|-|-|-|-|-|-
60014833|60014833|Luo Xueling|First Year|27834097|Chan Mee Keow                                                         |-|MSP|MP1C|73|SGD|0|20160301|-|-|-|-|325.28|-|-|-|-|-|-|-|-|-|-|-|-|-|-
60014837|60014837|Kang Wanshi Winny|First Year|E4791414|Lee Joo Tong John                                                     |-|ES8|HNFW|58|SGD|1800|20160225|-|-|-|-|626.3|-|-|-|-|-|-|-|-|-|-|-|-|-|-
60014837|60014837|Kang Wanshi Winny|First Year|6024266|Vaidyanathan Narayanan                                                |-|CPW|ENTW|31|SGD|1500000|20160125|-|-|-|-|4342.6|-|-|-|-|-|-|-|-|-|-|-|-|-|-
60014837|60014837|Kang Wanshi Winny|First Year|6024266|Vaidyanathan Narayanan                                                |-|CPW|HNMQ|31|SGD|5026.56|20160125|-|-|-|-|550.6|-|-|-|-|-|-|-|-|-|-|-|-|-|-
60014837|60014837|Kang Wanshi Winny|First Year|6024266|Vaidyanathan Narayanan                                                |-|CPW|TPAK|26|SGD|1500000|20160125|-|-|-|-|684|-|-|-|-|-|-|-|-|-|-|-|-|-|-
60014837|60014837|Kang Wanshi Winny|First Year|26003802|Koh Lay Tin                                                           |-|MSP|MP1C|39|SGD|0|20160201|-|-|-|-|444.02|-|-|-|-|-|-|-|-|-|-|-|-|-|-
60014837|60014837|Kang Wanshi Winny|First Year|27833921|Thomas Axel Jonas Celinder                                            |-|MYS|MSI1|62|SGD|0|20160205|-|-|-|-|259.97|-|-|-|-|-|-|-|-|-|-|-|-|-|-
60014837|60014837|Kang Wanshi Winny|First Year|27833930|Thomas Axel Jonas Celinder                                            |-|MSP|MP1C|62|SGD|0|20160205|-|-|-|-|358.88|-|-|-|-|-|-|-|-|-|-|-|-|-|-
60014839|60014839|Ang Wee Ping|First Year|27847174|Lee Tong Yih Eric                                                     |-|MSP|MP2C|98|SGD|0|20160215|-|-|-|-|149.53|-|-|-|-|-|-|-|-|-|-|-|-|-|-
60014840|60014840|Chan Shi Hui Cindy|First Year|6035837|Zeng Shimin                                                           |-|CPW|CIAJ|65|SGD|150000|20160214|-|-|-|-|435.6|-|-|-|-|-|-|-|-|-|-|-|-|-|-
60014840|60014840|Chan Shi Hui Cindy|First Year|6035837|Zeng Shimin                                                           |-|CPW|ENTW|65|SGD|1000000|20160214|-|-|-|-|2330.65|-|-|-|-|-|-|-|-|-|-|-|-|-|-
60014840|60014840|Chan Shi Hui Cindy|First Year|6035837|Zeng Shimin                                                           |-|CPW|TPAK|40|SGD|1000000|20160214|-|-|-|-|208|-|-|-|-|-|-|-|-|-|-|-|-|-|-
60014840|60014840|Chan Shi Hui Cindy|First Year|6035855|Lai Faat Sun                                                          |-|CPW|CIAJ|47|SGD|100000|20160203|-|-|-|-|24.6|-|-|-|-|-|-|-|-|-|-|-|-|-|-
60014840|60014840|Chan Shi Hui Cindy|First Year|6035855|Lai Faat Sun                                                          |-|CPW|ENTW|47|SGD|1000000|20160203|-|-|-|-|180.15|-|-|-|-|-|-|-|-|-|-|-|-|-|-
60014840|60014840|Chan Shi Hui Cindy|First Year|6035855|Lai Faat Sun                                                          |-|CPW|TPAK|37|SGD|1000000|20160203|-|-|-|-|19.8|-|-|-|-|-|-|-|-|-|-|-|-|-|-
60014840|60014840|Chan Shi Hui Cindy|First Year|27721250|Antony Suwaty                                                         |-|MSP|MP2C|98|SGD|0|20160201|-|-|-|-|149.53|-|-|-|-|-|-|-|-|-|-|-|-|-|-
60014840|60014840|Chan Shi Hui Cindy|First Year|27721250|Antony Suwaty                                                         |-|MSP|MP2C|97|SGD|0|20160201|-|-|-|-|149.53|-|-|-|-|-|-|-|-|-|-|-|-|-|-
60014840|60014840|Chan Shi Hui Cindy|First Year|27721250|Antony Suwaty                                                         |-|MSP|MP2C|97|SGD|0|20160201|-|-|-|-|-149.53|-|-|-|-|-|-|-|-|-|-|-|-|-|-
60014840|60014840|Chan Shi Hui Cindy|First Year|27787227|Ho Meibao Valentina                                                   |-|MYS|MSI1|77|SGD|0|20160201|-|-|-|-|155.92|-|-|-|-|-|-|-|-|-|-|-|-|-|-
60014840|60014840|Chan Shi Hui Cindy|First Year|27787237|Ho Meibao Valentina                                                   |-|MSP|MP1C|77|SGD|0|20160201|-|-|-|-|353.27|-|-|-|-|-|-|-|-|-|-|-|-|-|-
60014840|60014840|Chan Shi Hui Cindy|First Year|27787246|Ho Meiying Beatrice                                                   |-|MYS|MSI1|75|SGD|0|20160201|-|-|-|-|155.92|-|-|-|-|-|-|-|-|-|-|-|-|-|-
60014840|60014840|Chan Shi Hui Cindy|First Year|27787255|Ho Meiying Beatrice                                                   |-|MSP|MP1C|75|SGD|0|20160201|-|-|-|-|353.27|-|-|-|-|-|-|-|-|-|-|-|-|-|-
60014840|60014840|Chan Shi Hui Cindy|First Year|27787255|Ho Meiying Beatrice                                                   |-|MSP|MP1C|74|SGD|0|20160201|-|-|-|-|353.27|-|-|-|-|-|-|-|-|-|-|-|-|-|-
60014840|60014840|Chan Shi Hui Cindy|First Year|27787255|Ho Meiying Beatrice                                                   |-|MSP|MP1C|74|SGD|0|20160201|-|-|-|-|-353.27|-|-|-|-|-|-|-|-|-|-|-|-|-|-
60014840|60014840|Chan Shi Hui Cindy|First Year|27848327|Hu Ning                                                               |-|MSP|MP1C|71|SGD|0|20160222|-|-|-|-|353.27|-|-|-|-|-|-|-|-|-|-|-|-|-|-
60014841|60014841|Seah Chin Kiat Desmond|First Year|27830350|Jebie Kananggar Ganda                                                 |-|MYS|MSN1|98|SGD|0|20160205|-|-|-|-|260.16|-|-|-|-|-|-|-|-|-|-|-|-|-|-
60014841|60014841|Seah Chin Kiat Desmond|First Year|27832044|Jebie Kananggar Ganda                                                 |-|MSP|MP1C|98|SGD|0|20160205|-|-|-|-|309.35|-|-|-|-|-|-|-|-|-|-|-|-|-|-
60014841|60014841|Seah Chin Kiat Desmond|First Year|27844649|Tan La Hong                                                           |-|MYS|MSI1|52|SGD|0|20160215|-|-|-|-|542.06|-|-|-|-|-|-|-|-|-|-|-|-|-|-
60014841|60014841|Seah Chin Kiat Desmond|First Year|27844658|Tan La Hong                                                           |-|MSP|MP1C|52|SGD|0|20160215|-|-|-|-|358.88|-|-|-|-|-|-|-|-|-|-|-|-|-|-
60014844|60014844|Tay Ngiang Leng Shireen|First Year|E4967003|Tay Ngiang Leng Shireen                                               |-|ES8|HNFW|58|SGD|2000|20160225|-|-|-|-|915.75|-|-|-|-|-|-|-|-|-|-|-|-|-|-
60014844|60014844|Tay Ngiang Leng Shireen|First Year|6035814|Zhong Xiecheng Jason                                                  |-|CPW|CIAJ|33|SGD|300000|20150720|-|-|-|-|532.8|-|-|-|-|-|-|-|-|-|-|-|-|-|-
60014844|60014844|Tay Ngiang Leng Shireen|First Year|6035814|Zhong Xiecheng Jason                                                  |-|CPW|ENTW|33|SGD|1000000|20150720|-|-|-|-|956.2|-|-|-|-|-|-|-|-|-|-|-|-|-|-
60014844|60014844|Tay Ngiang Leng Shireen|First Year|6035814|Zhong Xiecheng Jason                                                  |-|CPW|TPAK|33|SGD|1000000|20150720|-|-|-|-|152|-|-|-|-|-|-|-|-|-|-|-|-|-|-
60014844|60014844|Tay Ngiang Leng Shireen|First Year|6038394|Tan Shuyi Corin                                                       |-|CPW|CIAJ|32|SGD|300000|20150911|-|-|-|-|643.2|-|-|-|-|-|-|-|-|-|-|-|-|-|-
60014844|60014844|Tay Ngiang Leng Shireen|First Year|6038394|Tan Shuyi Corin                                                       |-|CPW|ENTW|32|SGD|1000000|20150911|-|-|-|-|763.6|-|-|-|-|-|-|-|-|-|-|-|-|-|-
60014844|60014844|Tay Ngiang Leng Shireen|First Year|6038394|Tan Shuyi Corin                                                       |-|CPW|TPAK|32|SGD|1000000|20150911|-|-|-|-|160|-|-|-|-|-|-|-|-|-|-|-|-|-|-
60014844|60014844|Tay Ngiang Leng Shireen|First Year|6041768|Loh Kwok Kong Jason                                                   |-|MLD|CIAM|93|SGD|100000|20160223|-|-|-|-|277|-|-|-|-|-|-|-|-|-|-|-|-|-|-
60014844|60014844|Tay Ngiang Leng Shireen|First Year|6041768|Loh Kwok Kong Jason                                                   |-|MLD|HML1|93|SGD|100000|20160223|-|-|-|-|1251|-|-|-|-|-|-|-|-|-|-|-|-|-|-
60014844|60014844|Tay Ngiang Leng Shireen|First Year|6041768|Loh Kwok Kong Jason                                                   |-|MLD|HNMU|15|SGD|1549|20160223|-|-|-|-|42.45|-|-|-|-|-|-|-|-|-|-|-|-|-|-
60014844|60014844|Tay Ngiang Leng Shireen|First Year|6041768|Loh Kwok Kong Jason                                                   |-|MLD|HNM6|15|SGD|1549|20160223|-|-|-|-|32.7|-|-|-|-|-|-|-|-|-|-|-|-|-|-
60014844|60014844|Tay Ngiang Leng Shireen|First Year|6041768|Loh Kwok Kong Jason                                                   |-|MLD|TPM1|64|SGD|100000|20160223|-|-|-|-|21|-|-|-|-|-|-|-|-|-|-|-|-|-|-
60014844|60014844|Tay Ngiang Leng Shireen|First Year|6048084|Oh Li Chen Elizabeth                                                  |-|RE1|HCB6|24|SGD|1000|20151201|-|-|-|-|3072.9|-|-|-|-|-|-|-|-|-|-|-|-|-|-
60014844|60014844|Tay Ngiang Leng Shireen|First Year|25168004|Kamal bin Jupri                                                       |-|MSP|MP2C|90|SGD|0|20160201|-|-|-|-|24.51|-|-|-|-|-|-|-|-|-|-|-|-|-|-
60014844|60014844|Tay Ngiang Leng Shireen|First Year|27825617|Chen Boyang                                                           |-|MYS|MSI1|70|SGD|0|20160205|-|-|-|-|155.92|-|-|-|-|-|-|-|-|-|-|-|-|-|-
60014844|60014844|Tay Ngiang Leng Shireen|First Year|27825627|Chen Boyang                                                           |-|MSP|MP1A|70|SGD|0|20160205|-|-|-|-|101.87|-|-|-|-|-|-|-|-|-|-|-|-|-|-
60014844|60014844|Tay Ngiang Leng Shireen|First Year|27825668|Kamal bin Jupri                                                       |-|MYS|MSI2|96|SGD|0|20160205|-|-|-|-|52.49|-|-|-|-|-|-|-|-|-|-|-|-|-|-
60014844|60014844|Tay Ngiang Leng Shireen|First Year|27825672|Kamal bin Jupri                                                       |-|MSP|MP2A|96|SGD|0|20160205|-|-|-|-|32.15|-|-|-|-|-|-|-|-|-|-|-|-|-|-
60014844|60014844|Tay Ngiang Leng Shireen|First Year|27826898|Tan Han Hui Jenson                                                    |-|MYS|MSI2|98|SGD|0|20160205|-|-|-|-|78.4|-|-|-|-|-|-|-|-|-|-|-|-|-|-
60014844|60014844|Tay Ngiang Leng Shireen|First Year|27826914|Tan Han Hui Jenson                                                    |-|MSP|MP2C|98|SGD|0|20160205|-|-|-|-|189.72|-|-|-|-|-|-|-|-|-|-|-|-|-|-
60014846|60014846|Chan Jun Yuan Dennis|First Year|27851727|Ng Ging Meng                                                          |-|MSP|MP1C|98|SGD|0|20160222|-|-|-|-|309.35|-|-|-|-|-|-|-|-|-|-|-|-|-|-
60014846|60014846|Chan Jun Yuan Dennis|First Year|27856390|Ng Ging Meng                                                          |-|MYS|MSI1|98|SGD|0|20160222|-|-|-|-|138.66|-|-|-|-|-|-|-|-|-|-|-|-|-|-
60014847|60014847|Chelliah Leslie Anthony|First Year|27874802|Ng Hui Ling Lynn                                                      |-|MSP|MP1C|69|SGD|0|20160301|-|-|-|-|58.88|-|-|-|-|-|-|-|-|-|-|-|-|-|-
60014848|60014848|Tang Jia Jie Nicholas|First Year|E4960326|Sivakumar s/o Vithalingam                                             |-|ES8|HNFW|53|SGD|1300|20160225|-|-|-|-|537|-|-|-|-|-|-|-|-|-|-|-|-|-|-
60014849|60014849|Tan Chuan Sheng|First Year|E4965959|Toh Tong Nee                                                          |-|ES8|HNFW|54|SGD|1400|20160225|-|-|-|-|560.25|-|-|-|-|-|-|-|-|-|-|-|-|-|-
60014849|60014849|Tan Chuan Sheng|First Year|E4965978|Low Ooi Meng Eugene                                                   |-|ES8|HNFW|57|SGD|1500|20160225|-|-|-|-|535|-|-|-|-|-|-|-|-|-|-|-|-|-|-
60014849|60014849|Tan Chuan Sheng|First Year|E4965991|Chin Yin Fun                                                          |-|ES8|HNFW|55|SGD|1100|20160225|-|-|-|-|527.7|-|-|-|-|-|-|-|-|-|-|-|-|-|-
60014849|60014849|Tan Chuan Sheng|First Year|E4976304|Khoo Phoi Ling                                                        |-|ES8|HNFW|56|SGD|1100|20160225|-|-|-|-|507|-|-|-|-|-|-|-|-|-|-|-|-|-|-
60014849|60014849|Tan Chuan Sheng|First Year|E4976345|Soh Lay Hong                                                          |-|ES8|HNFW|48|SGD|900|20160225|-|-|-|-|553.7|-|-|-|-|-|-|-|-|-|-|-|-|-|-
60014849|60014849|Tan Chuan Sheng|First Year|E4976439|Wee Kim Huat                                                          |-|ES8|HNFW|47|SGD|1000|20160225|-|-|-|-|510.95|-|-|-|-|-|-|-|-|-|-|-|-|-|-
60014851|60014851|Chua Shu Mei|First Year|6035519|Chan Dione Yiptong                                                    |-|CPW|CIAJ|33|SGD|100000|20160127|-|-|-|-|17.35|-|-|-|-|-|-|-|-|-|-|-|-|-|-
60014851|60014851|Chua Shu Mei|First Year|6035519|Chan Dione Yiptong                                                    |-|CPW|CIE5|33|SGD|200000|20160127|-|-|-|-|124.1|-|-|-|-|-|-|-|-|-|-|-|-|-|-
60014851|60014851|Chua Shu Mei|First Year|6035519|Chan Dione Yiptong                                                    |-|CPW|ENTW|33|SGD|1000000|20160127|-|-|-|-|62.35|-|-|-|-|-|-|-|-|-|-|-|-|-|-
60014851|60014851|Chua Shu Mei|First Year|6035519|Chan Dione Yiptong                                                    |-|CPW|TPAK|33|SGD|1000000|20160127|-|-|-|-|13|-|-|-|-|-|-|-|-|-|-|-|-|-|-
60014854|60014854|Yap Wei Quan Joshua Leslie|First Year|27849918|Long See Yong                                                         |-|MYS|MSI3|33|SGD|0|20160222|-|-|-|-|651.94|-|-|-|-|-|-|-|-|-|-|-|-|-|-
60014858|60014858|Soh Ai Lay Shyan|First Year|27836818|John Fernandis                                                        |-|MYS|MSI2|44|SGD|0|20160205|-|-|-|-|425.06|-|-|-|-|-|-|-|-|-|-|-|-|-|-
60014858|60014858|Soh Ai Lay Shyan|First Year|27836822|John Fernandis                                                        |-|MSP|MP2C|44|SGD|0|20160205|-|-|-|-|379.44|-|-|-|-|-|-|-|-|-|-|-|-|-|-
60014858|60014858|Soh Ai Lay Shyan|First Year|27841162|Jinu Joseph                                                           |-|MYS|MSN2|98|SGD|0|20160215|-|-|-|-|199.9|-|-|-|-|-|-|-|-|-|-|-|-|-|-
60014858|60014858|Soh Ai Lay Shyan|First Year|27841171|Jinu Joseph                                                           |-|MYS|MSN2|72|SGD|0|20160215|-|-|-|-|271.96|-|-|-|-|-|-|-|-|-|-|-|-|-|-
60014858|60014858|Soh Ai Lay Shyan|First Year|27841229|Jinu Joseph                                                           |-|MSP|MP2C|98|SGD|0|20160215|-|-|-|-|189.72|-|-|-|-|-|-|-|-|-|-|-|-|-|-
60014858|60014858|Soh Ai Lay Shyan|First Year|27841238|Jinu Joseph                                                           |-|MSP|MP2C|72|SGD|0|20160215|-|-|-|-|222.44|-|-|-|-|-|-|-|-|-|-|-|-|-|-
60014858|60014858|Soh Ai Lay Shyan|First Year|27860504|Mohammad Haroon Rafiq Sindhu                                          |-|MYS|MSI1|98|SGD|0|20160222|-|-|-|-|138.66|-|-|-|-|-|-|-|-|-|-|-|-|-|-
60014860|60014860|Chua Ser Chee|First Year|E4787227|Chua Hang Piau                                                        |-|ES8|HNFW|42|SGD|1200|20151104|-|-|-|-|815.25|-|-|-|-|-|-|-|-|-|-|-|-|-|-
60014860|60014860|Chua Ser Chee|First Year|6041104|Rathinasamy Rajesh                                                    |-|CE1|CEP2|21|SGD|70000|20160211|-|-|-|-|6475|-|-|-|-|-|-|-|-|-|-|-|-|-|-
60014860|60014860|Chua Ser Chee|First Year|6041104|Rathinasamy Rajesh                                                    |-|CE1|HNMV|10|SGD|6475|20160211|-|-|-|-|110.75|-|-|-|-|-|-|-|-|-|-|-|-|-|-
60014860|60014860|Chua Ser Chee|First Year|6041104|Rathinasamy Rajesh                                                    |-|CE1|HNRS|10|SGD|6475|20160211|-|-|-|-|101.7|-|-|-|-|-|-|-|-|-|-|-|-|-|-
60014860|60014860|Chua Ser Chee|First Year|6044444|Ho Hoon How                                                           |-|MLD|CIAM|98|SGD|100000|20160222|-|-|-|-|296|-|-|-|-|-|-|-|-|-|-|-|-|-|-
60014860|60014860|Chua Ser Chee|First Year|6044444|Ho Hoon How                                                           |-|MLD|HML1|98|SGD|100000|20160222|-|-|-|-|1223|-|-|-|-|-|-|-|-|-|-|-|-|-|-
60014860|60014860|Chua Ser Chee|First Year|6044444|Ho Hoon How                                                           |-|MLD|HNMU|15|SGD|1542|20160222|-|-|-|-|31|-|-|-|-|-|-|-|-|-|-|-|-|-|-
60014860|60014860|Chua Ser Chee|First Year|6044444|Ho Hoon How                                                           |-|MLD|HNM6|15|SGD|1542|20160222|-|-|-|-|26.85|-|-|-|-|-|-|-|-|-|-|-|-|-|-
60014860|60014860|Chua Ser Chee|First Year|6044444|Ho Hoon How                                                           |-|MLD|TPM1|69|SGD|100000|20160222|-|-|-|-|23|-|-|-|-|-|-|-|-|-|-|-|-|-|-
60014861|60014861|Liau Kuo Wei|First Year|27825556|Mohamed Hyder bin Mohamed Hussain                                     |-|MSP|MP2C|98|SGD|0|20160205|-|-|-|-|119.62|-|-|-|-|-|-|-|-|-|-|-|-|-|-
60014861|60014861|Liau Kuo Wei|First Year|27857239|Lim Jeandie Palco                                                     |-|MSP|MP1C|57|SGD|0|20160301|-|-|-|-|358.88|-|-|-|-|-|-|-|-|-|-|-|-|-|-
60014861|60014861|Liau Kuo Wei|First Year|27857328|Lim Jeandie Palco                                                     |-|MSP|MP1C|54|SGD|0|20160301|-|-|-|-|358.88|-|-|-|-|-|-|-|-|-|-|-|-|-|-
60014861|60014861|Liau Kuo Wei|First Year|27857332|Lim Jeandie Palco                                                     |-|MSP|MP2C|83|SGD|0|20160301|-|-|-|-|149.53|-|-|-|-|-|-|-|-|-|-|-|-|-|-
60014861|60014861|Liau Kuo Wei|First Year|27857341|Lim Jeandie Palco                                                     |-|MSP|MP2C|89|SGD|0|20160301|-|-|-|-|149.53|-|-|-|-|-|-|-|-|-|-|-|-|-|-
60014861|60014861|Liau Kuo Wei|First Year|27857350|Lim Jeandie Palco                                                     |-|MSP|MP2C|93|SGD|0|20160301|-|-|-|-|149.53|-|-|-|-|-|-|-|-|-|-|-|-|-|-
60014864|60014864|Ker Jian Min Daniel|First Year|E4959209|Haslinda bte Abd Hamid                                                |-|ES8|HNFW|57|SGD|1200|20160112|-|-|-|-|539.45|-|-|-|-|-|-|-|-|-|-|-|-|-|-
60014864|60014864|Ker Jian Min Daniel|First Year|6037310|Ong Shu Zhen                                                          |-|CPW|CIAJ|38|SGD|280000|20160211|-|-|-|-|37.3|-|-|-|-|-|-|-|-|-|-|-|-|-|-
60014864|60014864|Ker Jian Min Daniel|First Year|6037310|Ong Shu Zhen                                                          |-|CPW|CIE5|38|SGD|70000|20160211|-|-|-|-|33.9|-|-|-|-|-|-|-|-|-|-|-|-|-|-
60014864|60014864|Ker Jian Min Daniel|First Year|6037310|Ong Shu Zhen                                                          |-|CPW|ENTW|38|SGD|1000000|20160211|-|-|-|-|52.7|-|-|-|-|-|-|-|-|-|-|-|-|-|-
60014864|60014864|Ker Jian Min Daniel|First Year|6037310|Ong Shu Zhen                                                          |-|CPW|TPAK|38|SGD|1000000|20160211|-|-|-|-|10.25|-|-|-|-|-|-|-|-|-|-|-|-|-|-
60014864|60014864|Ker Jian Min Daniel|First Year|6038406|Ng Yui Yun                                                            |-|RE1|HCBL|35|SGD|1600|20160201|-|-|-|-|1003.15|-|-|-|-|-|-|-|-|-|-|-|-|-|-
60014864|60014864|Ker Jian Min Daniel|First Year|27746038|Lee Hui Pheng                                                         |-|MYS|MSI1|59|SGD|0|20160129|-|-|-|-|259.97|-|-|-|-|-|-|-|-|-|-|-|-|-|-
60014864|60014864|Ker Jian Min Daniel|First Year|27746042|Lee Hui Pheng                                                         |-|MSP|MP1C|59|SGD|0|20160129|-|-|-|-|358.88|-|-|-|-|-|-|-|-|-|-|-|-|-|-
60014864|60014864|Ker Jian Min Daniel|First Year|27746060|Lee Hui Pheng                                                         |-|MSP|MP2C|94|SGD|0|20160222|-|-|-|-|149.53|-|-|-|-|-|-|-|-|-|-|-|-|-|-
60014864|60014864|Ker Jian Min Daniel|First Year|27746084|Lee Hui Pheng                                                         |-|MSP|MP2C|98|SGD|0|20160222|-|-|-|-|149.53|-|-|-|-|-|-|-|-|-|-|-|-|-|-
60014864|60014864|Ker Jian Min Daniel|First Year|27825565|Benjamin George Martin Davies                                         |-|MYS|MSI1|61|SGD|0|20160205|-|-|-|-|259.97|-|-|-|-|-|-|-|-|-|-|-|-|-|-
60014864|60014864|Ker Jian Min Daniel|First Year|27825579|Benjamin George Martin Davies                                         |-|MYS|MSI1|93|SGD|0|20160205|-|-|-|-|138.66|-|-|-|-|-|-|-|-|-|-|-|-|-|-
60014864|60014864|Ker Jian Min Daniel|First Year|27825588|Benjamin George Martin Davies                                         |-|MYS|MSN1|96|SGD|0|20160205|-|-|-|-|260.16|-|-|-|-|-|-|-|-|-|-|-|-|-|-
60014864|60014864|Ker Jian Min Daniel|First Year|27844706|Ong Shu Zhen                                                          |-|MYS|MSI1|72|SGD|0|20160215|-|-|-|-|155.92|-|-|-|-|-|-|-|-|-|-|-|-|-|-
60014864|60014864|Ker Jian Min Daniel|First Year|27844715|Ong Shu Zhen                                                          |-|MSP|MP1C|72|SGD|0|20160215|-|-|-|-|353.27|-|-|-|-|-|-|-|-|-|-|-|-|-|-
60014866|60014866|Goh Chee Wei|First Year|27735398|Kum Paul                                                              |-|MSP|MP2A|94|SGD|0|20160301|-|-|-|-|23.5|-|-|-|-|-|-|-|-|-|-|-|-|-|-
60014867|60014867|Ting Poh Teck Nicholas|First Year|E4932658|Lim Chen Ping Justine                                                 |-|ES8|HNFV|55|SGD|700|20160225|-|-|-|-|502.85|-|-|-|-|-|-|-|-|-|-|-|-|-|-
60014867|60014867|Ting Poh Teck Nicholas|First Year|27821224|David Brindle                                                         |-|MYS|MSI1|34|SGD|0|20160120|-|-|-|-|1059.89|-|-|-|-|-|-|-|-|-|-|-|-|-|-
60014867|60014867|Ting Poh Teck Nicholas|First Year|27821237|David Brindle                                                         |-|MSP|MP1C|34|SGD|0|20160120|-|-|-|-|1046.73|-|-|-|-|-|-|-|-|-|-|-|-|-|-
60014867|60014867|Ting Poh Teck Nicholas|First Year|27823357|Foong Chee Kuen                                                       |-|MYS|MSI1|45|SGD|0|20160201|-|-|-|-|519.18|-|-|-|-|-|-|-|-|-|-|-|-|-|-
60014867|60014867|Ting Poh Teck Nicholas|First Year|27823366|Foong Chee Kuen                                                       |-|MSP|MP1C|45|SGD|0|20160201|-|-|-|-|317.76|-|-|-|-|-|-|-|-|-|-|-|-|-|-
60014867|60014867|Ting Poh Teck Nicholas|First Year|27823375|Foong Chee Kuen                                                       |-|MYS|MSI1|55|SGD|0|20160201|-|-|-|-|305.88|-|-|-|-|-|-|-|-|-|-|-|-|-|-
60014867|60014867|Ting Poh Teck Nicholas|First Year|27823389|Foong Chee Kuen                                                       |-|MSP|MP1C|55|SGD|0|20160201|-|-|-|-|287.1|-|-|-|-|-|-|-|-|-|-|-|-|-|-
60014867|60014867|Ting Poh Teck Nicholas|First Year|27823404|Foong Chee Kuen                                                       |-|MSP|MP2C|80|SGD|0|20160215|-|-|-|-|119.62|-|-|-|-|-|-|-|-|-|-|-|-|-|-
60014867|60014867|Ting Poh Teck Nicholas|First Year|27823427|Foong Chee Kuen                                                       |-|MSP|MP2C|86|SGD|0|20160215|-|-|-|-|149.53|-|-|-|-|-|-|-|-|-|-|-|-|-|-
60014869|60014869|Chew Wei Wen|First Year|27732264|Ng Lee Geok                                                           |-|MYS|MSI1|52|SGD|0|20160202|-|-|-|-|542.06|-|-|-|-|-|-|-|-|-|-|-|-|-|-
60014869|60014869|Chew Wei Wen|First Year|27732287|Ng Lee Geok                                                           |-|MSP|MP1C|52|SGD|0|20160202|-|-|-|-|358.88|-|-|-|-|-|-|-|-|-|-|-|-|-|-
60014870|60014870|Chan Chong Jin Wilson|First Year|6020297|Richard William Humphries III                                         |-|MLE|CIAN|89|SGD|100000|20160226|-|-|-|-|31.15|-|-|-|-|-|-|-|-|-|-|-|-|-|-
60014870|60014870|Chan Chong Jin Wilson|First Year|6020297|Richard William Humphries III                                         |-|MLE|HML2|89|SGD|100000|20160226|-|-|-|-|105.8|-|-|-|-|-|-|-|-|-|-|-|-|-|-
60014870|60014870|Chan Chong Jin Wilson|First Year|6020297|Richard William Humphries III                                         |-|MLE|HNMU|20|SGD|1631.5|20160226|-|-|-|-|7.85|-|-|-|-|-|-|-|-|-|-|-|-|-|-
60014870|60014870|Chan Chong Jin Wilson|First Year|6020297|Richard William Humphries III                                         |-|MLE|HNM6|20|SGD|1631.5|20160226|-|-|-|-|5.95|-|-|-|-|-|-|-|-|-|-|-|-|-|-
60014870|60014870|Chan Chong Jin Wilson|First Year|6020297|Richard William Humphries III                                         |-|MLE|TPM2|60|SGD|100000|20160226|-|-|-|-|2.35|-|-|-|-|-|-|-|-|-|-|-|-|-|-
60014871|60014871|Lim Shu Ping Marilyn|First Year|27836854|Rasul Bee Bee bte Karat Khan                                          |-|MYS|MSI1|52|SGD|0|20160205|-|-|-|-|388.51|-|-|-|-|-|-|-|-|-|-|-|-|-|-
60014871|60014871|Lim Shu Ping Marilyn|First Year|27836864|Rasul Bee Bee bte Karat Khan                                          |-|MSP|MP1C|52|SGD|0|20160205|-|-|-|-|287.1|-|-|-|-|-|-|-|-|-|-|-|-|-|-
60014871|60014871|Lim Shu Ping Marilyn|First Year|27860578|Junainah bte Rahmat                                                   |-|MSP|MP1C|55|SGD|0|20160314|-|-|-|-|215.72|-|-|-|-|-|-|-|-|-|-|-|-|-|-
60014874|60014874|Ang Ruwei Candice|First Year|E4960724|Sanisah bte Mohd                                                      |-|ES8|HNFW|57|SGD|1200|20160225|-|-|-|-|539.45|-|-|-|-|-|-|-|-|-|-|-|-|-|-
60014875|60014875|Chia Yu Ying Serena|First Year|E4719208|Lim Kin Leng Roy                                                      |-|ES8|HNFW|57|SGD|1500|20160225|-|-|-|-|535|-|-|-|-|-|-|-|-|-|-|-|-|-|-
60014875|60014875|Chia Yu Ying Serena|First Year|E4906898|Lim Siew Lee Sherlyn                                                  |-|ES8|HNFW|56|SGD|5000|20160225|-|-|-|-|2622.75|-|-|-|-|-|-|-|-|-|-|-|-|-|-
60014878|60014878|Tay You Xiang Norman|First Year|6039617|Bhavaraju Padmaja                                                     |-|CPW|CIAJ|26|SGD|500000|20160204|-|-|-|-|2300|-|-|-|-|-|-|-|-|-|-|-|-|-|-
60014878|60014878|Tay You Xiang Norman|First Year|6039617|Bhavaraju Padmaja                                                     |-|CPW|ENTW|26|SGD|1000000|20160204|-|-|-|-|1474.1|-|-|-|-|-|-|-|-|-|-|-|-|-|-
60014878|60014878|Tay You Xiang Norman|First Year|6039617|Bhavaraju Padmaja                                                     |-|CPW|TPAK|26|SGD|1000000|20160204|-|-|-|-|480|-|-|-|-|-|-|-|-|-|-|-|-|-|-
60014878|60014878|Tay You Xiang Norman|First Year|27844662|Vedachalam Natanasabapathy                                            |-|MYS|MSI1|45|SGD|0|20160222|-|-|-|-|733.3|-|-|-|-|-|-|-|-|-|-|-|-|-|-
60014878|60014878|Tay You Xiang Norman|First Year|27844671|Vedachalam Natanasabapathy                                            |-|MSP|MP1C|45|SGD|0|20160222|-|-|-|-|397.2|-|-|-|-|-|-|-|-|-|-|-|-|-|-
60014878|60014878|Tay You Xiang Norman|First Year|27844680|Ong Kim Kee                                                           |-|MYS|MSI2|49|SGD|0|20160215|-|-|-|-|201.88|-|-|-|-|-|-|-|-|-|-|-|-|-|-
60014878|60014878|Tay You Xiang Norman|First Year|27844694|Seek Mei Ling                                                         |-|MYS|MSI2|56|SGD|0|20160215|-|-|-|-|283.26|-|-|-|-|-|-|-|-|-|-|-|-|-|-
60014879|60014879|Chan Jun Jie|First Year|E4967308|Nor-Sahrel bin Toha                                                   |-|ES8|HNFW|50|SGD|1200|20160225|-|-|-|-|557.05|-|-|-|-|-|-|-|-|-|-|-|-|-|-
60014880|60014880|Ng Yan Ying|First Year|E4538096|Normala bte Sukor                                                     |-|ES7|HNDW|38|SGD|600|20160225|-|-|-|-|537.5|-|-|-|-|-|-|-|-|-|-|-|-|-|-
60014880|60014880|Ng Yan Ying|First Year|E4679559|Rozi bte Abdul                                                        |-|ES7|HNDW|49|SGD|800|20160225|-|-|-|-|524.15|-|-|-|-|-|-|-|-|-|-|-|-|-|-
60014880|60014880|Ng Yan Ying|First Year|6012761|Huang Yingyu                                                          |-|CPW|CIAJ|33|SGD|250000|20160129|-|-|-|-|46.45|-|-|-|-|-|-|-|-|-|-|-|-|-|-
60014880|60014880|Ng Yan Ying|First Year|6012761|Huang Yingyu                                                          |-|CPW|CIE5|33|SGD|50000|20160129|-|-|-|-|50.05|-|-|-|-|-|-|-|-|-|-|-|-|-|-
60014880|60014880|Ng Yan Ying|First Year|6012761|Huang Yingyu                                                          |-|CPW|ENTW|33|SGD|1000000|20160129|-|-|-|-|134.9|-|-|-|-|-|-|-|-|-|-|-|-|-|-
60014882|60014882|Bock Ming Gai|First Year|E4960621|Elamaran s/o Selliah                                                  |-|ES8|HNFW|54|SGD|1400|20160225|-|-|-|-|560.25|-|-|-|-|-|-|-|-|-|-|-|-|-|-
60014883|60014883|Chen Mingli|First Year|E4859483|Lim Poh Luan Patricia                                                 |-|ES8|HNFW|39|SGD|2000|20160225|-|-|-|-|2264.4|-|-|-|-|-|-|-|-|-|-|-|-|-|-
60014883|60014883|Chen Mingli|First Year|6041114|Gladys Doromal Gubac                                                  |-|RE1|HCB2|34|SGD|500|20160226|-|-|-|-|187.05|-|-|-|-|-|-|-|-|-|-|-|-|-|-
60014883|60014883|Chen Mingli|First Year|6041114|Gladys Doromal Gubac                                                  |-|RE1|HNMP|19|SGD|2192.5|20160226|-|-|-|-|3.3|-|-|-|-|-|-|-|-|-|-|-|-|-|-
60014883|60014883|Chen Mingli|First Year|26749804|Chin Jia Wu Ronald                                                    |-|MSP|MP1C|66|SGD|0|20160301|-|-|-|-|150.02|-|-|-|-|-|-|-|-|-|-|-|-|-|-
60014883|60014883|Chen Mingli|First Year|27396184|Hazimah bte Hassim                                                    |-|MSP|MP2C|70|SGD|0|20150701|-|-|-|-|18.97|-|-|-|-|-|-|-|-|-|-|-|-|-|-
60014883|60014883|Chen Mingli|First Year|27396184|Hazimah bte Hassim                                                    |-|MSP|MP2C|70|SGD|0|20150701|-|-|-|-|18.97|-|-|-|-|-|-|-|-|-|-|-|-|-|-
60014883|60014883|Chen Mingli|First Year|27396184|Hazimah bte Hassim                                                    |-|MSP|MP2C|70|SGD|0|20150701|-|-|-|-|18.97|-|-|-|-|-|-|-|-|-|-|-|-|-|-
60014883|60014883|Chen Mingli|First Year|27396184|Hazimah bte Hassim                                                    |-|MSP|MP2C|70|SGD|0|20150701|-|-|-|-|18.97|-|-|-|-|-|-|-|-|-|-|-|-|-|-
60014883|60014883|Chen Mingli|First Year|27396184|Hazimah bte Hassim                                                    |-|MSP|MP2C|70|SGD|0|20150701|-|-|-|-|18.97|-|-|-|-|-|-|-|-|-|-|-|-|-|-
60014883|60014883|Chen Mingli|First Year|27396184|Hazimah bte Hassim                                                    |-|MSP|MP2C|70|SGD|0|20150701|-|-|-|-|18.97|-|-|-|-|-|-|-|-|-|-|-|-|-|-
60014883|60014883|Chen Mingli|First Year|27396184|Hazimah bte Hassim                                                    |-|MSP|MP2C|70|SGD|0|20150701|-|-|-|-|18.97|-|-|-|-|-|-|-|-|-|-|-|-|-|-
60014883|60014883|Chen Mingli|First Year|27396184|Hazimah bte Hassim                                                    |-|MSP|MP2C|70|SGD|0|20150701|-|-|-|-|18.97|-|-|-|-|-|-|-|-|-|-|-|-|-|-
60014884|60014884|Goh Jun Siang|First Year|E4869824|Lim Soon Tat                                                          |-|ES6|HPFU|58|SGD|1300|20160225|-|-|-|-|548.7|-|-|-|-|-|-|-|-|-|-|-|-|-|-
60014884|60014884|Goh Jun Siang|First Year|E4960653|Lim Chit Chan                                                         |-|ES6|HPFU|58|SGD|1300|20160225|-|-|-|-|548.7|-|-|-|-|-|-|-|-|-|-|-|-|-|-
60014884|60014884|Goh Jun Siang|First Year|E4960779|Chew Cher Joanna                                                      |-|ES6|HPFU|58|SGD|1000|20160225|-|-|-|-|524.25|-|-|-|-|-|-|-|-|-|-|-|-|-|-
60014884|60014884|Goh Jun Siang|First Year|E4960789|Thong Chee Seng                                                       |-|ES6|HPFU|52|SGD|1000|20160225|-|-|-|-|514.8|-|-|-|-|-|-|-|-|-|-|-|-|-|-
60014884|60014884|Goh Jun Siang|First Year|E4960798|Tan Lee Boon                                                          |-|ES6|HPFU|56|SGD|900|20160225|-|-|-|-|498.25|-|-|-|-|-|-|-|-|-|-|-|-|-|-
60014884|60014884|Goh Jun Siang|First Year|E4960804|Chan Wei Kee                                                          |-|ES6|HPFU|58|SGD|1300|20160225|-|-|-|-|548.7|-|-|-|-|-|-|-|-|-|-|-|-|-|-
60014884|60014884|Goh Jun Siang|First Year|E4960827|Chua Hock Meng                                                        |-|ES6|HPFU|58|SGD|1300|20160225|-|-|-|-|548.7|-|-|-|-|-|-|-|-|-|-|-|-|-|-
60014884|60014884|Goh Jun Siang|First Year|E4965154|Koh Hwee Chin                                                         |-|ES6|HPFU|58|SGD|1000|20160225|-|-|-|-|524.25|-|-|-|-|-|-|-|-|-|-|-|-|-|-
60014884|60014884|Goh Jun Siang|First Year|E4965163|Tay Pei Ying Doreen                                                   |-|ES6|HPFU|58|SGD|1000|20160225|-|-|-|-|524.25|-|-|-|-|-|-|-|-|-|-|-|-|-|-
60014884|60014884|Goh Jun Siang|First Year|E4965177|Goh Hock Lye                                                          |-|ES6|HPFU|53|SGD|3000|20160204|-|-|-|-|1674.25|-|-|-|-|-|-|-|-|-|-|-|-|-|-
60014884|60014884|Goh Jun Siang|First Year|E4965186|Tan Hui Luan                                                          |-|ES6|HPFU|58|SGD|3000|20160225|-|-|-|-|1766.25|-|-|-|-|-|-|-|-|-|-|-|-|-|-
60014884|60014884|Goh Jun Siang|First Year|E4965211|Kang Yen Thiing                                                       |-|ES6|HPFU|58|SGD|1000|20160225|-|-|-|-|524.25|-|-|-|-|-|-|-|-|-|-|-|-|-|-
60014884|60014884|Goh Jun Siang|First Year|E4965220|Ong Choon Ling                                                        |-|ES6|HPFU|58|SGD|1000|20160225|-|-|-|-|524.25|-|-|-|-|-|-|-|-|-|-|-|-|-|-
60014884|60014884|Goh Jun Siang|First Year|E4965234|Ong Siew Nee                                                          |-|ES6|HPFU|58|SGD|1000|20160225|-|-|-|-|524.25|-|-|-|-|-|-|-|-|-|-|-|-|-|-
60014884|60014884|Goh Jun Siang|First Year|E4970221|Muhammad bin Abu                                                      |-|ES6|HPFU|58|SGD|1300|20160225|-|-|-|-|548.7|-|-|-|-|-|-|-|-|-|-|-|-|-|-
60014884|60014884|Goh Jun Siang|First Year|E4970244|Tan Kwee Huay                                                         |-|ES6|HPFU|58|SGD|1000|20160225|-|-|-|-|524.25|-|-|-|-|-|-|-|-|-|-|-|-|-|-
60014884|60014884|Goh Jun Siang|First Year|E4970253|Lee Sze Chin                                                          |-|ES6|HPFU|58|SGD|1300|20160225|-|-|-|-|548.7|-|-|-|-|-|-|-|-|-|-|-|-|-|-
60014884|60014884|Goh Jun Siang|First Year|E4970285|Tan Chee Keong                                                        |-|ES6|HPFU|58|SGD|1300|20160225|-|-|-|-|548.7|-|-|-|-|-|-|-|-|-|-|-|-|-|-
60014884|60014884|Goh Jun Siang|First Year|E4971522|Lui Su Yen Ann                                                        |-|ES6|HPFU|58|SGD|1000|20160225|-|-|-|-|524.25|-|-|-|-|-|-|-|-|-|-|-|-|-|-
60014884|60014884|Goh Jun Siang|First Year|E4971531|Low Wah Lay                                                           |-|ES6|HPFU|58|SGD|1000|20160225|-|-|-|-|524.25|-|-|-|-|-|-|-|-|-|-|-|-|-|-
60014884|60014884|Goh Jun Siang|First Year|E4971540|Phua Kia Jong Alvin                                                   |-|ES6|HPFU|58|SGD|1300|20160225|-|-|-|-|548.7|-|-|-|-|-|-|-|-|-|-|-|-|-|-
60014884|60014884|Goh Jun Siang|First Year|E4971554|Mohammad Haikal bin Zainal Abidin                                     |-|ES6|HPFU|58|SGD|1300|20160225|-|-|-|-|548.7|-|-|-|-|-|-|-|-|-|-|-|-|-|-
60014884|60014884|Goh Jun Siang|First Year|E4971563|Tan Check Seng                                                        |-|ES6|HPFU|58|SGD|1300|20160225|-|-|-|-|548.7|-|-|-|-|-|-|-|-|-|-|-|-|-|-
60014884|60014884|Goh Jun Siang|First Year|27849897|Muhammad bin Abu                                                      |-|MYS|MSI2|58|SGD|0|20160222|-|-|-|-|283.26|-|-|-|-|-|-|-|-|-|-|-|-|-|-
60014884|60014884|Goh Jun Siang|First Year|27849909|Muhammad bin Abu                                                      |-|MYS|MSI2|92|SGD|0|20160222|-|-|-|-|78.4|-|-|-|-|-|-|-|-|-|-|-|-|-|-
60014885|60014885|Li Bingchen|First Year|6033807|Tioh Sze Bing Esther                                                  |-|CPE|ENTF|24|SGD|300000|20160224|-|-|-|-|366|-|-|-|-|-|-|-|-|-|-|-|-|-|-
60014885|60014885|Li Bingchen|First Year|6033807|Tioh Sze Bing Esther                                                  |-|CPE|TPAD|24|SGD|300000|20160224|-|-|-|-|69|-|-|-|-|-|-|-|-|-|-|-|-|-|-
60014885|60014885|Li Bingchen|First Year|6038349|Lim Kang-Ming                                                         |-|RE1|HCB7|23|SGD|950|20160201|-|-|-|-|11834.15|-|-|-|-|-|-|-|-|-|-|-|-|-|-
60014885|60014885|Li Bingchen|First Year|6038371|Lim Kang-Ming                                                         |-|RE1|HCB1|31|SGD|450|20160203|-|-|-|-|2427.3|-|-|-|-|-|-|-|-|-|-|-|-|-|-
60014885|60014885|Li Bingchen|First Year|6046952|Lim Kang-Ling                                                         |-|MB6|HCC2|15|SGD|54000|20160222|-|-|-|-|4962.6|-|-|-|-|-|-|-|-|-|-|-|-|-|-
60014885|60014885|Li Bingchen|First Year|6046952|Lim Kang-Ling                                                         |-|MB6|HNRQ|15|SGD|25000|20160222|-|-|-|-|137.75|-|-|-|-|-|-|-|-|-|-|-|-|-|-
60014885|60014885|Li Bingchen|First Year|6046952|Lim Kang-Ling                                                         |-|MB6|HNRY|10|SGD|5100.35|20160222|-|-|-|-|118.35|-|-|-|-|-|-|-|-|-|-|-|-|-|-
60014885|60014885|Li Bingchen|First Year|6046961|Lim Kang-Ling                                                         |-|MB6|HCC2|15|SGD|54000|20160222|-|-|-|-|4962.6|-|-|-|-|-|-|-|-|-|-|-|-|-|-
60014885|60014885|Li Bingchen|First Year|6046961|Lim Kang-Ling                                                         |-|MB6|HNRQ|15|SGD|25000|20160222|-|-|-|-|137.75|-|-|-|-|-|-|-|-|-|-|-|-|-|-
60014885|60014885|Li Bingchen|First Year|6046961|Lim Kang-Ling                                                         |-|MB6|HNRY|10|SGD|5100.35|20160222|-|-|-|-|118.35|-|-|-|-|-|-|-|-|-|-|-|-|-|-
60014885|60014885|Li Bingchen|First Year|27757734|Aw Sze Min                                                            |-|MSP|MP1C|72|SGD|0|20160301|-|-|-|-|88.8|-|-|-|-|-|-|-|-|-|-|-|-|-|-
60014885|60014885|Li Bingchen|First Year|27837824|Lim Kang-Ming                                                         |-|MYS|MSN1|70|SGD|0|20160215|-|-|-|-|338.16|-|-|-|-|-|-|-|-|-|-|-|-|-|-
60014885|60014885|Li Bingchen|First Year|27837847|Lim Kang-Ming                                                         |-|MSP|MP1C|70|SGD|0|20160215|-|-|-|-|353.27|-|-|-|-|-|-|-|-|-|-|-|-|-|-
60014887|60014887|Seah Shiu Hoong|First Year|E4970276|Ye Jun                                                                |-|ES8|HNFW|57|SGD|1500|20160117|-|-|-|-|535|-|-|-|-|-|-|-|-|-|-|-|-|-|-
60014887|60014887|Seah Shiu Hoong|First Year|27825592|Seah Shiu Hoong                                                       |-|MYS|MSI1|98|SGD|0|20160205|-|-|-|-|138.66|-|-|-|-|-|-|-|-|-|-|-|-|-|-
60014887|60014887|Seah Shiu Hoong|First Year|27825604|Seah Shiu Hoong                                                       |-|MSP|MP1C|98|SGD|0|20160205|-|-|-|-|309.35|-|-|-|-|-|-|-|-|-|-|-|-|-|-
60014891|60014891|Fung Yun Han|First Year|E4966034|Norhayati bte Abu                                                     |-|ES8|HNFW|55|SGD|1100|20160225|-|-|-|-|527.7|-|-|-|-|-|-|-|-|-|-|-|-|-|-
60014891|60014891|Fung Yun Han|First Year|E4966075|Roskhan bin Ridai                                                     |-|ES8|HNFW|50|SGD|1200|20160201|-|-|-|-|557.05|-|-|-|-|-|-|-|-|-|-|-|-|-|-
60014891|60014891|Fung Yun Han|First Year|27837814|Roskhan bin Ridai                                                     |-|MYS|MSI1|50|SGD|0|20160215|-|-|-|-|542.06|-|-|-|-|-|-|-|-|-|-|-|-|-|-
60014893|60014893|Lim Lawrence|First Year|6016837|Lim Kek Khoo                                                          |-|MLF|CIAO|85|SGD|200000|20160218|-|-|-|-|530|-|-|-|-|-|-|-|-|-|-|-|-|-|-
60014893|60014893|Lim Lawrence|First Year|6016837|Lim Kek Khoo                                                          |-|MLF|HML3|85|SGD|200000|20160218|-|-|-|-|2208|-|-|-|-|-|-|-|-|-|-|-|-|-|-
60014893|60014893|Lim Lawrence|First Year|6016837|Lim Kek Khoo                                                          |-|MLF|HNMU|25|SGD|2776|20160218|-|-|-|-|240.7|-|-|-|-|-|-|-|-|-|-|-|-|-|-
60014893|60014893|Lim Lawrence|First Year|6016837|Lim Kek Khoo                                                          |-|MLF|HNM6|25|SGD|2776|20160218|-|-|-|-|194.05|-|-|-|-|-|-|-|-|-|-|-|-|-|-
60014893|60014893|Lim Lawrence|First Year|6016837|Lim Kek Khoo                                                          |-|MLF|TPM3|56|SGD|200000|20160218|-|-|-|-|38|-|-|-|-|-|-|-|-|-|-|-|-|-|-
60014893|60014893|Lim Lawrence|First Year|6016847|Lim Kek Khoo                                                          |-|MLF|CIAO|82|SGD|200000|20151227|-|-|-|-|606|-|-|-|-|-|-|-|-|-|-|-|-|-|-
60014893|60014893|Lim Lawrence|First Year|6016847|Lim Kek Khoo                                                          |-|MLF|HML3|82|SGD|200000|20151227|-|-|-|-|2386|-|-|-|-|-|-|-|-|-|-|-|-|-|-
60014893|60014893|Lim Lawrence|First Year|6016847|Lim Kek Khoo                                                          |-|MLF|HNMU|25|SGD|3034|20151227|-|-|-|-|263.05|-|-|-|-|-|-|-|-|-|-|-|-|-|-
60014893|60014893|Lim Lawrence|First Year|6016847|Lim Kek Khoo                                                          |-|MLF|HNM6|25|SGD|3034|20151227|-|-|-|-|212.1|-|-|-|-|-|-|-|-|-|-|-|-|-|-
60014893|60014893|Lim Lawrence|First Year|6016847|Lim Kek Khoo                                                          |-|MLF|TPM3|53|SGD|200000|20151227|-|-|-|-|42|-|-|-|-|-|-|-|-|-|-|-|-|-|-
60014900|60014900|Bek Yu Chen Angela|First Year|5977074|Wang Li Kuan                                                          |-|MLF|CIAO|96|SGD|50000|20160211|-|-|-|-|166.5|-|-|-|-|-|-|-|-|-|-|-|-|-|-
60014900|60014900|Bek Yu Chen Angela|First Year|5977074|Wang Li Kuan                                                          |-|MLF|HML3|96|SGD|50000|20160211|-|-|-|-|553.5|-|-|-|-|-|-|-|-|-|-|-|-|-|-
60014900|60014900|Bek Yu Chen Angela|First Year|5977074|Wang Li Kuan                                                          |-|MLF|HNMU|25|SGD|735|20160211|-|-|-|-|27.35|-|-|-|-|-|-|-|-|-|-|-|-|-|-
60014900|60014900|Bek Yu Chen Angela|First Year|5977074|Wang Li Kuan                                                          |-|MLF|HNM6|25|SGD|735|20160211|-|-|-|-|23.55|-|-|-|-|-|-|-|-|-|-|-|-|-|-
60014900|60014900|Bek Yu Chen Angela|First Year|5977074|Wang Li Kuan                                                          |-|MLF|TPM3|67|SGD|50000|20160211|-|-|-|-|15|-|-|-|-|-|-|-|-|-|-|-|-|-|-
60014900|60014900|Bek Yu Chen Angela|First Year|6031680|Aninon Craig Mosquida                                                 |-|CPW|CIAJ|32|SGD|200000|20160219|-|-|-|-|32.9|-|-|-|-|-|-|-|-|-|-|-|-|-|-
60014900|60014900|Bek Yu Chen Angela|First Year|6031680|Aninon Craig Mosquida                                                 |-|CPW|CIE5|32|SGD|50000|20160219|-|-|-|-|27.75|-|-|-|-|-|-|-|-|-|-|-|-|-|-
60014900|60014900|Bek Yu Chen Angela|First Year|6031680|Aninon Craig Mosquida                                                 |-|CPW|ENTW|32|SGD|1000000|20160219|-|-|-|-|85.55|-|-|-|-|-|-|-|-|-|-|-|-|-|-
60014900|60014900|Bek Yu Chen Angela|First Year|6031680|Aninon Craig Mosquida                                                 |-|CPW|TPAK|32|SGD|1000000|20160219|-|-|-|-|13.65|-|-|-|-|-|-|-|-|-|-|-|-|-|-
60014900|60014900|Bek Yu Chen Angela|First Year|6037301|Aurelie Pelissier                                                     |-|CPW|CIAJ|26|SGD|200000|20160223|-|-|-|-|36.6|-|-|-|-|-|-|-|-|-|-|-|-|-|-
60014900|60014900|Bek Yu Chen Angela|First Year|6037301|Aurelie Pelissier                                                     |-|CPW|ENTW|26|SGD|1000000|20160223|-|-|-|-|58.35|-|-|-|-|-|-|-|-|-|-|-|-|-|-
60014900|60014900|Bek Yu Chen Angela|First Year|6037301|Aurelie Pelissier                                                     |-|CPW|TPAK|26|SGD|1000000|20160223|-|-|-|-|9.6|-|-|-|-|-|-|-|-|-|-|-|-|-|-
60014900|60014900|Bek Yu Chen Angela|First Year|6041075|Lacroute Sylvain                                                      |-|CPW|CIAJ|27|SGD|200000|20160219|-|-|-|-|27.05|-|-|-|-|-|-|-|-|-|-|-|-|-|-
60014900|60014900|Bek Yu Chen Angela|First Year|6041075|Lacroute Sylvain                                                      |-|CPW|ENTW|27|SGD|1000000|20160219|-|-|-|-|70.8|-|-|-|-|-|-|-|-|-|-|-|-|-|-
60014900|60014900|Bek Yu Chen Angela|First Year|6041075|Lacroute Sylvain                                                      |-|CPW|TPAK|27|SGD|1000000|20160219|-|-|-|-|9.6|-|-|-|-|-|-|-|-|-|-|-|-|-|-
60014900|60014900|Bek Yu Chen Angela|First Year|27870534|Tan Mui Choo                                                          |-|MSP|MP1C|54|SGD|0|20160301|-|-|-|-|300.05|-|-|-|-|-|-|-|-|-|-|-|-|-|-
60014900|60014900|Bek Yu Chen Angela|First Year|27870576|Tan Mui Choo                                                          |-|MSP|MP1C|54|SGD|0|20160301|-|-|-|-|300.05|-|-|-|-|-|-|-|-|-|-|-|-|-|-
60014900|60014900|Bek Yu Chen Angela|First Year|27874820|Lim Ee Ling                                                           |-|MSP|MP1C|49|SGD|0|20160301|-|-|-|-|30.4|-|-|-|-|-|-|-|-|-|-|-|-|-|-
60014901|60014901|Tan Teck Neng|First Year|E4931849|Soh Chee Wee                                                          |-|ES8|HNFW|58|SGD|1600|20160225|-|-|-|-|551.3|-|-|-|-|-|-|-|-|-|-|-|-|-|-
60014901|60014901|Tan Teck Neng|First Year|6038380|Khoo Min En Rebecca                                                   |-|MLD|CIAM|76|SGD|100000|20160130|-|-|-|-|535|-|-|-|-|-|-|-|-|-|-|-|-|-|-
60014901|60014901|Tan Teck Neng|First Year|6038380|Khoo Min En Rebecca                                                   |-|MLD|HML1|76|SGD|100000|20160130|-|-|-|-|1916|-|-|-|-|-|-|-|-|-|-|-|-|-|-
60014901|60014901|Tan Teck Neng|First Year|6038380|Khoo Min En Rebecca                                                   |-|MLD|TPM1|47|SGD|100000|20160130|-|-|-|-|33|-|-|-|-|-|-|-|-|-|-|-|-|-|-
60014901|60014901|Tan Teck Neng|First Year|27823324|Tan Mui Lang                                                          |-|MYS|MSI2|47|SGD|0|20160201|-|-|-|-|425.06|-|-|-|-|-|-|-|-|-|-|-|-|-|-
60014901|60014901|Tan Teck Neng|First Year|27837776|Tan Mui Lang                                                          |-|MYS|MSI1|75|SGD|0|20160215|-|-|-|-|155.92|-|-|-|-|-|-|-|-|-|-|-|-|-|-
60014902|60014902|Ang Peck Yeow Chris|First Year|6032631|Chen Ziqian                                                           |-|CPW|CIAJ|40|SGD|300000|20160126|-|-|-|-|35.45|-|-|-|-|-|-|-|-|-|-|-|-|-|-
60014902|60014902|Ang Peck Yeow Chris|First Year|6032631|Chen Ziqian                                                           |-|CPW|CIE5|40|SGD|100000|20160126|-|-|-|-|42.8|-|-|-|-|-|-|-|-|-|-|-|-|-|-
60014902|60014902|Ang Peck Yeow Chris|First Year|6032631|Chen Ziqian                                                           |-|CPW|ENTW|40|SGD|1000000|20160126|-|-|-|-|48.75|-|-|-|-|-|-|-|-|-|-|-|-|-|-
60014902|60014902|Ang Peck Yeow Chris|First Year|6032631|Chen Ziqian                                                           |-|CPW|TPAK|40|SGD|1000000|20160126|-|-|-|-|8.2|-|-|-|-|-|-|-|-|-|-|-|-|-|-
60014902|60014902|Ang Peck Yeow Chris|First Year|6047229|Toh Jiawei                                                            |-|CPW|CIE5|30|SGD|50000|20160225|-|-|-|-|28.9|-|-|-|-|-|-|-|-|-|-|-|-|-|-
60014902|60014902|Ang Peck Yeow Chris|First Year|6047229|Toh Jiawei                                                            |-|CPW|ENTW|30|SGD|1000000|20160225|-|-|-|-|90.1|-|-|-|-|-|-|-|-|-|-|-|-|-|-
60014902|60014902|Ang Peck Yeow Chris|First Year|6047229|Toh Jiawei                                                            |-|CPW|HNMQ|30|SGD|1199.76|20160225|-|-|-|-|4.1|-|-|-|-|-|-|-|-|-|-|-|-|-|-
60014902|60014902|Ang Peck Yeow Chris|First Year|6047229|Toh Jiawei                                                            |-|CPW|TPAK|30|SGD|1000000|20160225|-|-|-|-|12.3|-|-|-|-|-|-|-|-|-|-|-|-|-|-
60014902|60014902|Ang Peck Yeow Chris|First Year|6048664|Tay Toh Learn                                                         |-|MLE|CIAN|94|SGD|100000|20160226|-|-|-|-|227|-|-|-|-|-|-|-|-|-|-|-|-|-|-
60014902|60014902|Ang Peck Yeow Chris|First Year|6048664|Tay Toh Learn                                                         |-|MLE|HML2|94|SGD|100000|20160226|-|-|-|-|1021|-|-|-|-|-|-|-|-|-|-|-|-|-|-
60014902|60014902|Ang Peck Yeow Chris|First Year|6048664|Tay Toh Learn                                                         |-|MLE|HNMU|20|SGD|1265|20160226|-|-|-|-|23.95|-|-|-|-|-|-|-|-|-|-|-|-|-|-
60014902|60014902|Ang Peck Yeow Chris|First Year|6048664|Tay Toh Learn                                                         |-|MLE|HNM6|20|SGD|1265|20160226|-|-|-|-|22.9|-|-|-|-|-|-|-|-|-|-|-|-|-|-
60014902|60014902|Ang Peck Yeow Chris|First Year|6048664|Tay Toh Learn                                                         |-|MLE|TPM2|65|SGD|100000|20160226|-|-|-|-|17|-|-|-|-|-|-|-|-|-|-|-|-|-|-
60014902|60014902|Ang Peck Yeow Chris|First Year|27818744|See Ming Shun                                                         |-|MYS|MSI2|70|SGD|0|20160201|-|-|-|-|89.72|-|-|-|-|-|-|-|-|-|-|-|-|-|-
60014902|60014902|Ang Peck Yeow Chris|First Year|27818754|See Ming Shun                                                         |-|MSP|MP2C|70|SGD|0|20160201|-|-|-|-|222.44|-|-|-|-|-|-|-|-|-|-|-|-|-|-
60014904|60014904|Chua Chee Yong|First Year|E4974508|Aw Eng San                                                            |-|ES8|HNFW|48|SGD|1100|20160225|-|-|-|-|548.85|-|-|-|-|-|-|-|-|-|-|-|-|-|-
60014904|60014904|Chua Chee Yong|First Year|6035827|Lin Shimin                                                            |-|CPW|CIAJ|30|SGD|1000000|20160223|-|-|-|-|186.3|-|-|-|-|-|-|-|-|-|-|-|-|-|-
60014904|60014904|Chua Chee Yong|First Year|6035827|Lin Shimin                                                            |-|CPW|ENTW|30|SGD|1000000|20160223|-|-|-|-|90.1|-|-|-|-|-|-|-|-|-|-|-|-|-|-
60014904|60014904|Chua Chee Yong|First Year|6035827|Lin Shimin                                                            |-|CPW|TPAK|30|SGD|1000000|20160223|-|-|-|-|12.3|-|-|-|-|-|-|-|-|-|-|-|-|-|-
60014904|60014904|Chua Chee Yong|First Year|27826889|Lin Shimin                                                            |-|MYS|MSI2|97|SGD|0|20160205|-|-|-|-|78.4|-|-|-|-|-|-|-|-|-|-|-|-|-|-
60014904|60014904|Chua Chee Yong|First Year|27826904|Lin Shimin                                                            |-|MSP|MP2C|97|SGD|0|20160205|-|-|-|-|189.72|-|-|-|-|-|-|-|-|-|-|-|-|-|-
60014906|60014906|Ng Jun Feng|First Year|E4959569|Chia Micheal                                                          |-|ES8|HNFW|58|SGD|1600|20160225|-|-|-|-|551.3|-|-|-|-|-|-|-|-|-|-|-|-|-|-
60014906|60014906|Ng Jun Feng|First Year|P0049081|Sng Ping Wei                                                          |-|LF1|UNVA|69|SGD|0|20160218|-|-|-|-|100|-|-|-|-|-|-|-|-|-|-|-|-|-|-
60014906|60014906|Ng Jun Feng|First Year|27830319|Madala Hanumantharao                                                  |-|MYS|MSI1|62|SGD|0|20160205|-|-|-|-|259.97|-|-|-|-|-|-|-|-|-|-|-|-|-|-
60014906|60014906|Ng Jun Feng|First Year|27830328|Madala Hanumantharao                                                  |-|MYS|MSI1|68|SGD|0|20160205|-|-|-|-|259.97|-|-|-|-|-|-|-|-|-|-|-|-|-|-
60014907|60014907|Sim Yen Leng|First Year|6023649|Lau Kim Yun                                                           |-|CPW|CIE5|21|SGD|200000|20151105|-|-|-|-|1779.2|-|-|-|-|-|-|-|-|-|-|-|-|-|-
60014907|60014907|Sim Yen Leng|First Year|6023649|Lau Kim Yun                                                           |-|CPW|ENTW|60|SGD|1000000|20151105|-|-|-|-|4050.4|-|-|-|-|-|-|-|-|-|-|-|-|-|-
60014907|60014907|Sim Yen Leng|First Year|6023649|Lau Kim Yun                                                           |-|CPW|HNMQ|60|SGD|4050.4|20151105|-|-|-|-|670.35|-|-|-|-|-|-|-|-|-|-|-|-|-|-
60014907|60014907|Sim Yen Leng|First Year|6023658|Lau Kim Yun                                                           |-|RE1|HCB7|31|SGD|1000|20151105|-|-|-|-|9874|-|-|-|-|-|-|-|-|-|-|-|-|-|-
60014907|60014907|Sim Yen Leng|First Year|6041066|Terence Edward Sale                                                   |-|CPW|CIAJ|27|SGD|800000|20160216|-|-|-|-|5100.8|-|-|-|-|-|-|-|-|-|-|-|-|-|-
60014907|60014907|Sim Yen Leng|First Year|6041066|Terence Edward Sale                                                   |-|CPW|ENTW|27|SGD|1200000|20160216|-|-|-|-|4669.25|-|-|-|-|-|-|-|-|-|-|-|-|-|-
60014907|60014907|Sim Yen Leng|First Year|6041066|Terence Edward Sale                                                   |-|CPW|TPAK|22|SGD|1200000|20160216|-|-|-|-|720|-|-|-|-|-|-|-|-|-|-|-|-|-|-
60014907|60014907|Sim Yen Leng|First Year|6048801|Sim Yen Leng                                                          |-|RE1|HCB3|30|SGD|1000|20160227|-|-|-|-|490.05|-|-|-|-|-|-|-|-|-|-|-|-|-|-
60014907|60014907|Sim Yen Leng|First Year|27844729|Tjandra Juvanus                                                       |-|MYS|MSN1|94|SGD|0|20160222|-|-|-|-|260.16|-|-|-|-|-|-|-|-|-|-|-|-|-|-
60014907|60014907|Sim Yen Leng|First Year|27844738|Tjandra Juvanus                                                       |-|MSP|MP1C|94|SGD|0|20160222|-|-|-|-|309.35|-|-|-|-|-|-|-|-|-|-|-|-|-|-
60014907|60014907|Sim Yen Leng|First Year|27844742|Tjandra Juvanus                                                       |-|MYS|MSN1|97|SGD|0|20160215|-|-|-|-|260.16|-|-|-|-|-|-|-|-|-|-|-|-|-|-
60014907|60014907|Sim Yen Leng|First Year|27844751|Tjandra Juvanus                                                       |-|MSP|MP1C|97|SGD|0|20160215|-|-|-|-|309.35|-|-|-|-|-|-|-|-|-|-|-|-|-|-
60014907|60014907|Sim Yen Leng|First Year|27857261|Mok Kher Shin                                                         |-|MSP|MP2C|58|SGD|0|20160301|-|-|-|-|137.16|-|-|-|-|-|-|-|-|-|-|-|-|-|-
60014907|60014907|Sim Yen Leng|First Year|27857270|Mok Kher Shin                                                         |-|MSP|MP2C|32|SGD|0|20160301|-|-|-|-|525.47|-|-|-|-|-|-|-|-|-|-|-|-|-|-
60014907|60014907|Sim Yen Leng|First Year|27857284|Mok Kher Shin                                                         |-|MSP|MP2C|26|SGD|0|20160301|-|-|-|-|1290.8|-|-|-|-|-|-|-|-|-|-|-|-|-|-
60014908|60014908|Ho Mei Wei|First Year|27836877|Soon Yeow Teen                                                        |-|MYS|MSI2|40|SGD|0|20160205|-|-|-|-|448.32|-|-|-|-|-|-|-|-|-|-|-|-|-|-
60014908|60014908|Ho Mei Wei|First Year|27836887|Soon Yeow Teen                                                        |-|MSP|MP2C|40|SGD|0|20160205|-|-|-|-|486.92|-|-|-|-|-|-|-|-|-|-|-|-|-|-
60014909|60014909|Basnayake Marissa Jane|First Year|E4960747|Cheong Kok Ann                                                        |-|ES7|HNDW|49|SGD|1000|20160225|-|-|-|-|521.95|-|-|-|-|-|-|-|-|-|-|-|-|-|-
60014910|60014910|Lau Siow May|First Year|E4965257|To Hong Ling                                                          |-|ES8|HNFW|58|SGD|1600|20160225|-|-|-|-|551.3|-|-|-|-|-|-|-|-|-|-|-|-|-|-
60014910|60014910|Lau Siow May|First Year|27836896|Eng Chee Pau                                                          |-|MYS|MSI1|63|SGD|0|20160205|-|-|-|-|259.97|-|-|-|-|-|-|-|-|-|-|-|-|-|-
60014910|60014910|Lau Siow May|First Year|27836902|Eng Chee Pau                                                          |-|MSP|MP1C|63|SGD|0|20160205|-|-|-|-|358.88|-|-|-|-|-|-|-|-|-|-|-|-|-|-
60014910|60014910|Lau Siow May|First Year|27836920|Eng Chee Pau                                                          |-|MSP|MP2C|96|SGD|0|20160222|-|-|-|-|149.53|-|-|-|-|-|-|-|-|-|-|-|-|-|-
60014912|60014912|Chew Chee Chin|First Year|E4972107|Wong Lim Lim                                                          |-|ES8|HNFW|54|SGD|1100|20160225|-|-|-|-|549.55|-|-|-|-|-|-|-|-|-|-|-|-|-|-
60014912|60014912|Chew Chee Chin|First Year|27761260|Neo Wan Long                                                          |-|MYS|MSI2|41|SGD|0|20160215|-|-|-|-|448.32|-|-|-|-|-|-|-|-|-|-|-|-|-|-
60014913|60014913|Kong Chun Chung Kelvin|First Year|E4960685|Goh Joo Kwang                                                         |-|ES8|HNFW|54|SGD|1400|20160225|-|-|-|-|560.25|-|-|-|-|-|-|-|-|-|-|-|-|-|-
60014913|60014913|Kong Chun Chung Kelvin|First Year|E4960701|Abdul Aziz bin Hamid                                                  |-|ES8|HNFW|49|SGD|1100|20160225|-|-|-|-|524.8|-|-|-|-|-|-|-|-|-|-|-|-|-|-
60014913|60014913|Kong Chun Chung Kelvin|First Year|E4972036|Chew Lay Hoon                                                         |-|ES8|HNFW|55|SGD|1100|20160225|-|-|-|-|527.7|-|-|-|-|-|-|-|-|-|-|-|-|-|-
60014915|60014915|Chua Hui Ting|First Year|E4912008|Tan Liang Ping                                                        |-|ES8|HNFW|53|SGD|1300|20160225|-|-|-|-|537|-|-|-|-|-|-|-|-|-|-|-|-|-|-
60014916|60014916|Cheah Yao De|First Year|6032640|Low Wan Ling Levina                                                   |-|CPW|CIAJ|34|SGD|200000|20160229|-|-|-|-|617.6|-|-|-|-|-|-|-|-|-|-|-|-|-|-
60014916|60014916|Cheah Yao De|First Year|6032640|Low Wan Ling Levina                                                   |-|CPW|ENTW|34|SGD|1000000|20160229|-|-|-|-|1142.1|-|-|-|-|-|-|-|-|-|-|-|-|-|-
60014916|60014916|Cheah Yao De|First Year|6032640|Low Wan Ling Levina                                                   |-|CPW|TPAK|33|SGD|1000000|20160229|-|-|-|-|312|-|-|-|-|-|-|-|-|-|-|-|-|-|-
60014916|60014916|Cheah Yao De|First Year|6032654|Chin Chee Khiong                                                      |-|CPW|CIAJ|23|SGD|200000|20160224|-|-|-|-|1158.4|-|-|-|-|-|-|-|-|-|-|-|-|-|-
60014916|60014916|Cheah Yao De|First Year|6032654|Chin Chee Khiong                                                      |-|CPW|ENTW|23|SGD|1000000|20160224|-|-|-|-|3114.2|-|-|-|-|-|-|-|-|-|-|-|-|-|-
60014916|60014916|Cheah Yao De|First Year|6032654|Chin Chee Khiong                                                      |-|CPW|TPAK|22|SGD|1000000|20160224|-|-|-|-|600|-|-|-|-|-|-|-|-|-|-|-|-|-|-
60014916|60014916|Cheah Yao De|First Year|27830284|Taswinder Singh Dhaliwal                                              |-|MYS|MSN1|71|SGD|0|20160205|-|-|-|-|270.53|-|-|-|-|-|-|-|-|-|-|-|-|-|-
60014916|60014916|Cheah Yao De|First Year|27830294|Taswinder Singh Dhaliwal                                              |-|MSP|MP1C|71|SGD|0|20160205|-|-|-|-|282.62|-|-|-|-|-|-|-|-|-|-|-|-|-|-
60014917|60014917|Kerk Hong Cheong|First Year|E4911969|Tan Choong Wee                                                        |-|ES8|HNFW|58|SGD|1600|20160225|-|-|-|-|551.3|-|-|-|-|-|-|-|-|-|-|-|-|-|-