REPORTING TO|AGENT NO|AGENT NAME|DESCRIPTION|POLICY NUMBER|POLICY HOLDER|POLICYHOLDER NRIC NUMBER|POLICY TYPE|COMPONENT CODE|POLICY TERM|CONTRACT CURRENCY|SUM INSURED|INCEPT DATE|INSTALLMENT FROM DATE|BILLING FREQUENCY|POLICY EXPIRY DATE|GROSS PREMIUM PAID|NETT PREMIUM PAID|GROSS PREMIUM INCLUDE GST AMT|NETT PREMIUM INCLUDE GST AMT|PREMIUM WITHOUT COMMISSION|PREMIUM COMVERSION RATE|PAYMENT CURRENCY|COMMISSION/OR|COMMISSION ADJUSTMENT AMT|COMMISSION RUN DATE|COMMISSION CONVERSION RATE|CERTIFICATE NUMBER|TRANSACTION CODE|TRANSACTION DESC|PREMIUM TERM|DATE OF ISSUE
LegacyFA                                         |69000141|LegacyFA                                                        |First Year|6032355|Policy Holder                                                  ||CPW|ENTW|27|SGD|1000000|20162101|20162101|1|20172101|0|1288.2|1288.2|1288.2|0|1|SGD|0|0|20160131|1||B522|Premium Collection            |27|20160131
LegacyFA                                         |69000141|LegacyFA                                                        |First Year|6032355|Policy Holder                                                  ||CPW|HNMQ|27|SGD|1288.16|20162101|20162101|1|20172101|0|61.85|61.85|61.85|0|1|SGD|0|0|20160131|1||B522|Premium Collection            |27|20160131
LegacyFA                                         |69000051|LegacyFA                                                        |First Year|6035654|Policy Holder                                                  ||MLD|CIAM|98|SGD|100000|20162901|20162901|1|20162902|0|25.25|25.25|25.25|0|1|SGD|0|0|20160131|1||B522|Premium Collection            |98|20160131
LegacyFA                                         |69000051|LegacyFA                                                        |First Year|6035654|Policy Holder                                                  ||MLD|HML1|98|SGD|100000|20162901|20162901|1|20162902|0|104.35|104.35|104.35|0|1|SGD|0|0|20160131|1||B522|Premium Collection            |98|20160131
LegacyFA                                         |69000051|LegacyFA                                                        |First Year|6035654|Policy Holder                                                  ||MLD|HNMU|15|SGD|1542|20162901|20162901|1|20162902|0|1.85|1.85|1.85|0|1|SGD|0|0|20160131|1||B522|Premium Collection            |15|20160131
LegacyFA                                         |69000051|LegacyFA                                                        |First Year|6035654|Policy Holder                                                  ||MLD|HNM6|15|SGD|1542|20162901|20162901|1|20162902|0|2|2|2|0|1|SGD|0|0|20160131|1||B522|Premium Collection            |15|20160131
LegacyFA                                         |69000051|LegacyFA                                                        |First Year|6035654|Policy Holder                                                  ||MLD|TPM1|69|SGD|100000|20162901|20162901|1|20162902|0|2|2|2|0|1|SGD|0|0|20160131|1||B522|Premium Collection            |69|20160131
LegacyFA                                         |69000055|LegacyFA                                                        |First Year|6032369|Policy Holder                                                  ||MLF|CIAO|79|SGD|100000|20162501|20162501|1|20162502|0|29.05|29.05|29.05|0|1|SGD|0|0|20160131|1||B522|Premium Collection            |79|20160131
LegacyFA                                         |69000055|LegacyFA                                                        |First Year|6032369|Policy Holder                                                  ||MLF|HML3|79|SGD|100000|20162501|20162501|1|20162502|0|111.45|111.45|111.45|0|1|SGD|0|0|20160131|1||B522|Premium Collection            |79|20160131
LegacyFA                                         |69000055|LegacyFA                                                        |First Year|6032369|Policy Holder                                                  ||MLF|TPM3|50|SGD|100000|20162501|20162501|1|20162502|0|2|2|2|0|1|SGD|0|0|20160131|1||B522|Premium Collection            |50|20160131
LegacyFA                                         |69000055|LegacyFA                                                        |First Year|6032378|Policy Holder                                                  ||EC1|CID3|45|SGD|100000|20162501|20162501|1|20162502|0|49|49|49|0|1|SGD|0|0|20160131|1||B522|Premium Collection            |45|20160131
LegacyFA                                         |69000042|LegacyFA                                                        |First Year|6034115|Policy Holder                                                  ||CPW|CIAJ|51|SGD|200000|20162801|20162801|1|20172801|0|534|534|534|0|1|SGD|0|0|20160131|1||B522|Premium Collection            |51|20160131
LegacyFA                                         |69000042|LegacyFA                                                        |First Year|6034115|Policy Holder                                                  ||CPW|ENTW|51|SGD|200000|20162801|20162801|1|20172801|0|725.4|725.4|725.4|0|1|SGD|0|0|20160131|1||B522|Premium Collection            |51|20160131
LegacyFA                                         |69000042|LegacyFA                                                        |First Year|6034115|Policy Holder                                                  ||CPW|TPAK|42|SGD|200000|20162801|20162801|1|20172801|0|46|46|46|0|1|SGD|0|0|20160131|1||B522|Premium Collection            |42|20160131
LegacyFA                                         |69000048|LegacyFA                                                        |First Year|6033964|Policy Holder                                                  ||CPW|ENTW|19|SGD|1000000|20162101|20162101|1|20172101|0|1972.1|1972.1|1972.1|0|1|SGD|0|0|20160131|1||B522|Premium Collection            |19|20160131
LegacyFA                                         |69000048|LegacyFA                                                        |First Year|6033964|Policy Holder                                                  ||CPW|HNMQ|19|SGD|2292.08|20162101|20162101|1|20172101|0|151.75|151.75|151.75|0|1|SGD|0|0|20160131|1||B522|Premium Collection            |19|20160131
LegacyFA                                         |69000048|LegacyFA                                                        |First Year|6033964|Policy Holder                                                  ||CPW|TPAK|19|SGD|1000000|20162101|20162101|1|20172101|0|320|320|320|0|1|SGD|0|0|20160131|1||B522|Premium Collection            |19|20160131
LegacyFA                                         |69000072|LegacyFA                                                        |First Year|6035878|Policy Holder                                                  ||RE1|HCB7|28|SGD|1000|20164275|20164275|1|20164276|0|906.1|906.1|906.1|0|1|SGD|0|0|20160131|1||B522|Premium Collection            |28|20160131
LegacyFA                                         |69000073|LegacyFA                                                        |First Year|6029244|Policy Holder                                                  ||CPV|ENTV|10|SGD|1500000|20152612|20152612|1|20162612|0|1454.2|1454.2|1454.2|0|1|SGD|0|0|20160131|1||B522|Premium Collection            |10|20160131
LegacyFA                                         |69000073|LegacyFA                                                        |First Year|6029244|Policy Holder                                                  ||CPV|HNMQ|10|SGD|1670.16|20152612|20152612|1|20162612|0|31.25|31.25|31.25|0|1|SGD|0|0|20160131|1||B522|Premium Collection            |10|20160131
LegacyFA                                         |69000073|LegacyFA                                                        |First Year|6029244|Policy Holder                                                  ||CPV|TPAJ|10|SGD|1500000|20152612|20152612|1|20162612|0|216|216|216|0|1|SGD|0|0|20160131|1||B522|Premium Collection            |10|20160131
LegacyFA                                         |69000203|LegacyFA                                                        |First Year|6033781|Policy Holder                                                  ||CPW|CIAJ|38|SGD|200000|20154250|20154250|1|20164216|0|419.2|419.2|419.2|0|1|SGD|0|0|20160131|1||B522|Premium Collection            |38|20160131
LegacyFA                                         |69000203|LegacyFA                                                        |First Year|6033781|Policy Holder                                                  ||CPW|CIE5|38|SGD|100000|20154250|20154250|1|20164216|0|800.8|800.8|800.8|0|1|SGD|0|0|20160131|1||B522|Premium Collection            |38|20160131
LegacyFA                                         |69000203|LegacyFA                                                        |First Year|6033781|Policy Holder                                                  ||CPW|ENTW|38|SGD|1000000|20154250|20154250|1|20164216|0|1268.25|1268.25|1268.25|0|1|SGD|0|0|20160131|1||B522|Premium Collection            |38|20160131
LegacyFA                                         |69000203|LegacyFA                                                        |First Year|6033781|Policy Holder                                                  ||CPW|TPAK|38|SGD|1000000|20154250|20154250|1|20164216|0|216|216|216|0|1|SGD|0|0|20160131|1||B522|Premium Collection            |38|20160131
LegacyFA                                         |69000203|LegacyFA                                                        |First Year|6035519|Policy Holder                                                  ||CPW|CIAJ|33|SGD|100000|20162701|20162701|1|20162702|0|17.35|17.35|17.35|0|1|SGD|0|0|20160131|1||B522|Premium Collection            |33|20160131
LegacyFA                                         |69000203|LegacyFA                                                        |First Year|6035519|Policy Holder                                                  ||CPW|CIE5|33|SGD|200000|20162701|20162701|1|20162702|0|124.1|124.1|124.1|0|1|SGD|0|0|20160131|1||B522|Premium Collection            |33|20160131
LegacyFA                                         |69000203|LegacyFA                                                        |First Year|6035519|Policy Holder                                                  ||CPW|ENTW|33|SGD|1000000|20162701|20162701|1|20162702|0|62.35|62.35|62.35|0|1|SGD|0|0|20160131|1||B522|Premium Collection            |33|20160131
LegacyFA                                         |69000203|LegacyFA                                                        |First Year|6035519|Policy Holder                                                  ||CPW|TPAK|33|SGD|1000000|20162701|20162701|1|20162702|0|13|13|13|0|1|SGD|0|0|20160131|1||B522|Premium Collection            |33|20160131
LegacyFA                                         |69000207|LegacyFA                                                        |First Year|6033772|Policy Holder                                                  ||RE4|HCRI|40|SGD|500|20162201|20162201|1|20162202|0|754.7|754.7|754.7|0|1|SGD|0|0|20160131|1||B522|Premium Collection            |40|20160131
LegacyFA                                         |69000207|LegacyFA                                                        |First Year|6035869|Policy Holder                                                  ||RE4|HCRI|48|SGD|2500|20162901|20162901|1|20162902|0|3097.05|3097.05|3097.05|0|1|SGD|0|0|20160131|1||B522|Premium Collection            |48|20160131
LegacyFA                                         |69000094|LegacyFA                                                        |First Year|6034197|Policy Holder                                                  ||CPW|CIAJ|65|SGD|200000|20162801|20162801|1|20172801|0|758.4|758.4|758.4|0|1|SGD|0|0|20160131|1||B522|Premium Collection            |65|20160131
LegacyFA                                         |69000094|LegacyFA                                                        |First Year|6034197|Policy Holder                                                  ||CPW|ENTW|65|SGD|1000000|20162801|20162801|1|20172801|0|3193.85|3193.85|3193.85|0|1|SGD|0|0|20160131|1||B522|Premium Collection            |65|20160131
LegacyFA                                         |69000265|LegacyFA                                                        |First Year|6033374|Policy Holder                                                  ||MLE|CIAN|68|SGD|100000|20161501|20161501|1|20161502|0|54.3|54.3|54.3|0|1|SGD|0|0|20160131|1||B522|Premium Collection            |68|20160131
LegacyFA                                         |69000265|LegacyFA                                                        |First Year|6033374|Policy Holder                                                  ||MLE|HML2|68|SGD|100000|20161501|20161501|1|20161502|0|164.55|164.55|164.55|0|1|SGD|0|0|20160131|1||B522|Premium Collection            |68|20160131
LegacyFA                                         |69000265|LegacyFA                                                        |First Year|6033374|Policy Holder                                                  ||MLE|TPM2|39|SGD|100000|20161501|20161501|1|20161502|0|3.1|3.1|3.1|0|1|SGD|0|0|20160131|1||B522|Premium Collection            |39|20160131
LegacyFA                                         |69000265|LegacyFA                                                        |First Year|6033384|Policy Holder                                                  ||RE1|HCBJ|34|SGD|350|20161501|20161501|1|20161502|0|232.65|232.65|232.65|0|1|SGD|0|0|20160131|1||B522|Premium Collection            |34|20160131
LegacyFA                                         |69000265|LegacyFA                                                        |First Year|6033384|Policy Holder                                                  ||RE1|HNRY|10|SGD|2726.85|20161501|20161501|1|20161502|0|2.65|2.65|2.65|0|1|SGD|0|0|20160131|1||B522|Premium Collection            |10|20160131
LegacyFA                                         |69000133|LegacyFA                                                        |First Year|6026607|Policy Holder                                                  ||CPW|CIAJ|32|SGD|100000|20163101|20163101|1|20163112|0|427.55|427.55|427.55|0|1|SGD|0|0|20160131|1||B522|Premium Collection            |32|20160131
LegacyFA                                         |69000133|LegacyFA                                                        |First Year|6032631|Policy Holder                                                  ||CPW|CIAJ|40|SGD|300000|20162601|20162601|1|20162602|0|35.45|35.45|35.45|0|1|SGD|0|0|20160131|1||B522|Premium Collection            |40|20160131
LegacyFA                                         |69000133|LegacyFA                                                        |First Year|6032631|Policy Holder                                                  ||CPW|CIE5|40|SGD|100000|20162601|20162601|1|20162602|0|42.8|42.8|42.8|0|1|SGD|0|0|20160131|1||B522|Premium Collection            |40|20160131
LegacyFA                                         |69000133|LegacyFA                                                        |First Year|6032631|Policy Holder                                                  ||CPW|ENTW|40|SGD|1000000|20162601|20162601|1|20162602|0|48.75|48.75|48.75|0|1|SGD|0|0|20160131|1||B522|Premium Collection            |40|20160131
LegacyFA                                         |69000133|LegacyFA                                                        |First Year|6032631|Policy Holder                                                  ||CPW|TPAK|40|SGD|1000000|20162601|20162601|1|20162602|0|8.2|8.2|8.2|0|1|SGD|0|0|20160131|1||B522|Premium Collection            |40|20160131
