Agent No|Policy Num|Policy Holder|Policy Type|Component|Pol Term|Cont Curr|Sum Insured|Inception Date|Premium Due Date|Paid To Date|Bil Freq| Premium Paid | Extra Loading |Fee Type| Basic Comm | Basic Overrding Comm | Extra Overrding Comm | Trailer Fee Comm | PAS Comm | Other Comm |FX rate| Total Comm on Payment Curr 
60014805|E4921242|S0000000A|ES8|HNFW|55|SGD|5000|20162501|20162501|20172501|Yearly                        |2740.95|0|First Year Policies           |1891.26|302.6|0|0|0|0|1|2193.86
60014814|27804231|S0000000A|MYS|MSI1|54|SGD|0|20162501|20162501|20172501|Yearly                        |436.74|0|First Year Policies           |131.02|43.67|0|0|0|0|1|174.69
60014814|27804240|S0000000A|MSP|MP1C|54|SGD|0|20162501|20162501|20172501|Yearly                        |358.88|0|First Year Policies           |80.75|26.92|0|0|0|0|1|107.67
60014818|27810314|S0000000A|MYS|MSI1|69|SGD|0|20162501|20162501|20172501|Yearly                        |110.72|0|First Year Policies           |33.22|11.07|0|0|0|0|1|44.29
60014818|27810327|S0000000A|MSP|MP1C|69|SGD|0|20162501|20162501|20172501|Yearly                        |282.62|0|First Year Policies           |63.59|21.2|0|0|0|0|1|84.79
60014820|27796524|S0000000A|MSP|MP1C|44|SGD|0|20164271|20164271|20174236|Yearly                        |363.56|0|First Year Policies           |81.8|27.27|0|0|0|0|1|109.07
60014823|6032355|S0000000A|CPW|ENTW|27|SGD|1000000|20162101|20162101|20172101|Yearly                        |1288.2|0|First Year Policies           |742|222.6|0|0|0|0|1|964.6
60014823|6032355|S0000000A|CPW|HNMQ|27|SGD|1288.16|20162101|20162101|20172101|Yearly                        |61.85|0|First Year Policies           |12.37|9.9|0|0|0|0|1|22.27
60014827|6035654|S0000000A|MLD|CIAM|98|SGD|100000|20162901|20162901|20162902|Monthly                       |25.25|0|First Year Policies           |14.39|0|0|0|0|0|1|14.39
60014827|6035654|S0000000A|MLD|HML1|98|SGD|100000|20162901|20162901|20162902|Monthly                       |104.35|0|First Year Policies           |59.48|0|0|0|0|0|1|59.48
60014827|6035654|S0000000A|MLD|HNMU|15|SGD|1542|20162901|20162901|20162902|Monthly                       |1.85|0|First Year Policies           |0.67|0|0|0|0|0|1|0.67
60014827|6035654|S0000000A|MLD|HNM6|15|SGD|1542|20162901|20162901|20162902|Monthly                       |2|0|First Year Policies           |0.72|0|0|0|0|0|1|0.72
60014827|6035654|S0000000A|MLD|TPM1|69|SGD|100000|20162901|20162901|20162902|Monthly                       |2|0|First Year Policies           |1.14|0|0|0|0|0|1|1.14
60014830|6032369|S0000000A|MLF|CIAO|79|SGD|100000|20162501|20162501|20162502|Monthly                       |29.05|0|First Year Policies           |27.6|0|0|0|0|0|1|27.6
60014830|6032369|S0000000A|MLF|HML3|79|SGD|100000|20162501|20162501|20162502|Monthly                       |111.45|0|First Year Policies           |105.88|0|0|0|0|0|1|105.88
60014830|6032369|S0000000A|MLF|TPM3|50|SGD|100000|20162501|20162501|20162502|Monthly                       |2|0|First Year Policies           |1.9|0|0|0|0|0|1|1.9
60014830|6032378|S0000000A|EC1|CID3|45|SGD|100000|20162501|20162501|20162502|Monthly                       |49|0|First Year Policies           |31.07|9.32|0|0|0|0|1|40.39
60014831|6034115|S0000000A|CPW|CIAJ|51|SGD|200000|20162801|20162801|20172801|Yearly                        |534|0|First Year Policies           |307.58|92.27|0|0|0|0|1|399.85
60014831|6034115|S0000000A|CPW|ENTW|51|SGD|200000|20162801|20162801|20172801|Yearly                        |725.4|0|First Year Policies           |417.83|125.35|0|0|0|0|1|543.18
60014831|6034115|S0000000A|CPW|TPAK|42|SGD|200000|20162801|20162801|20172801|Yearly                        |46|0|First Year Policies           |26.5|7.95|0|0|0|0|1|34.45
60014833|6033964|S0000000A|CPW|ENTW|19|SGD|1000000|20162101|20162101|20172101|Yearly                        |1972.1|0|First Year Policies           |794.76|238.43|0|0|0|0|1|1033.19
60014833|6033964|S0000000A|CPW|HNMQ|19|SGD|2292.08|20162101|20162101|20172101|Yearly                        |151.75|0|First Year Policies           |30.35|24.28|0|0|0|0|1|54.63
60014833|6033964|S0000000A|CPW|TPAK|19|SGD|1000000|20162101|20162101|20172101|Yearly                        |320|0|First Year Policies           |128.96|38.69|0|0|0|0|1|167.65
60014844|6035878|S0000000A|RE1|HCB7|28|SGD|1000|20164275|20164275|20164276|Monthly                       |906.1|0|First Year Policies           |271.83|0|0|0|0|0|1|271.83
60014846|6029244|S0000000A|CPV|ENTV|10|SGD|1500000|20152612|20152612|20162612|Yearly                        |1454.2|0|First Year Policies           |586.04|175.81|0|0|0|0|1|761.85
60014846|6029244|S0000000A|CPV|HNMQ|10|SGD|1670.16|20152612|20152612|20162612|Yearly                        |31.25|0|First Year Policies           |6.25|5|0|0|0|0|1|11.25
60014846|6029244|S0000000A|CPV|TPAJ|10|SGD|1500000|20152612|20152612|20162612|Yearly                        |216|0|First Year Policies           |87.05|26.12|0|0|0|0|1|113.17
60014851|6033781|S0000000A|CPW|CIAJ|38|SGD|200000|20154250|20154250|20164216|Yearly                        |419.2|0|First Year Policies           |241.46|72.44|0|0|0|0|1|313.9
60014851|6033781|S0000000A|CPW|CIE5|38|SGD|100000|20154250|20154250|20164216|Yearly                        |800.8|0|First Year Policies           |507.71|152.31|0|0|0|0|1|660.02
60014851|6033781|S0000000A|CPW|ENTW|38|SGD|1000000|20154250|20154250|20164216|Yearly                        |1268.25|0|First Year Policies           |730.51|219.15|0|0|0|0|1|949.66
60014851|6033781|S0000000A|CPW|TPAK|38|SGD|1000000|20154250|20154250|20164216|Yearly                        |216|0|First Year Policies           |124.42|37.33|0|0|0|0|1|161.75
60014851|6035519|S0000000A|CPW|CIAJ|33|SGD|100000|20162701|20162701|20162702|Monthly                       |17.35|0|First Year Policies           |9.99|3|0|0|0|0|1|12.99
60014851|6035519|S0000000A|CPW|CIE5|33|SGD|200000|20162701|20162701|20162702|Monthly                       |124.1|0|First Year Policies           |78.68|23.6|0|0|0|0|1|102.28
60014851|6035519|S0000000A|CPW|ENTW|33|SGD|1000000|20162701|20162701|20162702|Monthly                       |62.35|0|First Year Policies           |35.9|10.77|0|0|0|0|1|46.67
60014851|6035519|S0000000A|CPW|TPAK|33|SGD|1000000|20162701|20162701|20162702|Monthly                       |13|0|First Year Policies           |7.49|2.25|0|0|0|0|1|9.74
60014851|27796444|S0000000A|MYS|MSI1|98|SGD|0|20161801|20161801|20171801|Yearly                        |138.66|0|First Year Policies           |41.6|13.87|0|0|0|0|1|55.47
60014851|27796457|S0000000A|MSP|MP1C|98|SGD|0|20161801|20161801|20171801|Yearly                        |309.35|0|First Year Policies           |69.6|23.2|0|0|0|0|1|92.8
60014860|27830964|S0000000A|MSP|MP1C|66|SGD|0|20164261|20164261|20174226|Yearly                        |358.88|0|First Year Policies           |80.75|26.92|0|0|0|0|1|107.67
60014863|6033772|S0000000A|RE4|HCRI|40|SGD|500|20162201|20162201|20162202|Monthly                       |754.7|0|First Year Policies           |283.01|0|0|0|0|0|1|283.01
60014863|6035869|S0000000A|RE4|HCRI|48|SGD|2500|20162901|20162901|20162902|Monthly                       |3097.05|0|First Year Policies           |1161.39|0|0|0|0|0|1|1161.39
60014876|6034197|S0000000A|CPW|CIAJ|65|SGD|200000|20162801|20162801|20172801|Yearly                        |758.4|0|First Year Policies           |436.84|131.05|0|0|0|0|1|567.89
60014876|6034197|S0000000A|CPW|ENTW|65|SGD|1000000|20162801|20162801|20172801|Yearly                        |3193.85|0|First Year Policies           |1839.66|551.9|0|0|0|0|1|2391.56
60014883|26749814|S0000000A|MSP|MP1C|66|SGD|0|20164271|20164271|20164277|Yearly                        |178.46|0|First Year Policies           |40.15|13.38|0|0|0|0|1|53.53
60014889|6033374|S0000000A|MLE|CIAN|68|SGD|100000|20161501|20161501|20161502|Monthly                       |54.3|0|First Year Policies           |41.27|0|0|0|0|0|1|41.27
60014889|6033374|S0000000A|MLE|HML2|68|SGD|100000|20161501|20161501|20161502|Monthly                       |164.55|0|First Year Policies           |125.06|0|0|0|0|0|1|125.06
60014889|6033374|S0000000A|MLE|TPM2|39|SGD|100000|20161501|20161501|20161502|Monthly                       |3.1|0|First Year Policies           |2.36|0|0|0|0|0|1|2.36
60014889|6033384|S0000000A|RE1|HCBJ|34|SGD|350|20161501|20161501|20161502|Monthly                       |232.65|0|First Year Policies           |87.24|0|0|0|0|0|1|87.24
60014889|6033384|S0000000A|RE1|HNRY|10|SGD|2726.85|20161501|20161501|20161502|Monthly                       |2.65|0|First Year Policies           |0.95|0|0|0|0|0|1|0.95
60014902|6026607|S0000000A|CPW|CIAJ|32|SGD|100000|20163101|20163101|20163112|Yearly                        |466.4|0|First Year Policies           |246.26|73.88|0|0|0|0|1|320.14
60014902|6032631|S0000000A|CPW|CIAJ|40|SGD|300000|20162601|20162601|20162602|Monthly                       |35.45|0|First Year Policies           |20.41|6.12|0|0|0|0|1|26.53
60014902|6032631|S0000000A|CPW|CIE5|40|SGD|100000|20162601|20162601|20162602|Monthly                       |42.8|0|First Year Policies           |27.14|8.14|0|0|0|0|1|35.28
60014902|6032631|S0000000A|CPW|ENTW|40|SGD|1000000|20162601|20162601|20162602|Monthly                       |48.75|0|First Year Policies           |28.07|8.42|0|0|0|0|1|36.49
60014902|6032631|S0000000A|CPW|TPAK|40|SGD|1000000|20162601|20162601|20162602|Monthly                       |8.2|0|First Year Policies           |4.72|1.42|0|0|0|0|1|6.14
60014905|20786735|S0000000A|MSP|MP2C|61|SGD|0|20164270|20164270|20164272|Yearly                        |38.45|0|First Year Policies           |8.65|2.88|0|0|0|0|1|11.53
60014913|27823437|S0000000A|MSP|MP1C|55|SGD|0|20164202|20164202|20164211|Yearly                        |268.67|0|First Year Policies           |60.45|20.15|0|0|0|0|1|80.6
60014913|27823446|S0000000A|MSP|MP1C|90|SGD|0|20164202|20164202|20164211|Yearly                        |231.59|0|First Year Policies           |52.11|17.37|0|0|0|0|1|69.48
60014915|20218025|S0000000A|MSP|MP2C|81|SGD|0|20164271|20164271|20174236|Yearly                        |136.86|0|First Year Policies           |30.79|10.26|0|0|0|0|1|41.05
60014915|20218039|S0000000A|MSP|MP2C|82|SGD|0|20164271|20164271|20174236|Yearly                        |136.86|0|First Year Policies           |30.79|10.26|0|0|0|0|1|41.05