Agent No|Policy Num|Policy Holder|Policy Type|Component|Pol Term|Cont Curr|Sum Insured|Inception Date|Premium Due Date|Paid To Date|Bil Freq| Premium Paid | Extra Loading |Fee Type| Basic Comm | Basic Overrding Comm | Extra Overrding Comm | Trailer Fee Comm | PAS Comm | Other Comm |FX rate| Total Comm on Payment Curr 
"60014805|E4921242|Anshu Arundhati                                                       |ES8-MyCare 400 (with GST)         |HNFW|55|SGD|5000|25/01/2016|25/01/2016|25/01/2017|Yearly                        |"" 2|740.95 ""| -   |First Year Policies           |"" 1|891.26 ""| 302.60 | -   | -   | -   | -   |1|"" 2|193.86 """
60014814|27804231|Su Shaw Mea                                                           |MYS-MyShield                      |MSI1|54|SGD|0|25/01/2016|25/01/2016|25/01/2017|Yearly                        | 436.74 | -   |First Year Policies           | 131.02 | 43.67 | -   | -   | -   | -   |1| 174.69 
60014814|27804240|Su Shaw Mea                                                           |MSP-MyHealthPlus                  |MP1C|54|SGD|0|25/01/2016|25/01/2016|25/01/2017|Yearly                        | 358.88 | -   |First Year Policies           | 80.75 | 26.92 | -   | -   | -   | -   |1| 107.67 
60014818|27810314|Ling Weicong                                                          |MYS-MyShield                      |MSI1|69|SGD|0|25/01/2016|25/01/2016|25/01/2017|Yearly                        | 110.72 | -   |First Year Policies           | 33.22 | 11.07 | -   | -   | -   | -   |1| 44.29 
60014818|27810327|Ling Weicong                                                          |MSP-MyHealthPlus                  |MP1C|69|SGD|0|25/01/2016|25/01/2016|25/01/2017|Yearly                        | 282.62 | -   |First Year Policies           | 63.59 | 21.20 | -   | -   | -   | -   |1| 84.79 
60014820|27796524|Khoo Chien Fa                                                         |MSP-MyHealthPlus                  |MP1C|44|SGD|0|01/02/2016|01/02/2016|01/01/2017|Yearly                        | 363.56 | -   |First Year Policies           | 81.80 | 27.27 | -   | -   | -   | -   |1| 109.07 
"60014823|6032355|Tay Wee Kiat                                                          |CPW-MyProtector-Level Plus        |ENTW|27|SGD|1000000|21/01/2016|21/01/2016|21/01/2017|Yearly                        |"" 1|288.20 ""| -   |First Year Policies           | 742.00 | 222.60 | -   | -   | -   | -   |1| 964.60 "
60014823|6032355|Tay Wee Kiat                                                          |CPW-MyProtector-Level Plus        |HNMQ|27|SGD|1288.16|21/01/2016|21/01/2016|21/01/2017|Yearly                        | 61.85 | -   |First Year Policies           | 12.37 | 9.90 | -   | -   | -   | -   |1| 22.27 
60014827|6035654|Ng Chong Wei Shaun                                                    |MLD-MyLifeChoice                  |CIAM|98|SGD|100000|29/01/2016|29/01/2016|29/02/2016|Monthly                       | 25.25 | -   |First Year Policies           | 14.39 | -   | -   | -   | -   | -   |1| 14.39 
60014827|6035654|Ng Chong Wei Shaun                                                    |MLD-MyLifeChoice                  |HML1|98|SGD|100000|29/01/2016|29/01/2016|29/02/2016|Monthly                       | 104.35 | -   |First Year Policies           | 59.48 | -   | -   | -   | -   | -   |1| 59.48 
60014827|6035654|Ng Chong Wei Shaun                                                    |MLD-MyLifeChoice                  |HNMU|15|SGD|1542|29/01/2016|29/01/2016|29/02/2016|Monthly                       | 1.85 | -   |First Year Policies           | 0.67 | -   | -   | -   | -   | -   |1| 0.67 
60014827|6035654|Ng Chong Wei Shaun                                                    |MLD-MyLifeChoice                  |HNM6|15|SGD|1542|29/01/2016|29/01/2016|29/02/2016|Monthly                       | 2.00 | -   |First Year Policies           | 0.72 | -   | -   | -   | -   | -   |1| 0.72 
60014827|6035654|Ng Chong Wei Shaun                                                    |MLD-MyLifeChoice                  |TPM1|69|SGD|100000|29/01/2016|29/01/2016|29/02/2016|Monthly                       | 2.00 | -   |First Year Policies           | 1.14 | -   | -   | -   | -   | -   |1| 1.14 
60014830|6032369|Jayshree Ramesh Khemlani                                              |MLF-MyLifeChoice                  |CIAO|79|SGD|100000|25/01/2016|25/01/2016|25/02/2016|Monthly                       | 29.05 | -   |First Year Policies           | 27.60 | -   | -   | -   | -   | -   |1| 27.60 
60014830|6032369|Jayshree Ramesh Khemlani                                              |MLF-MyLifeChoice                  |HML3|79|SGD|100000|25/01/2016|25/01/2016|25/02/2016|Monthly                       | 111.45 | -   |First Year Policies           | 105.88 | -   | -   | -   | -   | -   |1| 105.88 
60014830|6032369|Jayshree Ramesh Khemlani                                              |MLF-MyLifeChoice                  |TPM3|50|SGD|100000|25/01/2016|25/01/2016|25/02/2016|Monthly                       | 2.00 | -   |First Year Policies           | 1.90 | -   | -   | -   | -   | -   |1| 1.90 
60014830|6032378|Jayshree Ramesh Khemlani                                              |EC1-MyEarly Critical Illness Plan |CID3|45|SGD|100000|25/01/2016|25/01/2016|25/02/2016|Monthly                       | 49.00 | -   |First Year Policies           | 31.07 | 9.32 | -   | -   | -   | -   |1| 40.39 
60014831|6034115|Woon Daniel Tianxiang                                                 |CPW-MyProtector-Level Plus        |CIAJ|51|SGD|200000|28/01/2016|28/01/2016|28/01/2017|Yearly                        | 534.00 | -   |First Year Policies           | 307.58 | 92.27 | -   | -   | -   | -   |1| 399.85 
60014831|6034115|Woon Daniel Tianxiang                                                 |CPW-MyProtector-Level Plus        |ENTW|51|SGD|200000|28/01/2016|28/01/2016|28/01/2017|Yearly                        | 725.40 | -   |First Year Policies           | 417.83 | 125.35 | -   | -   | -   | -   |1| 543.18 
60014831|6034115|Woon Daniel Tianxiang                                                 |CPW-MyProtector-Level Plus        |TPAK|42|SGD|200000|28/01/2016|28/01/2016|28/01/2017|Yearly                        | 46.00 | -   |First Year Policies           | 26.50 | 7.95 | -   | -   | -   | -   |1| 34.45 
"60014833|6033964|Anshu Sharma                                                          |CPW-MyProtector-Level Plus        |ENTW|19|SGD|1000000|21/01/2016|21/01/2016|21/01/2017|Yearly                        |"" 1|972.10 ""| -   |First Year Policies           | 794.76 | 238.43 | -   | -   | -   | -   |1|"" 1|033.19 """
60014833|6033964|Anshu Sharma                                                          |CPW-MyProtector-Level Plus        |HNMQ|19|SGD|2292.08|21/01/2016|21/01/2016|21/01/2017|Yearly                        | 151.75 | -   |First Year Policies           | 30.35 | 24.28 | -   | -   | -   | -   |1| 54.63 
60014833|6033964|Anshu Sharma                                                          |CPW-MyProtector-Level Plus        |TPAK|19|SGD|1000000|21/01/2016|21/01/2016|21/01/2017|Yearly                        | 320.00 | -   |First Year Policies           | 128.96 | 38.69 | -   | -   | -   | -   |1| 167.65 
60014844|6035878|Lim Ai Ling Vivian                                                    |RE1-MyRetirement                  |HCB7|28|SGD|1000|11/01/2016|11/01/2016|11/02/2016|Monthly                       | 906.10 | -   |First Year Policies           | 271.83 | -   | -   | -   | -   | -   |1| 271.83 
"60014846|6029244|Ong See Yew                                                           |CPV-MyProtector-Level Plus        |ENTV|10|SGD|1500000|26/12/2015|26/12/2015|26/12/2016|Yearly                        |"" 1|454.20 ""| -   |First Year Policies           | 586.04 | 175.81 | -   | -   | -   | -   |1| 761.85 "
60014846|6029244|Ong See Yew                                                           |CPV-MyProtector-Level Plus        |HNMQ|10|SGD|1670.16|26/12/2015|26/12/2015|26/12/2016|Yearly                        | 31.25 | -   |First Year Policies           | 6.25 | 5.00 | -   | -   | -   | -   |1| 11.25 
60014846|6029244|Ong See Yew                                                           |CPV-MyProtector-Level Plus        |TPAJ|10|SGD|1500000|26/12/2015|26/12/2015|26/12/2016|Yearly                        | 216.00 | -   |First Year Policies           | 87.05 | 26.12 | -   | -   | -   | -   |1| 113.17 
60014851|6033781|Buan Wei Hong Ivan                                                    |CPW-MyProtector-Level Plus        |CIAJ|38|SGD|200000|12/12/2015|12/12/2015|12/12/2016|Yearly                        | 419.20 | -   |First Year Policies           | 241.46 | 72.44 | -   | -   | -   | -   |1| 313.90 
60014851|6033781|Buan Wei Hong Ivan                                                    |CPW-MyProtector-Level Plus        |CIE5|38|SGD|100000|12/12/2015|12/12/2015|12/12/2016|Yearly                        | 800.80 | -   |First Year Policies           | 507.71 | 152.31 | -   | -   | -   | -   |1| 660.02 
"60014851|6033781|Buan Wei Hong Ivan                                                    |CPW-MyProtector-Level Plus        |ENTW|38|SGD|1000000|12/12/2015|12/12/2015|12/12/2016|Yearly                        |"" 1|268.25 ""| -   |First Year Policies           | 730.51 | 219.15 | -   | -   | -   | -   |1| 949.66 "
60014851|6033781|Buan Wei Hong Ivan                                                    |CPW-MyProtector-Level Plus        |TPAK|38|SGD|1000000|12/12/2015|12/12/2015|12/12/2016|Yearly                        | 216.00 | -   |First Year Policies           | 124.42 | 37.33 | -   | -   | -   | -   |1| 161.75 
60014851|6035519|Chan Dione Yiptong                                                    |CPW-MyProtector-Level Plus        |CIAJ|33|SGD|100000|27/01/2016|27/01/2016|27/02/2016|Monthly                       | 17.35 | -   |First Year Policies           | 9.99 | 3.00 | -   | -   | -   | -   |1| 12.99 
60014851|6035519|Chan Dione Yiptong                                                    |CPW-MyProtector-Level Plus        |CIE5|33|SGD|200000|27/01/2016|27/01/2016|27/02/2016|Monthly                       | 124.10 | -   |First Year Policies           | 78.68 | 23.60 | -   | -   | -   | -   |1| 102.28 
60014851|6035519|Chan Dione Yiptong                                                    |CPW-MyProtector-Level Plus        |ENTW|33|SGD|1000000|27/01/2016|27/01/2016|27/02/2016|Monthly                       | 62.35 | -   |First Year Policies           | 35.90 | 10.77 | -   | -   | -   | -   |1| 46.67 
60014851|6035519|Chan Dione Yiptong                                                    |CPW-MyProtector-Level Plus        |TPAK|33|SGD|1000000|27/01/2016|27/01/2016|27/02/2016|Monthly                       | 13.00 | -   |First Year Policies           | 7.49 | 2.25 | -   | -   | -   | -   |1| 9.74 
60014851|27796444|Choy Pui Yeng Kelly                                                   |MYS-MyShield                      |MSI1|98|SGD|0|18/01/2016|18/01/2016|18/01/2017|Yearly                        | 138.66 | -   |First Year Policies           | 41.60 | 13.87 | -   | -   | -   | -   |1| 55.47 
60014851|27796457|Choy Pui Yeng Kelly                                                   |MSP-MyHealthPlus                  |MP1C|98|SGD|0|18/01/2016|18/01/2016|18/01/2017|Yearly                        | 309.35 | -   |First Year Policies           | 69.60 | 23.20 | -   | -   | -   | -   |1| 92.80 
60014860|27830964|Wah Wah Soe                                                           |MSP-MyHealthPlus                  |MP1C|66|SGD|0|04/01/2016|04/01/2016|04/01/2017|Yearly                        | 358.88 | -   |First Year Policies           | 80.75 | 26.92 | -   | -   | -   | -   |1| 107.67 
60014863|6033772|Usha Kumari d/o Krisnan Gove Mrs Kumar Rajan                          |RE4-MyRetirement Plus             |HCRI|40|SGD|500|22/01/2016|22/01/2016|22/02/2016|Monthly                       | 754.70 | -   |First Year Policies           | 283.01 | -   | -   | -   | -   | -   |1| 283.01 
"60014863|6035869|Santosa Anindita                                                      |RE4-MyRetirement Plus             |HCRI|48|SGD|2500|29/01/2016|29/01/2016|29/02/2016|Monthly                       |"" 3|097.05 ""| -   |First Year Policies           |"" 1|161.39 ""| -   | -   | -   | -   | -   |1|"" 1|161.39 """
60014876|6034197|Lau Jing Jing                                                         |CPW-MyProtector-Level Plus        |CIAJ|65|SGD|200000|28/01/2016|28/01/2016|28/01/2017|Yearly                        | 758.40 | -   |First Year Policies           | 436.84 | 131.05 | -   | -   | -   | 